Division,WeightClassKg,Place,Name,Team,BodyweightKg,Best3SquatKg,Best3BenchKg,Best3DeadliftKg,TotalKg,Equipment,Event,Sex
Boys,51.71,1,Thomas Helton,Coldspring-Oakhurst,50.35,102.06,56.7,113.4,272.16,Single-ply,SBD,M
Boys,51.71,2,Andre Lockett,Anahuac,47.17,77.11,45.36,97.52,219.99,Single-ply,SBD,M
Boys,55.79,1,Dominique Singletary,Cleveland,54.88,147.42,72.57,142.88,362.87,Single-ply,SBD,M
Boys,55.79,2,Logan Rhame,Anahuac,53.07,99.79,68.04,120.2,288.03,Single-ply,SBD,M
Boys,59.87,1,John Kimble,Anahuac,59.87,170.1,106.59,163.29,439.98,Single-ply,SBD,M
Boys,59.87,2,Josh Vasquez,Cleveland,56.7,145.15,56.7,161.03,362.87,Single-ply,SBD,M
Boys,59.87,3,Caleb Modzelewski,Sour Lake Hardin-Jefferson,59.87,115.67,74.84,138.35,328.85,Single-ply,SBD,M
Boys,59.87,4,Garrett Hawthorne,Cleveland Tarkington,58.51,102.06,54.43,147.42,303.91,Single-ply,SBD,M
Boys,59.87,5,Justin Brown,Cleveland Tarkington,58.06,102.06,49.9,117.93,269.89,Single-ply,SBD,M
Boys,59.87,6,Darrell White #2,Coldspring-Oakhurst,56.7,81.65,61.23,102.06,244.94,Single-ply,SBD,M
Boys,67.13,1,Devonte Outerbridge,Anahuac,64.86,185.97,104.33,174.63,464.93,Single-ply,SBD,M
Boys,67.13,2,Cody Garner,Cleveland Tarkington,66.68,165.56,115.67,165.56,446.79,Single-ply,SBD,M
Boys,67.13,3,Cameron Hughes,Cleveland Tarkington,65.77,133.81,92.99,172.37,399.16,Single-ply,SBD,M
Boys,67.13,4,Tre Cooper,Coldspring-Oakhurst,63.5,136.08,79.38,129.27,344.73,Single-ply,SBD,M
Boys,67.13,5,Shannon Grantham,Sour Lake Hardin-Jefferson,61.23,90.72,65.77,129.27,285.76,Single-ply,SBD,M
Boys,67.13,6,Ivan Espinoza,Cleveland,60.33,102.06,63.5,106.59,272.16,Single-ply,SBD,M
Boys,67.13,7,Josh Hall,Sour Lake Hardin-Jefferson,62.6,79.38,65.77,115.67,260.82,Single-ply,SBD,M
Boys,67.13,8,Jamel Bass,Coldspring-Oakhurst,62.14,72.57,56.7,111.13,240.4,Single-ply,SBD,M
Boys,74.84,9,Brandon Butcher,Sour Lake Hardin-Jefferson,67.31,79.38,52.16,92.99,224.53,Single-ply,SBD,M
Boys,74.84,1,Cameron Russell,Cleveland Tarkington,73.48,201.85,129.27,229.06,560.19,Single-ply,SBD,M
Boys,74.84,2,Taylor Kelley,Coldspring-Oakhurst,73.94,174.63,95.25,185.97,455.86,Single-ply,SBD,M
Boys,74.84,3,Dalton Horn,Sour Lake Hardin-Jefferson,73.48,163.29,97.52,174.63,435.45,Single-ply,SBD,M
Boys,74.84,4,Daniel Perrigin,Cleveland Tarkington,70.76,154.22,106.59,165.56,426.38,Single-ply,SBD,M
Boys,74.84,5,James Hvamstad,Anahuac,73.94,158.76,99.79,156.49,415.04,Single-ply,SBD,M
Boys,74.84,6,Dalton Blum,Cleveland Tarkington,68.49,124.74,92.99,151.95,369.68,Single-ply,SBD,M
Boys,74.84,7,Trent Holcomb,Coldspring-Oakhurst,69.85,136.08,90.72,142.88,369.68,Single-ply,SBD,M
Boys,74.84,8,John Kirchner,Cleveland Tarkington,72.12,120.2,79.38,147.42,347,Single-ply,SBD,M
Boys,74.84,9,Johnny Lively,Sour Lake Hardin-Jefferson,69.4,83.91,70.31,129.27,283.5,Single-ply,SBD,M
Boys,82.1,1,Dustin Meadows,Cleveland,77.56,167.83,99.79,165.56,433.18,Single-ply,SBD,M
Boys,82.1,2,Jordan Smith,Cleveland Tarkington,80.74,142.88,92.99,188.24,424.11,Single-ply,SBD,M
Boys,82.1,3,Chris Conn,Coldspring-Oakhurst,76.2,129.27,90.72,158.76,378.75,Single-ply,SBD,M
Boys,82.1,4,Ricky George,Sour Lake Hardin-Jefferson,77.56,92.99,68.04,124.74,285.76,Single-ply,SBD,M
Boys,82.1,5,Cameron Fontenot,Sour Lake Hardin-Jefferson,75.3,92.99,68.04,117.93,278.96,Single-ply,SBD,M
Boys,89.81,1,Micheal Swearingen,Cleveland,87.54,163.29,127.01,154.22,444.52,Single-ply,SBD,M
Boys,89.81,2,Nathan Meyers,Anahuac,88,147.42,108.86,167.83,424.11,Single-ply,SBD,M
Boys,89.81,3,Brandon Franks,Sour Lake Hardin-Jefferson,89.36,129.27,79.38,208.65,417.3,Single-ply,SBD,M
Boys,99.79,1,Matt Daniel,Cleveland,97.98,204.12,124.74,188.24,517.1,Single-ply,SBD,M
Boys,99.79,2,Joe Traylor,Coldspring-Oakhurst,96.62,192.78,120.2,183.7,496.68,Single-ply,SBD,M
Boys,99.79,3,Brian Morgan,Cleveland,99.79,181.44,95.25,161.03,437.72,Single-ply,SBD,M
Boys,99.79,4,Layne Walker,Sour Lake Hardin-Jefferson,90.72,136.08,74.84,170.1,381.02,Single-ply,SBD,M
Boys,99.79,5,Greg Ames,Sour Lake Hardin-Jefferson,91.63,117.93,77.11,156.49,351.53,Single-ply,SBD,M
Boys,109.77,1,Blake Speights,Anahuac,106.14,192.78,136.08,208.65,537.51,Single-ply,SBD,M
Boys,109.77,2,Joseph Defore,Anahuac,108.41,204.12,108.86,204.12,517.1,Single-ply,SBD,M
Boys,109.77,3,Cj Duenas,Coldspring-Oakhurst,107.05,197.31,111.13,199.58,508.02,Single-ply,SBD,M
Boys,109.77,4,Blake Duhon,Anahuac,107.95,197.31,111.13,176.9,485.34,Single-ply,SBD,M
Boys,124.74,1,Miguel Banda,Cleveland,112.94,192.78,124.74,158.76,476.27,Single-ply,SBD,M
Boys,124.74,2,Nolan Walker,Coldspring-Oakhurst,124.28,170.1,108.86,181.44,460.4,Single-ply,SBD,M
Boys,124.74,3,Jake Oler,Anahuac,117.93,185.97,108.86,158.76,453.59,Single-ply,SBD,M
Boys,124.74+,1,Kevin Leach,Coldspring-Oakhurst,142.88,260.82,142.88,219.99,623.69,Single-ply,SBD,M
Boys,124.74+,2,Cullen Burch,Cleveland,135.62,254.01,161.03,185.97,601.01,Single-ply,SBD,M
Boys,124.74+,3,Leroy Powell,Anahuac,128.82,190.51,95.25,192.78,478.54,Single-ply,SBD,M
Junior Varsity,51.71,1,Brian Hill,Coldspring-Oakhurst,44.36,68.04,45.36,83.91,197.31,Single-ply,SBD,M
Junior Varsity,59.87,DQ,Aaron Chatman,Coldspring-Oakhurst,56.61,,,,,Single-ply,SBD,M
Junior Varsity,67.13,1,Ian Richey,Coldspring-Oakhurst,63.87,111.13,88.45,131.54,331.12,Single-ply,SBD,M
Junior Varsity,67.13,2,Porter May,Anahuac,64.41,99.79,72.57,140.61,312.98,Single-ply,SBD,M
Junior Varsity,67.13,3,Dustin Risner,Coldspring-Oakhurst,63.59,95.25,65.77,115.67,276.69,Single-ply,SBD,M
Junior Varsity,67.13,4,Edward Garner,Anahuac,62.14,81.65,63.5,122.47,267.62,Single-ply,SBD,M
Junior Varsity,74.84,1,Trey Finnex,Anahuac,71.21,129.27,79.38,183.7,392.36,Single-ply,SBD,M
Junior Varsity,74.84,2,Jacob Meadows,Coldspring-Oakhurst,70.76,133.81,90.72,142.88,367.41,Single-ply,SBD,M
Junior Varsity,74.84,3,Colton Monroe,Coldspring-Oakhurst,69.49,140.61,95.25,129.27,365.14,Single-ply,SBD,M
Junior Varsity,74.84,4,Buck Trice,Anahuac,73.03,131.54,83.91,147.42,362.87,Single-ply,SBD,M
Junior Varsity,74.84,5,Hunter Bowen,Cleveland,72.76,136.08,72.57,136.08,344.73,Single-ply,SBD,M
Junior Varsity,74.84,6,John Quiser,Coldspring-Oakhurst,70.58,106.59,68.04,124.74,299.37,Single-ply,SBD,M
Junior Varsity,74.84,7,Will Venn,Coldspring-Oakhurst,72.57,102.06,74.84,102.06,278.96,Single-ply,SBD,M
Junior Varsity,74.84,8,Julius Buckley,Cleveland,74.21,102.06,74.84,102.06,278.96,Single-ply,SBD,M
Junior Varsity,82.1,1,Miqul Russell,Anahuac,79.38,117.93,70.31,133.81,322.05,Single-ply,SBD,M
Junior Varsity,82.1,2,Anderson Adams,Coldspring-Oakhurst,79.83,92.99,63.5,104.33,260.82,Single-ply,SBD,M
Junior Varsity,99.79,1,Joe Stover,Coldspring-Oakhurst,96.8,170.1,108.86,181.44,460.4,Single-ply,SBD,M
Junior Varsity,99.79,2,Randall Richards,Cleveland,97.3,136.08,74.84,174.63,385.55,Single-ply,SBD,M
Junior Varsity,109.77,1,Greg Dunham,Coldspring-Oakhurst,101.42,142.88,97.52,165.56,405.97,Single-ply,SBD,M
Junior Varsity,109.77,2,Hunter Bergeron,Anahuac,108.86,145.15,77.11,151.95,374.21,Single-ply,SBD,M
Junior Varsity,124.74+,1,Dalton Conrad,Coldspring-Oakhurst,124.83,161.03,115.67,156.49,433.18,Single-ply,SBD,M
Junior Varsity,124.74,2,Donald Klecka,Anahuac,112.49,158.76,90.72,156.49,405.97,Single-ply,SBD,M
Junior Varsity,124.74,3,Blake Goudeau,Anahuac,117.03,115.67,88.45,181.44,385.55,Single-ply,SBD,M
Junior Varsity,124.74,4,Jesus Varella,Cleveland,124.74,131.54,70.31,131.54,333.39,Single-ply,SBD,M
Junior Varsity,124.74+,1,Micheal Laughlin,Coldspring-Oakhurst,136.53,108.86,102.06,133.81,344.73,Single-ply,SBD,M
Junior Varsity,124.74+,2,Hector Espinoza,Cleveland,129.27,102.06,70.31,131.54,303.91,Single-ply,SBD,M
