Division,WeightClassKg,Place,Name,Team,BodyweightKg,Best3SquatKg,Best3BenchKg,Best3DeadliftKg,TotalKg,Equipment,Event,Sex,BirthDate
Boys,51.71,1,Alex Salto,Manvel,48.63,106.59,74.84,117.93,299.37,Single-ply,SBD,M,
Boys,51.71,2,Jacob Kidwell,Hitchcock,51.71,113.4,49.9,117.93,281.23,Single-ply,SBD,M,
Boys,55.79,1,Noah Hysten,Sweeny,55.07,136.08,77.11,127.01,340.19,Single-ply,SBD,M,
Boys,55.79,2,Noah Estrada,Pasadena Memorial,55.79,111.13,74.84,124.74,310.71,Single-ply,SBD,M,
Boys,55.79,3,Jesse Norwood,Needville,52.71,111.13,72.57,104.33,288.03,Single-ply,SBD,M,
Boys,55.79,DQ,Brandon Limas,Wharton,54.88,,63.5,88.45,,Single-ply,SBD,M,
Boys,59.87,1,Marco Sanchez,Hitchcock,59.83,167.83,81.65,165.56,415.04,Single-ply,SBD,M,
Boys,59.87,2,Cayde Brewer,Sweeny,59.87,149.69,106.59,154.22,410.5,Single-ply,SBD,M,
Boys,59.87,3,JaiDen Johnson,Needville,57.61,111.13,79.38,127.01,317.51,Single-ply,SBD,M,
Boys,59.87,DQ,Noah Burton,Alvin Shadow Creek,59.06,147.42,,,,Single-ply,SBD,M,
Boys,59.87,DQ,Matthew Martinez,Pasadena Memorial,58.97,124.74,72.57,,,Single-ply,SBD,M,
Boys,67.13,1,Robert Martinez,West Columbia,66.22,215.46,113.4,201.85,530.7,Single-ply,SBD,M,
Boys,67.13,2,Jared Pearson,Clute Brazoswood,66.04,192.78,113.4,204.12,510.29,Single-ply,SBD,M,
Boys,67.13,3,Armando Cabriales,Clute Brazoswood,66.22,190.51,113.4,197.31,501.22,Single-ply,SBD,M,
Boys,67.13,4,Ashton Norwood,Hitchcock,66.04,195.04,102.06,199.58,496.68,Single-ply,SBD,M,
Boys,67.13,5,Bailey Lepore,Texas City,61.87,176.9,113.4,176.9,467.2,Single-ply,SBD,M,
Boys,67.13,6,David Ngoy,Dickinson,66.04,188.24,108.86,170.1,467.2,Single-ply,SBD,M,
Boys,67.13,7,Junji Chen,Alvin Shadow Creek,66.32,179.17,99.79,179.17,458.13,Single-ply,SBD,M,
Boys,67.13,8,Matt Aguilar,Needville,64.32,167.83,97.52,158.76,424.11,Single-ply,SBD,M,
Boys,67.13,9,Jonah Mata,Needville,64.41,149.69,92.99,161.03,403.7,Single-ply,SBD,M,
Boys,67.13,10,Tyler Toutcheque,West Columbia,61.51,142.88,92.99,147.42,383.29,Single-ply,SBD,M,
Boys,67.13,11,Bryan Lara,Alvin Shadow Creek,60.33,127.01,83.91,163.29,374.21,Single-ply,SBD,M,
Boys,67.13,12,Dylan Kelly,Clute Brazoswood,65.41,129.27,79.38,158.76,367.41,Single-ply,SBD,M,
Boys,67.13,13,Josha Gomez,Wharton,64.86,124.74,74.84,136.08,335.66,Single-ply,SBD,M,
Boys,74.84,1,Keegan Anderson,West Columbia,73.21,206.38,136.08,192.78,535.24,Single-ply,SBD,M,
Boys,74.84,2,Regie Marges,Alvin Shadow Creek,73.48,176.9,111.13,231.33,519.36,Single-ply,SBD,M,
Boys,74.84,3,Stephen Morales,Hitchcock,74.75,199.58,108.86,208.65,517.1,Single-ply,SBD,M,
Boys,74.84,4,Sovanara Key,Alvin Shadow Creek,73.84,181.44,108.86,208.65,498.95,Single-ply,SBD,M,
Boys,74.84,5,Bladdin Hill,Dickinson,74.21,197.31,111.13,190.51,498.95,Single-ply,SBD,M,
Boys,74.84,6,Grant Crawford,Alvin Shadow Creek,74.12,183.7,104.33,183.7,471.74,Single-ply,SBD,M,
Boys,74.84,7,Nate Neely,Clute Brazoswood,69.22,165.56,111.13,188.24,464.93,Single-ply,SBD,M,
Boys,74.84,8,Carlos Montoya,Pasadena Memorial,74.3,158.76,113.4,190.51,462.66,Single-ply,SBD,M,
Boys,74.84,9,Andrew Bonilla,Needville,72.57,156.49,92.99,188.24,437.72,Single-ply,SBD,M,
Boys,74.84,10,Luis Cantu,Clute Brazoswood,71.89,156.49,92.99,174.63,424.11,Single-ply,SBD,M,
Boys,74.84,11,Jacorey Washington,Sweeny,71.58,149.69,104.33,163.29,417.3,Single-ply,SBD,M,
Boys,74.84,12,Garren Heath,West Columbia,67.68,151.95,102.06,161.03,415.04,Single-ply,SBD,M,
Boys,74.84,13,Dylan Folse,Hitchcock,73.84,147.42,77.11,170.1,394.63,Single-ply,SBD,M,
Boys,74.84,14,Reese Staley,Needville,69.49,127.01,77.11,145.15,349.27,Single-ply,SBD,M,
Boys,74.84,DQ,Kem Dunbar,Alvin Shadow Creek,67.59,,81.65,158.76,,Single-ply,SBD,M,
Boys,74.84,DQ,Donte Noel,Manvel,71.4,,,,,Single-ply,SBD,M,
Boys,82.1,1,Mario Vega,Clute Brazoswood,81.74,238.14,158.76,238.14,635.03,Single-ply,SBD,M,
Boys,82.1,2,Micah Bumgarner,Hitchcock,80.01,231.33,138.35,215.46,585.13,Single-ply,SBD,M,
Boys,82.1,3,Kyler Teykl,Needville,79.47,231.33,127.01,188.24,546.58,Single-ply,SBD,M,
Boys,82.1,4,Kyron Smith,Dickinson,77.66,201.85,122.47,217.72,542.04,Single-ply,SBD,M,
Boys,82.1,5,Blaze Dabelgott,Sweeny,81.37,204.12,124.74,199.58,528.44,Single-ply,SBD,M,
Boys,82.1,6,Noah Cruz,Manvel,82.1,190.51,124.74,210.92,526.17,Single-ply,SBD,M,
Boys,82.1,7,Isaiah Llorens,Stafford,77.75,201.85,124.74,188.24,514.83,Single-ply,SBD,M,
Boys,82.1,8,Jayden DeKelaita,Dickinson,77.66,219.99,88.45,204.12,512.56,Single-ply,SBD,M,
Boys,82.1,9,Anthony Copado,Dickinson,80.83,188.24,111.13,208.65,508.02,Single-ply,SBD,M,
Boys,82.1,10,Martin Dietz,Needville,80.1,199.58,113.4,183.7,496.68,Single-ply,SBD,M,
Boys,82.1,11,Dominic Garcia,Manvel,79.38,185.97,102.06,206.38,494.42,Single-ply,SBD,M,
Boys,82.1,12,Matt Fleming,Hitchcock,79.74,195.04,102.06,183.7,480.81,Single-ply,SBD,M,
Boys,82.1,13,Carlo Lewis,Hitchcock,80.29,195.04,92.99,185.97,474,Single-ply,SBD,M,
Boys,82.1,14,Chris West,Clute Brazoswood,80.29,165.56,111.13,188.24,464.93,Single-ply,SBD,M,
Boys,82.1,15,Cameron Schilhab,Pasadena Memorial,75.66,170.1,90.72,192.78,453.59,Single-ply,SBD,M,
Boys,82.1,16,Jacob Rodriguez,Pasadena Memorial,78.38,183.7,97.52,172.37,453.59,Single-ply,SBD,M,
Boys,82.1,17,Caleb Mitchell,Hitchcock,79.29,185.97,97.52,156.49,439.98,Single-ply,SBD,M,
Boys,82.1,18,Caleb Williams,Sweeny,80.29,154.22,102.06,174.63,430.91,Single-ply,SBD,M,
Boys,82.1,19,Franco Godoy,Pasadena Memorial,80.2,158.76,83.91,163.29,405.97,Single-ply,SBD,M,
Boys,82.1,DQ,Byan Lopez,Wharton,76.2,133.81,,,,Single-ply,SBD,M,
Boys,89.81,1,Dylan Campbell,Alvin Shadow Creek,89.81,276.69,158.76,238.14,673.58,Single-ply,SBD,M,
Boys,89.81,2,Kelvon Norman,Hitchcock,89.81,276.69,149.69,217.72,644.1,Single-ply,SBD,M,
Boys,89.81,3,DeMonte Seymore,Manvel,87,231.33,138.35,235.87,605.55,Single-ply,SBD,M,
Boys,89.81,4,Albert Alfaro,Texas City,87.82,240.4,129.27,217.72,587.4,Single-ply,SBD,M,
Boys,89.81,5,Pristine Hysten,Sweeny,82.83,226.8,151.95,199.58,578.33,Single-ply,SBD,M,
Boys,89.81,6,Jason Pinder,Dickinson,88.72,229.06,122.47,206.38,557.92,Single-ply,SBD,M,
Boys,89.81,7,Jayson Peters,Alvin Shadow Creek,88.45,188.24,122.47,199.58,510.29,Single-ply,SBD,M,
Boys,89.81,8,Anthony Cox,Clute Brazoswood,83.82,185.97,111.13,210.92,508.02,Single-ply,SBD,M,
Boys,89.81,9,Hogan Ashford,Sweeny,85.09,204.12,124.74,174.63,503.49,Single-ply,SBD,M,
Boys,89.81,10,Juan Cuevas,West Columbia,86.91,192.78,117.93,174.63,485.34,Single-ply,SBD,M,
Boys,89.81,11,Micheal Gomez,Pasadena Memorial,88.54,188.24,102.06,188.24,478.54,Single-ply,SBD,M,
Boys,89.81,12,Matt Torres,Needville,88.45,199.58,108.86,145.15,453.59,Single-ply,SBD,M,
Boys,89.81,13,Adrian Frausto,Needville,86.18,149.69,102.06,167.83,419.57,Single-ply,SBD,M,
Boys,89.81,14,Aaron Gomez,Wharton,88.45,129.27,90.72,136.08,356.07,Single-ply,SBD,M,
Boys,99.79,1,Nathan Cabrera,Pasadena Memorial,93.17,238.14,124.74,206.38,569.26,Single-ply,SBD,M,
Boys,99.79,2,Brett Bible,Sweeny,95.98,226.8,147.42,185.97,560.19,Single-ply,SBD,M,
Boys,99.79,3,Christian Fregia,Stafford,96.34,206.38,142.88,197.31,546.58,Single-ply,SBD,M,
Boys,99.79,4,Israel Deleon,Needville,94.26,201.85,127.01,181.44,510.29,Single-ply,SBD,M,
Boys,99.79,5,Dijon James,Clute Brazoswood,92.53,174.63,124.74,195.04,494.42,Single-ply,SBD,M,
Boys,99.79,6,David Collins,Stafford,98.43,174.63,124.74,188.24,487.61,Single-ply,SBD,M,
Boys,99.79,7,Francisco Villalobos,Pasadena Memorial,97.61,167.83,92.99,197.31,458.13,Single-ply,SBD,M,
Boys,99.79,8,Elijah Norwood,Pasadena Memorial,95.16,174.63,90.72,183.7,449.06,Single-ply,SBD,M,
Boys,99.79,9,Jayden Balderaz,Pasadena Memorial,94.71,172.37,95.25,147.42,415.04,Single-ply,SBD,M,
Boys,109.77,1,Landon Henke,Needville,106.78,294.84,161.03,235.87,691.73,Single-ply,SBD,M,
Boys,109.77,2,Chancellor Buford,Alvin Shadow Creek,106.41,226.8,161.03,249.48,637.3,Single-ply,SBD,M,
Boys,109.77,3,Diego Flores,Sweeny,106.41,231.33,174.63,219.99,625.96,Single-ply,SBD,M,
Boys,109.77,4,Adrian Tamez,Pasadena Memorial,103.42,215.46,145.15,226.8,587.4,Single-ply,SBD,M,
Boys,109.77,5,Luis Sanchez,Texas City,106.23,238.14,127.01,206.38,571.53,Single-ply,SBD,M,
Boys,109.77,6,Randy Byrd,Sweeny,102.69,219.99,127.01,215.46,562.45,Single-ply,SBD,M,
Boys,109.77,7,Jose Jimenez,Pasadena Memorial,106.68,213.19,117.93,231.33,562.45,Single-ply,SBD,M,
Boys,109.77,8,Jose-Maria Leyva,Dickinson,104.42,233.6,122.47,192.78,548.85,Single-ply,SBD,M,
Boys,109.77,9,Rafael Martinez,West Columbia,106.41,206.38,138.35,183.7,528.44,Single-ply,SBD,M,
Boys,109.77,10,Raphael Joiner,Alvin Shadow Creek,104.78,192.78,138.35,192.78,523.9,Single-ply,SBD,M,
Boys,109.77,11,Dacoda Lopez,Clute Brazoswood,102.06,165.56,136.08,210.92,512.56,Single-ply,SBD,M,
Boys,109.77,12,Gerardo Romero,Alvin Shadow Creek,100.97,158.76,122.47,215.46,496.68,Single-ply,SBD,M,
Boys,109.77,13,Dylan Stone,West Columbia,107.14,151.95,111.13,170.1,433.18,Single-ply,SBD,M,
Boys,109.77,14,Augustian Muniz,Wharton,107.5,151.95,106.59,163.29,421.84,Single-ply,SBD,M,
Boys,109.77,DQ,Kerwyn Dunlap,Clute Brazoswood,107.5,219.99,117.93,,,Single-ply,SBD,M,
Boys,109.77,DQ,Deshawn Parks,Pasadena Memorial,102.06,165.56,,,,Single-ply,SBD,M,
Boys,109.77,DQ,Trevino Patt,Stafford,105.51,204.12,,,,Single-ply,SBD,M,
Boys,124.74,1,Ricardo Marquez,Needville,121.29,272.16,161.03,226.8,659.98,Single-ply,SBD,M,
Boys,124.74,2,Dylan Hughes,Alvin Shadow Creek,119.93,238.14,151.95,244.94,635.03,Single-ply,SBD,M,
Boys,124.74,3,Alex Zavala,Clute Brazoswood,117.21,224.53,163.29,226.8,614.62,Single-ply,SBD,M,
Boys,124.74,4,Charles Ray,Texas City,122.38,265.35,136.08,208.65,610.08,Single-ply,SBD,M,
Boys,124.74,5,Lance McLaren,Sweeny,124.38,226.8,145.15,215.46,587.4,Single-ply,SBD,M,
Boys,124.74,6,Sebastian Carrier,Stafford,115.21,170.1,149.69,238.14,557.92,Single-ply,SBD,M,
Boys,124.74,7,Chris Strange,West Columbia,117.48,229.06,129.27,192.78,551.11,Single-ply,SBD,M,
Boys,124.74,8,Dereiaz Wilson,Dickinson,111.49,213.19,131.54,188.24,532.97,Single-ply,SBD,M,
Boys,124.74,9,Bryant Jones,Needville,116.03,217.72,124.74,188.24,530.7,Single-ply,SBD,M,
Boys,124.74,10,Stephen Ashburn,Needville,114.4,210.92,136.08,170.1,517.1,Single-ply,SBD,M,
Boys,124.74,11,Alex Mateo,Pasadena Memorial,120.66,170.1,90.72,192.78,453.59,Single-ply,SBD,M,
Boys,124.74,DQ,Cedric Spears,Pasadena Memorial,118.84,,,,,Single-ply,SBD,M,
Boys,124.74,DQ,Ja'Kerrin Price,Texas City,120.2,267.62,,,,Single-ply,SBD,M,
Boys,124.74+,1,Blake Boenesch,Needville,147.78,297.1,181.44,285.76,764.3,Single-ply,SBD,M,
Boys,124.74+,2,Eric Sneed,Texas City,157.58,283.5,154.22,215.46,653.17,Single-ply,SBD,M,
Boys,124.74+,3,Trevor Wardlow,Dickinson,147.87,229.06,151.95,195.04,576.06,Single-ply,SBD,M,
Boys,124.74+,4,Jake Walker,West Columbia,133.27,226.8,140.61,204.12,571.53,Single-ply,SBD,M,
Boys,124.74+,5,Mikal Bryan,Hitchcock,150.59,224.53,142.88,204.12,571.53,Single-ply,SBD,M,
Boys,124.74+,6,Reagan Gibson,West Columbia,127.91,192.78,129.27,226.8,548.85,Single-ply,SBD,M,
Boys,124.74+,DQ,Braylon Garcia,Stafford,148.78,,,,,Single-ply,SBD,M,
