Division,WeightClassKg,Place,Name,Team,BodyweightKg,Best3SquatKg,Best3BenchKg,Best3DeadliftKg,TotalKg,Equipment,Event,Sex,BirthDate
Junior Varsity,51.71,1,Raymundo Ruiz,Rocksprings,49.9,106.59,61.23,111.13,278.96,Single-ply,SBD,M,
Junior Varsity,51.71,2,DerrickBryan Valadez,Center Point,50.8,88.45,65.77,115.67,269.89,Single-ply,SBD,M,
Junior Varsity,51.71,3,Tyler Williams,Center Point,46.27,102.06,54.43,102.06,258.55,Single-ply,SBD,M,
Junior Varsity,55.79,1,Felix Lopez,San Antonio Southwest,54.61,129.27,77.11,154.22,360.61,Single-ply,SBD,M,
Junior Varsity,55.79,2,Devin Garza Garza,Pearsall,55.43,129.27,72.57,104.33,306.17,Single-ply,SBD,M,
Junior Varsity,55.79,3,Alexander Moncada,Laredo Martin,54.25,124.74,52.16,117.93,294.84,Single-ply,SBD,M,
Junior Varsity,55.79,4,Hugo Rosales,Del Rio,54.43,108.86,47.63,124.74,281.23,Single-ply,SBD,M,
Junior Varsity,59.87,1,Jesus de la Rosa,Laredo Nixon,57.52,136.08,65.77,147.42,349.27,Single-ply,SBD,M,
Junior Varsity,59.87,2,Samuel Flores,Del Rio,57.79,124.74,86.18,138.35,349.27,Single-ply,SBD,M,
Junior Varsity,59.87,DQ,Nick Hinojosa,Somerset,59.87,102.06,,,,Single-ply,SBD,M,
Junior Varsity,59.87,DQ,Alex Comparan,Laredo Nixon,57.61,133.81,,,,Single-ply,SBD,M,
Junior Varsity,67.13,1,Eric Hernandez Hernandez,Pearsall,66.59,156.49,95.25,181.44,433.18,Single-ply,SBD,M,
Junior Varsity,67.13,2,Sebastion Alvarado,Laredo United,66.68,142.88,92.99,172.37,408.23,Single-ply,SBD,M,
Junior Varsity,67.13,3,Rene Carrasco,Del Rio,65.41,147.42,92.99,156.49,396.89,Single-ply,SBD,M,
Junior Varsity,67.13,4,Ashton Barnes,Laredo United,64.68,129.27,90.72,151.95,371.95,Single-ply,SBD,M,
Junior Varsity,67.13,5,Miguel Terrazas,Laredo Nixon,67.13,142.88,86.18,140.61,369.68,Single-ply,SBD,M,
Junior Varsity,67.13,6,Robert Hueghs,Pearsall,62.87,147.42,68.04,142.88,358.34,Single-ply,SBD,M,
Junior Varsity,67.13,7,Abraham Guillen,Del Rio,63.68,120.2,70.31,145.15,335.66,Single-ply,SBD,M,
Junior Varsity,67.13,DQ,Vicente Diaz,Laredo United,67.13,,,,,Single-ply,SBD,M,
Junior Varsity,67.13,DQ,Jonathan Sonnier-Ruiz,Laredo Martin,67.13,,,,,Single-ply,SBD,M,
Junior Varsity,74.84,1,Sammy Bustamante,Center Point,69.49,195.04,113.4,192.78,501.22,Single-ply,SBD,M,
Junior Varsity,74.84,2,Jesus Tellez,Crystal City,74.84,172.37,102.06,165.56,439.98,Single-ply,SBD,M,
Junior Varsity,74.84,3,JR Bustamante,Center Point,72.67,183.7,74.84,170.1,428.64,Single-ply,SBD,M,
Junior Varsity,74.84,4,Michael Garza,San Antonio Southwest,72.57,174.63,90.72,158.76,424.11,Single-ply,SBD,M,
Junior Varsity,74.84,5,Steve Loring,Laredo United,73.94,142.88,99.79,172.37,415.04,Single-ply,SBD,M,
Junior Varsity,74.84,6,David Benavides Benavides,Pearsall,71.4,158.76,88.45,161.03,408.23,Single-ply,SBD,M,
Junior Varsity,74.84,7,Elijah Solis,Uvalde,73.48,145.15,102.06,151.95,399.16,Single-ply,SBD,M,
Junior Varsity,74.84,8,Omar Martinez,Center Point,73.39,145.15,81.65,149.69,376.48,Single-ply,SBD,M,
Junior Varsity,74.84,9,Jose Lucatero,Laredo Martin,68.95,151.95,61.23,149.69,362.87,Single-ply,SBD,M,
Junior Varsity,74.84,10,Jake Parks-Franco,Rocksprings,74.57,124.74,86.18,138.35,349.27,Single-ply,SBD,M,
Junior Varsity,74.84,11,Andrew Guillen,Del Rio,70.13,127.01,72.57,147.42,347,Single-ply,SBD,M,
Junior Varsity,74.84,12,Felipe Lopez,Del Rio,69.49,102.06,61.23,124.74,288.03,Single-ply,SBD,M,
Junior Varsity,74.84,DQ,Christian Navarrow,Carrizo Springs,74.84,,,,,Single-ply,SBD,M,
Junior Varsity,74.84,DQ,Matthew Collins #7,San Antonio Southwest,74.84,,,,,Single-ply,SBD,M,
Junior Varsity,82.1,1,Ryan Pena,San Antonio Southwest,79.74,208.65,142.88,208.65,560.19,Single-ply,SBD,M,
Junior Varsity,82.1,2,Haiden Hass,Center Point,78.93,226.8,99.79,204.12,530.7,Single-ply,SBD,M,
Junior Varsity,82.1,3,Fabio Strozzie,Somerset,82.1,215.46,113.4,197.31,526.17,Single-ply,SBD,M,
Junior Varsity,82.1,4,Steven Perales,Carrizo Springs,75.48,170.1,115.67,170.1,455.86,Single-ply,SBD,M,
Junior Varsity,82.1,5,Austin Lyman,Center Point,77.47,163.29,95.25,161.03,419.57,Single-ply,SBD,M,
Junior Varsity,82.1,6,Raul Maldonado,Crystal City,81.1,172.37,92.99,154.22,419.57,Single-ply,SBD,M,
Junior Varsity,82.1,7,Joey Garza,Laredo Nixon,79.02,158.76,86.18,163.29,408.23,Single-ply,SBD,M,
Junior Varsity,82.1,8,Esteban Caballeero,Laredo United,78.29,142.88,104.33,142.88,390.09,Single-ply,SBD,M,
Junior Varsity,82.1,9,Ethan Hyde,Rocksprings,80.92,142.88,90.72,149.69,383.29,Single-ply,SBD,M,
Junior Varsity,82.1,10,Robert Vasquez,Del Rio,80.29,124.74,83.91,158.76,367.41,Single-ply,SBD,M,
Junior Varsity,82.1,11,Ricardo Torres,Del Rio,76.38,136.08,81.65,147.42,365.14,Single-ply,SBD,M,
Junior Varsity,82.1,12,James Colvin,Uvalde,76.57,129.27,79.38,154.22,362.87,Single-ply,SBD,M,
Junior Varsity,82.1,13,Scott Jimenez,San Antonio Memorial,81.1,122.47,83.91,145.15,351.53,Single-ply,SBD,M,
Junior Varsity,82.1,14,Eddie Flemma,Center Point,75.57,106.59,70.31,104.33,281.23,Single-ply,SBD,M,
Junior Varsity,82.1,15,Pedro Mora,Laredo Johnson,75.75,106.59,49.9,111.13,267.62,Single-ply,SBD,M,
Junior Varsity,82.1,DQ,Vincent Lazcano,San Antonio Southwest,82.1,,,,,Single-ply,SBD,M,
Junior Varsity,89.81,1,Dominigo Mendiola,Laredo Nixon,86.73,183.7,120.2,215.46,519.36,Single-ply,SBD,M,
Junior Varsity,89.81,2,David Garza,Somerset,89.81,188.24,124.74,190.51,503.49,Single-ply,SBD,M,
Junior Varsity,89.81,3,Abel Bustamante,Center Point,86.55,208.65,92.99,195.04,496.68,Single-ply,SBD,M,
Junior Varsity,89.81,4,Alomar Ybarra,Somerset,88,215.46,111.13,170.1,496.68,Single-ply,SBD,M,
Junior Varsity,89.81,5,Jesus Calderon,Laredo United,83.28,195.04,115.67,183.7,494.42,Single-ply,SBD,M,
Junior Varsity,89.81,6,Andres Rodriguez,Laredo Nixon,88.72,142.88,88.45,176.9,408.23,Single-ply,SBD,M,
Junior Varsity,89.81,7,Ace Mata,Crystal City,83.55,117.93,77.11,149.69,344.73,Single-ply,SBD,M,
Junior Varsity,89.81,8,Felix Escobedo,Del Rio,86.64,117.93,72.57,129.27,319.78,Single-ply,SBD,M,
Junior Varsity,89.81,DQ,Gael Soto,Laredo United,89.81,,,,,Single-ply,SBD,M,
Junior Varsity,89.81,DQ,Joseph Ruis,Laredo Martin,89.81,,,,,Single-ply,SBD,M,
Junior Varsity,89.81,DQ,Jase Flores,San Antonio Southwest,89.81,,,,,Single-ply,SBD,M,
Junior Varsity,99.79,1,Jake Laque,Center Point,92.71,226.8,113.4,190.51,530.7,Single-ply,SBD,M,
Junior Varsity,99.79,2,Roberto Rivas,Rocksprings,91.99,183.7,79.38,204.12,467.2,Single-ply,SBD,M,
Junior Varsity,99.79,3,Francisco Osorio,San Antonio Memorial,91.9,170.1,102.06,154.22,426.38,Single-ply,SBD,M,
Junior Varsity,99.79,4,Brealand Rodriguez,Rocksprings,94.44,161.03,81.65,183.7,426.38,Single-ply,SBD,M,
Junior Varsity,99.79,5,Leroy Gutierrez,Laredo Martin,93.98,165.56,79.38,165.56,410.5,Single-ply,SBD,M,
Junior Varsity,99.79,6,Joesph Ramon,San Antonio Memorial,95.62,142.88,81.65,163.29,387.82,Single-ply,SBD,M,
Junior Varsity,99.79,7,Luke Morales,Crystal City,99.79,127.01,77.11,145.15,349.27,Single-ply,SBD,M,
Junior Varsity,99.79,8,Adrian Sherman,Del Rio,93.62,104.33,77.11,113.4,294.84,Single-ply,SBD,M,
Junior Varsity,99.79,DQ,Andres Aguirre,Somerset,92.53,176.9,,,,Single-ply,SBD,M,
Junior Varsity,99.79,DQ,Alexis Hernandez,Center Point,99.06,147.42,83.91,,,Single-ply,SBD,M,
Junior Varsity,109.77,1,Clark Griffin,San Antonio Southwest,103.69,254.01,133.81,226.8,614.62,Single-ply,SBD,M,
Junior Varsity,109.77,2,Steven Terrazas,Somerset,100.24,208.65,142.88,190.51,542.04,Single-ply,SBD,M,
Junior Varsity,109.77,3,Kevin Ceineceros,Center Point,104.33,226.8,122.47,183.7,532.97,Single-ply,SBD,M,
Junior Varsity,109.77,4,Francisco Castillo,Somerset,108.41,219.99,117.93,188.24,526.17,Single-ply,SBD,M,
Junior Varsity,109.77,5,Chase Denton,Somerset,104.33,142.88,115.67,192.78,451.32,Single-ply,SBD,M,
Junior Varsity,109.77,6,Arturo Guerra,Laredo Martin,106.14,165.56,79.38,165.56,410.5,Single-ply,SBD,M,
Junior Varsity,109.77,7,Damon Bounds,Rocksprings,105.32,158.76,74.84,151.95,385.55,Single-ply,SBD,M,
Junior Varsity,109.77,DQ,Jesse Lopez,Carrizo Springs,109.77,,,,,Single-ply,SBD,M,
Junior Varsity,124.74,1,Hector Salazar,Laredo United,114.85,167.83,104.33,190.51,462.66,Single-ply,SBD,M,
Junior Varsity,124.74+,1,Adam Delgado,San Antonio Southwest,137.98,183.7,115.67,183.7,483.08,Single-ply,SBD,M,
Junior Varsity,124.74+,2,Jayden Birts,San Antonio Southwest,137.44,174.63,106.59,179.17,460.4,Single-ply,SBD,M,
Junior Varsity,124.74+,3,Roberto Castro,Crystal City,169.19,195.04,102.06,151.95,449.06,Single-ply,SBD,M,
Junior Varsity,124.74+,4,Julio Gamez,Del Rio,125.19,156.49,102.06,183.7,442.25,Single-ply,SBD,M,
Junior Varsity,124.74+,5,Jonathan Hernandez,San Antonio Memorial,128.46,156.49,95.25,136.08,387.82,Single-ply,SBD,M,
Junior Varsity,124.74+,6,Rafael Sifuentes,Rocksprings,125.19,145.15,86.18,149.69,381.02,Single-ply,SBD,M,
Junior Varsity,124.74+,DQ,Marcus Vara,Laredo Martin,126.1,226.8,,,,Single-ply,SBD,M,
Junior Varsity,124.74+,DQ,Joseph Delarosa,Pearsall,146.51,,,,,Single-ply,SBD,M,
Junior Varsity,,NS,Gilbert Martinez,Crystal City,,,,,,Single-ply,SBD,M,
Junior Varsity,,NS,Jesse Tavarez,San Antonio Memorial,,,,,,Single-ply,SBD,M,
Junior Varsity,,NS,Jj Cano,San Antonio Memorial,,,,,,Single-ply,SBD,M,
Junior Varsity,,NS,Koal Detmer,Somerset,,,,,,Single-ply,SBD,M,
Boys,51.71,1,Eric Lopez,Castroville Medina Valley,51.71,183.7,92.99,183.7,460.4,Single-ply,SBD,M,
Boys,51.71,2,Francisco Villarreal,Laredo Nixon,48.99,129.27,81.65,140.61,351.53,Single-ply,SBD,M,
Boys,51.71,3,Jonah Lopez,San Antonio Memorial,49.53,131.54,63.5,145.15,340.19,Single-ply,SBD,M,
Boys,51.71,4,Ricky Martinez,Pearsall,50.17,122.47,68.04,124.74,315.25,Single-ply,SBD,M,
Boys,51.71,5,Christopher Reyes,San Antonio Brooks Academy,50.62,99.79,58.97,131.54,290.3,Single-ply,SBD,M,
Boys,51.71,6,Tony Garza,Carrizo Springs,44.91,99.79,58.97,117.93,276.69,Single-ply,SBD,M,
Boys,51.71,7,Robert Longoria,Pearsall,51.26,74.84,52.16,120.2,247.21,Single-ply,SBD,M,
Boys,55.79,1,Rudy Sanchez,Somerset,55.79,138.35,81.65,167.83,387.82,Single-ply,SBD,M,
Boys,55.79,2,Daniel García,Floresville,55.79,117.93,74.84,142.88,335.66,Single-ply,SBD,M,
Boys,55.79,3,Ryan Jimenez,Crystal City,55.25,127.01,72.57,124.74,324.32,Single-ply,SBD,M,
Boys,55.79,4,Cameron Johns,Floresville,55.79,102.06,81.65,117.93,301.64,Single-ply,SBD,M,
Boys,55.79,5,Kyle Brseno,Carrizo Springs,53.43,111.13,65.77,115.67,292.57,Single-ply,SBD,M,
Boys,55.79,6,Juan Peralta,Del Rio,53.25,108.86,52.16,108.86,269.89,Single-ply,SBD,M,
Boys,55.79,DQ,Christian Martiniez,Hondo,55.79,,,,,Single-ply,SBD,M,
Boys,59.87,1,Diego Morales,Castroville Medina Valley,59.42,226.8,117.93,188.24,532.97,Single-ply,SBD,M,
Boys,59.87,2,Lupe Ibarra,Floresville,59.69,179.17,106.59,188.24,474,Single-ply,SBD,M,
Boys,59.87,3,Tommy Huerta,Crystal City,58.97,179.17,99.79,170.1,449.06,Single-ply,SBD,M,
Boys,59.87,4,Travis Rodriguez,Laredo United,59.87,136.08,86.18,167.83,390.09,Single-ply,SBD,M,
Boys,59.87,5,Adrian Gamboa,Laredo United South,59.87,151.95,88.45,136.08,376.48,Single-ply,SBD,M,
Boys,59.87,6,Matthew Flores,San Antonio Brooks Academy,59.06,138.35,58.97,145.15,342.46,Single-ply,SBD,M,
Boys,59.87,7,Frank Rivers,Pearsall,58.6,136.08,65.77,136.08,337.93,Single-ply,SBD,M,
Boys,59.87,8,Mark Lopez,Crystal City,59.51,102.06,74.84,120.2,297.1,Single-ply,SBD,M,
Boys,59.87,9,Jorge Vicen,San Antonio Brooks Academy,58.69,83.91,58.97,117.93,260.82,Single-ply,SBD,M,
Boys,67.13,1,Fabian Bazan,Castroville Medina Valley,63.05,244.94,142.88,247.21,635.03,Single-ply,SBD,M,
Boys,67.13,2,Julian Rico,Somerset,66.41,254.01,172.37,206.38,632.76,Single-ply,SBD,M,
Boys,67.13,3,Joshua Bazan,Castroville Medina Valley,65.32,226.8,127.01,204.12,557.92,Single-ply,SBD,M,
Boys,67.13,4,Vincent Villanueva,Floresville,65.41,206.38,108.86,188.24,503.49,Single-ply,SBD,M,
Boys,67.13,5,Rey Villastrigo,Laredo United,63.05,161.03,106.59,201.85,469.47,Single-ply,SBD,M,
Boys,67.13,6,Angel Rodríguez,Crystal City,66.41,188.24,108.86,170.1,467.2,Single-ply,SBD,M,
Boys,67.13,7,Nolan Raya,Laredo United South,60.51,185.97,99.79,179.17,464.93,Single-ply,SBD,M,
Boys,67.13,8,Alex Villarreal,San Antonio Memorial,66.41,176.9,97.52,185.97,460.4,Single-ply,SBD,M,
Boys,67.13,9,Hector Frausto,Del Rio,61.87,149.69,102.06,183.7,435.45,Single-ply,SBD,M,
Boys,67.13,10,Rene Jimenez,San Antonio Memorial,62.05,154.22,92.99,181.44,428.64,Single-ply,SBD,M,
Boys,67.13,11,Gavin LaFleur,Floresville,61.69,170.1,95.25,158.76,424.11,Single-ply,SBD,M,
Boys,67.13,12,Virgil Luna,Crystal City,65.86,154.22,97.52,167.83,419.57,Single-ply,SBD,M,
Boys,67.13,13,Emmanuel Rio,Castroville Medina Valley,66.86,154.22,102.06,149.69,405.97,Single-ply,SBD,M,
Boys,67.13,14,Fabien Uballe,La Pryor,65.05,133.81,104.33,158.76,396.89,Single-ply,SBD,M,
Boys,67.13,15,Alejandro Garcia,Del Rio,67.13,147.42,90.72,154.22,392.36,Single-ply,SBD,M,
Boys,67.13,16,Luis Guerra,Laredo Nixon,65.32,142.88,83.91,154.22,381.02,Single-ply,SBD,M,
Boys,67.13,17,Jared Martinez,Uvalde,64.5,147.42,81.65,149.69,378.75,Single-ply,SBD,M,
Boys,67.13,DQ,Oscar Vez,Laredo Cigarroa,62.32,124.74,,,,Single-ply,SBD,M,
Boys,74.84,1,Mario Caberera,Somerset,74.48,274.42,156.49,233.6,664.51,Single-ply,SBD,M,
Boys,74.84,2,Daniel Almedia,Uvalde,73.48,201.85,115.67,251.74,569.26,Single-ply,SBD,M,
Boys,74.84,3,Zack Lambert,Uvalde,73.84,204.12,111.13,217.72,532.97,Single-ply,SBD,M,
Boys,74.84,4,Tryston Colon,Laredo United,74.66,206.38,111.13,208.65,526.17,Single-ply,SBD,M,
Boys,74.84,5,Abraham Davila,Uvalde,74.03,206.38,124.74,190.51,521.63,Single-ply,SBD,M,
Boys,74.84,6,Gabriel Martinez,Pearsall,74.48,206.38,111.13,197.31,514.83,Single-ply,SBD,M,
Boys,74.84,7,Cecil Olivarri,Lytle,72.48,188.24,108.86,199.58,496.68,Single-ply,SBD,M,
Boys,74.84,8,Luis Mendez,Laredo United,73.57,183.7,104.33,206.38,494.42,Single-ply,SBD,M,
Boys,74.84,9,Zac Nelson,Floresville,70.22,163.29,117.93,170.1,451.32,Single-ply,SBD,M,
Boys,74.84,10,Jacob Trevino,Del Rio,68.58,154.22,102.06,183.7,439.98,Single-ply,SBD,M,
Boys,74.84,11,Jason Vega,Lytle,73.39,149.69,113.4,167.83,430.91,Single-ply,SBD,M,
Boys,74.84,12,Ron Resendiz,San Antonio Memorial,68.04,142.88,106.59,179.17,428.64,Single-ply,SBD,M,
Boys,74.84,13,Brandon Hernandez #8,Laredo United,74.84,154.22,102.06,172.37,428.64,Single-ply,SBD,M,
Boys,74.84,14,Rene Martinez,Del Rio,68.04,149.69,86.18,174.63,410.5,Single-ply,SBD,M,
Boys,74.84,15,Sergio Sonora,Carrizo Springs,67.31,151.95,88.45,149.69,390.09,Single-ply,SBD,M,
Boys,74.84,16,Christian De La Cruz,Carrizo Springs,68.76,156.49,86.18,147.42,390.09,Single-ply,SBD,M,
Boys,74.84,17,Andhery Vasquez,Laredo United South,69.04,124.74,77.11,154.22,356.07,Single-ply,SBD,M,
Boys,74.84,18,Jeremiah Mendoza,Laredo Alexander,70.49,127.01,65.77,129.27,322.05,Single-ply,SBD,M,
Boys,74.84,DQ,Adrian Mata,Rocksprings,74.84,,,,,Single-ply,SBD,M,
Boys,74.84,DQ,Lopez Ricki,La Pryor,72.57,,,,,Single-ply,SBD,M,
Boys,74.84,DQ,Saul Ramos,La Pryor,74.84,,,,,Single-ply,SBD,M,
Boys,74.84,DQ,Gabriel Martinez,Laredo Johnson,73.53,102.06,,,,Single-ply,SBD,M,
Boys,82.1,1,Nathan Delgado,Crystal City,80.92,238.14,131.54,190.51,560.19,Single-ply,SBD,M,
Boys,82.1,2,Eden Fuentes,Pearsall,78.83,215.46,127.01,215.46,557.92,Single-ply,SBD,M,
Boys,82.1,3,Victor Barrera,San Antonio Southside,81.74,226.8,136.08,183.7,546.58,Single-ply,SBD,M,
Boys,82.1,4,Tyler Felux,San Antonio Brooks Academy,79.02,204.12,136.08,204.12,544.31,Single-ply,SBD,M,
Boys,82.1,5,Ray Leal,Pearsall,81.28,206.38,111.13,226.8,544.31,Single-ply,SBD,M,
Boys,82.1,6,Rylan Wagner,Lytle,78.56,206.38,115.67,206.38,528.44,Single-ply,SBD,M,
Boys,82.1,7,Nemencio Tijerina,Poteet,80.38,204.12,113.4,199.58,517.1,Single-ply,SBD,M,
Boys,82.1,8,Leroy Lima,Floresville,78.83,199.58,111.13,204.12,514.83,Single-ply,SBD,M,
Boys,82.1,9,Hector Gomez,Del Rio,81.65,206.38,120.2,185.97,512.56,Single-ply,SBD,M,
Boys,82.1,10,Kalthoft Ulrich,Pearsall,79.29,183.7,115.67,183.7,483.08,Single-ply,SBD,M,
Boys,82.1,11,Mark Rodriguez,Laredo United South,82.1,192.78,99.79,183.7,476.27,Single-ply,SBD,M,
Boys,82.1,12,Bruno Guajardo,Laredo United,81.83,183.7,106.59,174.63,464.93,Single-ply,SBD,M,
Boys,82.1,13,Jacob Davis,Castroville Medina Valley,79.29,204.12,83.91,174.63,462.66,Single-ply,SBD,M,
Boys,82.1,14,Jarret Gest,Carrizo Springs,78.74,158.76,102.06,151.95,412.77,Single-ply,SBD,M,
Boys,82.1,15,Josh Del Toro,Lytle,75.57,147.42,102.06,149.69,399.16,Single-ply,SBD,M,
Boys,82.1,16,Alex Vasquez,Laredo United,76.02,142.88,88.45,149.69,381.02,Single-ply,SBD,M,
Boys,82.1,17,Marcos Valdez-Ramos,Laredo Johnson,79.38,117.93,79.38,127.01,324.32,Single-ply,SBD,M,
Boys,82.1,18,Joshua Sanchez,San Antonio Brooks Academy,81.92,90.72,70.31,138.35,299.37,Single-ply,SBD,M,
Boys,82.1,DQ,Renato Hernandez,Laredo United,82.1,,,,,Single-ply,SBD,M,
Boys,82.1,DQ,Dominick Hernandez,Carrizo Springs,82.1,,,,,Single-ply,SBD,M,
Boys,82.1,DQ,Carlos Carrillo,Laredo Martin,82.1,,,,,Single-ply,SBD,M,
Boys,82.1,DQ,Andrew Sosa,Laredo Nixon,80.38,,,,,Single-ply,SBD,M,
Boys,89.81,1,Michael Gonzalez,Somerset,89.81,285.76,183.7,240.4,709.87,Single-ply,SBD,M,
Boys,89.81,2,Elias Torres,Somerset,89.81,281.23,172.37,204.12,657.71,Single-ply,SBD,M,
Boys,89.81,3,Josiah Marquez,Pearsall,86.27,251.74,142.88,242.67,637.3,Single-ply,SBD,M,
Boys,89.81,4,Martin Rios,Crystal City,88.09,244.94,147.42,229.06,621.42,Single-ply,SBD,M,
Boys,89.81,5,Micah Young,San Antonio Southside,85.91,231.33,122.47,240.4,594.21,Single-ply,SBD,M,
Boys,89.81,6,Seth Bullard,Castroville Medina Valley,87.72,226.8,138.35,226.8,591.94,Single-ply,SBD,M,
Boys,89.81,7,Isaac Garcia,Crystal City,88.9,231.33,129.27,226.8,587.4,Single-ply,SBD,M,
Boys,89.81,8,Jesse Ovalle,Somerset,89.81,195.04,136.08,206.38,537.51,Single-ply,SBD,M,
Boys,89.81,9,Jason Coronado,Floresville,89.09,192.78,106.59,215.46,514.83,Single-ply,SBD,M,
Boys,89.81,10,David Castro,Carrizo Springs,83.19,185.97,102.06,170.1,458.13,Single-ply,SBD,M,
Boys,89.81,11,Abel Sanchez,Laredo Nixon,83.1,170.1,97.52,185.97,453.59,Single-ply,SBD,M,
Boys,89.81,12,Eddie Rodriguez,Laredo Johnson,89.09,165.56,111.13,167.83,444.52,Single-ply,SBD,M,
Boys,89.81,13,Hilario Alfaro,Laredo United South,88.18,151.95,102.06,170.1,424.11,Single-ply,SBD,M,
Boys,89.81,14,Jared Sandavol,San Antonio Memorial,84.64,149.69,102.06,154.22,405.97,Single-ply,SBD,M,
Boys,89.81,15,Agustin Meza,Laredo Alexander,89.18,120.2,70.31,163.29,353.8,Single-ply,SBD,M,
Boys,89.81,16,Lance Nielson,San Antonio Brooks Academy,86.18,117.93,70.31,142.88,331.12,Single-ply,SBD,M,
Boys,89.81,DQ,Daniel Sambrano,La Pryor,83.91,,,,,Single-ply,SBD,M,
Boys,89.81,DQ,Elisha Gutierrez,Carrizo Springs,89.81,,,,,Single-ply,SBD,M,
Boys,89.81,DQ,Andrew Guerra,Laredo Alexander,89.81,,,,,Single-ply,SBD,M,
Boys,99.79,1,Isaiah Valdez,Somerset,99.79,306.17,192.78,224.53,723.48,Single-ply,SBD,M,
Boys,99.79,2,Moses Carrasco,Poteet,99.7,283.5,158.76,249.48,691.73,Single-ply,SBD,M,
Boys,99.79,3,Alejandro Flores,Del Rio,94.8,249.48,154.22,256.28,659.98,Single-ply,SBD,M,
Boys,99.79,4,Armando Rodriguez,Carrizo Springs,97.07,242.67,113.4,219.99,576.06,Single-ply,SBD,M,
Boys,99.79,5,Austin Barrera,Rocksprings,90.36,226.8,95.25,217.72,539.77,Single-ply,SBD,M,
Boys,99.79,6,Brandon Rivas,Pearsall,97.98,192.78,122.47,219.99,535.24,Single-ply,SBD,M,
Boys,99.79,7,Nathaiel Ramos,Somerset,92.99,197.31,154.22,174.63,526.17,Single-ply,SBD,M,
Boys,99.79,8,Dakata Castillo,Somerset,95.25,215.46,122.47,174.63,512.56,Single-ply,SBD,M,
Boys,99.79,9,Cody Wilkerson,San Antonio Southside,95.62,195.04,115.67,192.78,503.49,Single-ply,SBD,M,
Boys,99.79,10,Adam Andres,Uvalde,94.17,165.56,104.33,197.31,467.2,Single-ply,SBD,M,
Boys,99.79,11,Jose Gauna,La Pryor,92.08,158.76,124.74,167.83,451.32,Single-ply,SBD,M,
Boys,99.79,12,Angel Garza,Laredo Nixon,94.98,156.49,111.13,174.63,442.25,Single-ply,SBD,M,
Boys,99.79,13,Aaron Roldan,Hondo,91.44,170.1,115.67,149.69,435.45,Single-ply,SBD,M,
Boys,99.79,14,Gabriel Elizondo,Laredo United South,95.98,170.1,102.06,163.29,435.45,Single-ply,SBD,M,
Boys,99.79,15,Chris Espinoza,Laredo United South,93.8,154.22,102.06,161.03,417.3,Single-ply,SBD,M,
Boys,99.79,DQ,Oscar Briseno,Carrizo Springs,99.79,,,,,Single-ply,SBD,M,
Boys,99.79,DQ,Javier Amador,Laredo Martin,96.98,,,,,Single-ply,SBD,M,
Boys,99.79,DQ,Max Blanco,Laredo Cigarroa,98.25,,,,,Single-ply,SBD,M,
Boys,109.77,1,Alfonso Mata,Crystal City,108.05,272.16,174.63,244.94,691.73,Single-ply,SBD,M,
Boys,109.77,2,Alfredo Segura,Carrizo Springs,106.19,263.08,161.03,265.35,689.46,Single-ply,SBD,M,
Boys,109.77,3,Abraham Rosas,Del Rio,103.87,256.28,138.35,238.14,632.76,Single-ply,SBD,M,
Boys,109.77,4,Eric Diaz,San Antonio Southside,108.59,235.87,158.76,213.19,607.81,Single-ply,SBD,M,
Boys,109.77,5,Gabriel Gutierrez,Pearsall,107.86,260.82,117.93,222.26,601.01,Single-ply,SBD,M,
Boys,109.77,6,Joe Vega #5,Crystal City,109.59,235.87,170.1,183.7,589.67,Single-ply,SBD,M,
Boys,109.77,7,Seth Ojeda,Somerset,100.24,204.12,183.7,183.7,571.53,Single-ply,SBD,M,
Boys,109.77,8,Eleazar Guerra,Laredo United South,105.78,226.8,136.08,185.97,548.85,Single-ply,SBD,M,
Boys,109.77,9,Issac Salazar,Del Rio,108.23,206.38,120.2,215.46,542.04,Single-ply,SBD,M,
Boys,109.77,10,Phillip Valles,Carrizo Springs,108.32,210.92,111.13,204.12,526.17,Single-ply,SBD,M,
Boys,109.77,11,Levi Gallegos,Laredo United South,102.97,197.31,117.93,185.97,501.22,Single-ply,SBD,M,
Boys,109.77,12,Hunter Sanchez,Castroville Medina Valley,109.59,183.7,133.81,154.22,471.74,Single-ply,SBD,M,
Boys,109.77,13,Jacob Palacio,Rocksprings,105.23,188.24,95.25,183.7,467.2,Single-ply,SBD,M,
Boys,109.77,14,James Vasquez,La Pryor,103.42,165.56,102.06,142.88,410.5,Single-ply,SBD,M,
Boys,109.77,DQ,Andrew Lozano,La Pryor,104.33,,,,,Single-ply,SBD,M,
Boys,124.74,1,Nathan Palacio,San Antonio Memorial,115.03,272.16,156.49,258.55,687.19,Single-ply,SBD,M,
Boys,124.74,2,Kollin Meeks,Pearsall,115.58,272.16,136.08,195.04,603.28,Single-ply,SBD,M,
Boys,124.74,3,Paul Zertuche,Castroville Medina Valley,117.66,215.46,154.22,217.72,587.4,Single-ply,SBD,M,
Boys,124.74,4,Josue Reyes,Del Rio,114.12,247.21,111.13,201.85,560.19,Single-ply,SBD,M,
Boys,124.74,5,Juan Flores,Somerset,124.74,235.87,129.27,192.78,557.92,Single-ply,SBD,M,
Boys,124.74,6,Gabriel Aguirre,Del Rio,120.75,204.12,111.13,238.14,553.38,Single-ply,SBD,M,
Boys,124.74,7,Ivan Garcia,San Antonio Memorial,114.49,226.8,129.27,192.78,548.85,Single-ply,SBD,M,
Boys,124.74,8,Jayden Miller,Poteet,118.39,210.92,129.27,192.78,532.97,Single-ply,SBD,M,
Boys,124.74,9,Joshua Serenil,Floresville,115.58,215.46,115.67,190.51,521.63,Single-ply,SBD,M,
Boys,124.74,10,Bobby Rocha,Crystal City,124.74,204.12,124.74,174.63,503.49,Single-ply,SBD,M,
Boys,124.74,11,Kris Jimenez,Laredo Alexander,112.26,183.7,111.13,199.58,494.42,Single-ply,SBD,M,
Boys,124.74,12,Moses Cortez,Castroville Medina Valley,124.38,181.44,127.01,174.63,483.08,Single-ply,SBD,M,
Boys,124.74,13,Brandon Laureano,San Antonio Brooks Academy,115.76,122.47,63.5,154.22,340.19,Single-ply,SBD,M,
Boys,124.74,DQ,Carlos Gonzalez,Laredo United,124.74,,,,,Single-ply,SBD,M,
Boys,124.74+,1,Claudio Padilla,Laredo Johnson,132.81,281.23,142.88,240.4,664.51,Single-ply,SBD,M,
Boys,124.74+,2,Juan Jose Valdez,Laredo Martin,133.72,254.01,149.69,229.06,632.76,Single-ply,SBD,M,
Boys,124.74+,3,Daniel Garza,Carrizo Springs,128.64,258.55,154.22,215.46,628.23,Single-ply,SBD,M,
Boys,124.74+,4,Dorien Enriquez,Rocksprings,143.79,285.76,122.47,213.19,621.42,Single-ply,SBD,M,
Boys,124.74+,5,Slavador Delfierro,San Antonio Brooks Academy,149.23,222.26,165.56,231.33,619.15,Single-ply,SBD,M,
Boys,124.74+,6,Pablo Torres,Laredo Johnson,174.72,260.82,117.93,226.8,605.55,Single-ply,SBD,M,
Boys,124.74+,7,Mark Flores,Somerset,129.73,247.21,147.42,192.78,587.4,Single-ply,SBD,M,
Boys,124.74+,8,Abraham Hernandez,Castroville Medina Valley,130.45,229.06,124.74,226.8,580.6,Single-ply,SBD,M,
Boys,124.74+,9,Manuel Belmarez,San Antonio Memorial,126.28,199.58,170.1,170.1,539.77,Single-ply,SBD,M,
Boys,124.74+,10,Daymeonn Vercher,Laredo United South,126.82,185.97,111.13,240.4,537.51,Single-ply,SBD,M,
Boys,124.74+,11,Jerry Calderon,Laredo Alexander,135.71,124.74,83.91,158.76,367.41,Single-ply,SBD,M,
Boys,124.74+,DQ,Manny Torres,Laredo Cigarroa,138.35,272.16,151.95,,,Single-ply,SBD,M,
Freshmen,51.71,1,Adam Moncade,Laredo Martin,51.26,108.86,61.23,113.4,283.5,Single-ply,SBD,M,
Freshmen,51.71,2,Alfred Garcia,San Antonio Southwest,44.45,104.33,52.16,113.4,269.89,Single-ply,SBD,M,
Freshmen,51.71,3,David Cortez,Laredo Johnson,49.99,72.57,47.63,88.45,208.65,Single-ply,SBD,M,
Freshmen,55.79,1,Robert Torres,Laredo Nixon,53.8,111.13,54.43,113.4,278.96,Single-ply,SBD,M,
Freshmen,59.87,1,Benjamin Limon,Laredo Nixon,58.33,102.06,74.84,133.81,310.71,Single-ply,SBD,M,
Freshmen,59.87,2,Cruz Gil,Laredo Johnson,58.6,95.25,58.97,104.33,258.55,Single-ply,SBD,M,
Freshmen,67.13,1,Cesar Martínez,Laredo Nixon,61.33,104.33,56.7,108.86,269.89,Single-ply,SBD,M,
Freshmen,67.13,2,Carlos Rojas,Laredo Alexander,66.59,104.33,54.43,108.86,267.62,Single-ply,SBD,M,
Freshmen,74.84,1,Julian Dominguez,Laredo Johnson,68.49,133.81,79.38,151.95,365.14,Single-ply,SBD,M,
Freshmen,74.84,2,Joshua Ruiz,Laredo Johnson,71.21,124.74,68.04,158.76,351.53,Single-ply,SBD,M,
Freshmen,74.84,3,Eddie Garcia,Laredo Alexander,71.85,115.67,77.11,151.95,344.73,Single-ply,SBD,M,
Freshmen,74.84,4,Jesus Aguilar,Laredo Cigarroa,69.67,117.93,74.84,140.61,333.39,Single-ply,SBD,M,
Freshmen,74.84,5,Sebastian Sandoval,Laredo Alexander,74.12,113.4,68.04,127.01,308.44,Single-ply,SBD,M,
Freshmen,82.1,1,Andrew Mancha,Laredo Johnson,78.74,120.2,74.84,133.81,328.85,Single-ply,SBD,M,
Freshmen,82.1,2,David Vera,Laredo Alexander,79.38,127.01,79.38,122.47,328.85,Single-ply,SBD,M,
Freshmen,82.1,3,Rafael Iracheta,Laredo Martin,80.01,115.67,61.23,106.59,283.5,Single-ply,SBD,M,
Freshmen,89.81,1,Pedro Contreras,Laredo Martin,82.55,165.56,90.72,172.37,428.64,Single-ply,SBD,M,
Freshmen,89.81,2,Kyle Sanders,Rocksprings,85.55,165.56,79.38,165.56,410.5,Single-ply,SBD,M,
Freshmen,89.81,3,Chris Tijerina,Laredo Alexander,86.36,131.54,88.45,172.37,392.36,Single-ply,SBD,M,
Freshmen,89.81,4,Jason Alberto Garza,Laredo Johnson,84.64,122.47,95.25,170.1,387.82,Single-ply,SBD,M,
Freshmen,89.81,5,Eli Tijerina,Laredo Nixon,89.45,124.74,88.45,172.37,385.55,Single-ply,SBD,M,
Freshmen,89.81,6,Leo Strozzie,Somerset,86.18,142.88,70.31,167.83,381.02,Single-ply,SBD,M,
Freshmen,89.81,7,Alejandro Olvera,Laredo Johnson,88,120.2,65.77,127.01,312.98,Single-ply,SBD,M,
Freshmen,99.79,1,Carlos Jimenez,Laredo Nixon,97.98,142.88,88.45,165.56,396.89,Single-ply,SBD,M,
Freshmen,99.79,2,Hipolito Salazar,San Antonio Southwest,90.36,147.42,83.91,149.69,381.02,Single-ply,SBD,M,
Freshmen,99.79,3,Lexus Marchan,Laredo Nixon,98.25,127.01,83.91,151.95,362.87,Single-ply,SBD,M,
Freshmen,99.79,4,Benjamin Castro,Laredo Johnson,91.35,127.01,58.97,158.76,344.73,Single-ply,SBD,M,
Freshmen,99.79,5,Alan Alanso,Rocksprings,91.9,102.06,65.77,145.15,312.98,Single-ply,SBD,M,
Freshmen,99.79,DQ,Ranon Ramirez,Rocksprings,99.79,,,,,Single-ply,SBD,M,
Freshmen,109.77,1,Abraham Vasquez,Somerset,108.41,226.8,97.52,183.7,508.02,Single-ply,SBD,M,
Freshmen,109.77,2,Jon-Mychael Kirkland,Rocksprings,109.59,158.76,88.45,165.56,412.77,Single-ply,SBD,M,
Freshmen,109.77,3,Reymundo Arellano,San Antonio Memorial,108.95,149.69,97.52,149.69,396.89,Single-ply,SBD,M,
Freshmen,109.77,4,Pedro Andres Figueroa Vega,Laredo Johnson,103.78,142.88,83.91,158.76,385.55,Single-ply,SBD,M,
Freshmen,109.77,5,Fabian Lara,San Antonio Memorial,100.43,122.47,68.04,127.01,317.51,Single-ply,SBD,M,
Freshmen,109.77,6,Eric Carrijo,Hondo,103.42,127.01,58.97,113.4,299.37,Single-ply,SBD,M,
Freshmen,109.77,DQ,Stephen Franco,Rocksprings,109.77,,,,,Single-ply,SBD,M,
Freshmen,109.77,DQ,Guadalupe Saldivar,Laredo Johnson,104.42,147.42,63.5,145.15,,Single-ply,SBD,M,
Freshmen,109.77,DQ,Rodrigo Herrera,Laredo Cigarroa,106.32,111.13,70.31,,,Single-ply,SBD,M,
Freshmen,124.74,1,Tolbert Garcia,Laredo Alexander,116.12,190.51,88.45,192.78,471.74,Single-ply,SBD,M,
Freshmen,124.74,2,Ehud Melendez,Laredo Alexander,114.12,185.97,90.72,192.78,469.47,Single-ply,SBD,M,
Freshmen,124.74,3,Juan Trejo,Laredo Cigarroa,117.66,174.63,74.84,151.95,401.43,Single-ply,SBD,M,
Freshmen,124.74,4,Joe Mann,Somerset,117.48,154.22,102.06,142.88,399.16,Single-ply,SBD,M,
Freshmen,124.74,5,Francisco Santos,Laredo Martin,119.57,151.95,74.84,172.37,399.16,Single-ply,SBD,M,
Freshmen,124.74,DQ,Leonardo Cantu,Laredo Martin,124.74,,,,,Single-ply,SBD,M,
Freshmen,124.74+,1,Jorge Rangel,Laredo Cigarroa,131.36,197.31,97.52,190.51,485.34,Single-ply,SBD,M,
Freshmen,124.74+,2,Esteban Garcia,Laredo Cigarroa,130.27,149.69,65.77,142.88,358.34,Single-ply,SBD,M,
Freshmen,124.74+,3,Adolfo Carpentier,Laredo Johnson,131.81,124.74,70.31,142.88,337.93,Single-ply,SBD,M,
Freshmen,,NS,Derek Valdez,Center Point,,,,,,Single-ply,SBD,M,
Freshmen,,NS,Tyler Willams,Center Point,,,,,,Single-ply,SBD,M,
