Division,WeightClassKg,Place,Name,Team,BodyweightKg,Best3SquatKg,Best3BenchKg,Best3DeadliftKg,TotalKg,Equipment,Event,Sex
Girls,44.23,1,Alexis Herrera,Alice,42.46,122.47,61.23,113.4,297.1,Single-ply,SBD,F
Girls,44.23,2,Samantha Sanchez,Natalia,43.41,111.13,58.97,120.2,290.3,Single-ply,SBD,F
Girls,44.23,DQ,Natalie Morgan,Bandera,43.14,70.31,,,,Single-ply,SBD,F
Girls,47.85,1,Mia Macias,Alice,46.35,127.01,49.9,120.2,297.1,Single-ply,SBD,F
Girls,47.85,2,Julia Owens,Natalia,46.95,102.06,54.43,113.4,269.89,Single-ply,SBD,F
Girls,47.85,3,Xeauna Rodriguez,Bandera,47.36,106.59,61.23,99.79,267.62,Single-ply,SBD,F
Girls,47.85,4,Caitlyn Thrasher,Bandera,47.67,108.86,49.9,106.59,265.35,Single-ply,SBD,F
Girls,47.85,5,Emily Wheeler,Natalia,47.22,104.33,52.16,90.72,247.21,Single-ply,SBD,F
Girls,47.85,6,Aaliyah Terrazas,Devine,46.36,95.25,43.09,106.59,244.94,Single-ply,SBD,F
Girls,47.85,7,Trinity Garza,Devine,47.81,104.33,38.56,95.25,238.14,Single-ply,SBD,F
Girls,47.85,8,Savannah Ramirez,San Antonio Southwest Legacy,45.81,81.65,34.02,86.18,201.85,Single-ply,SBD,F
Girls,47.85,9,Alicia Rios,San Antonio Cole,46.87,70.31,38.56,79.38,188.24,Single-ply,SBD,F
Girls,47.85,10,Caitlyn Vara,San Antonio Southwest Legacy,45.99,65.77,34.02,61.23,161.03,Single-ply,SBD,F
Girls,51.94,1,Liszette Ortiz-Rosado,San Antonio Jubilee,50.73,140.61,97.52,131.54,369.68,Single-ply,SBD,F
Girls,51.94,2,Caitlin Watson,Bandera,50.54,117.93,70.31,122.47,310.71,Single-ply,SBD,F
Girls,51.94,3,Jeanette Rios,Devine,51.89,95.25,56.7,113.4,265.35,Single-ply,SBD,F
Girls,51.94,4,Sophia Padilla,Natalia,50.35,88.45,49.9,106.59,244.94,Single-ply,SBD,F
Girls,51.94,5,Ashley Arroyo,Alice,51.89,95.25,40.82,106.59,242.67,Single-ply,SBD,F
Girls,51.94,6,Mia Concino,San Antonio Cole,51.71,88.45,36.29,90.72,215.46,Single-ply,SBD,F
Girls,51.94,7,Cassidy Hicks,Comal Canyon Lake,48.63,74.84,40.82,95.25,210.92,Single-ply,SBD,F
Girls,51.94,8,Valentina Gasca,Pleasanton,49.53,79.38,36.29,81.65,197.31,Single-ply,SBD,F
Girls,51.94,9,Ingrid Nava,Marion,51.89,74.84,34.02,83.91,192.78,Single-ply,SBD,F
Girls,51.94,10,Dezzny Altamirano,San Antonio Southwest Legacy,51.57,61.23,31.75,81.65,174.63,Single-ply,SBD,F
Girls,51.94,11,Abcde Garza,San Antonio Kennedy,51.85,47.63,29.48,56.7,133.81,Single-ply,SBD,F
Girls,56.02,1,Yesena Rocha,San Antonio Cole,53.98,113.4,58.97,142.88,315.25,Single-ply,SBD,F
Girls,56.02,2,Kimberly Salinas,Bandera,55.63,127.01,49.9,136.08,312.98,Single-ply,SBD,F
Girls,56.02,3,Noemi Ruiz,Alice,55.52,104.33,43.09,124.74,272.16,Single-ply,SBD,F
Girls,56.02,4,Adely Pando,Alice,54.39,97.52,49.9,122.47,269.89,Single-ply,SBD,F
Girls,56.02,5,Angelina Zapata,Natalia,55.34,122.47,49.9,97.52,269.89,Single-ply,SBD,F
Girls,56.02,6,Miranda Lopez,Alice,55.43,104.33,52.16,97.52,254.01,Single-ply,SBD,F
Girls,56.02,7,Hailey Manka,Natalia,54.11,90.72,54.43,90.72,235.87,Single-ply,SBD,F
Girls,56.02,8,Alexis Trevino,San Antonio Southwest Legacy,54.2,88.45,36.29,104.33,229.06,Single-ply,SBD,F
Girls,56.02,9,Michelle Linson,Bandera,52.8,90.72,43.09,88.45,222.26,Single-ply,SBD,F
Girls,56.02,DQ,Madison Shad,Marion,54.93,,,,,Single-ply,SBD,F
Girls,56.02,DQ,Abbigail Velasquez,San Antonio Southwest Legacy,54.3,106.59,36.29,,,Single-ply,SBD,F
Girls,56.02,DQ,Lauren Davila,Bandera,55.35,92.99,,,,Single-ply,SBD,F
Girls,60.1,1,Gabryelle Contreras,Natalia,59.69,99.79,56.7,122.47,278.96,Single-ply,SBD,F
Girls,60.1,2,Penelope Garcia,Bandera,57.92,104.33,52.16,120.2,276.69,Single-ply,SBD,F
Girls,60.1,3,Abigail Ramos,San Antonio Southwest Legacy,58.79,102.06,47.63,113.4,263.08,Single-ply,SBD,F
Girls,60.1,4,Julisa Ruiz,Alice,60.1,99.79,52.16,106.59,258.55,Single-ply,SBD,F
Girls,60.1,5,Fe Vielma,Pleasanton,58.11,99.79,47.63,108.86,256.28,Single-ply,SBD,F
Girls,60.1,6,Miriam Garcia,San Antonio Southwest Legacy,56.97,102.06,36.29,102.06,240.4,Single-ply,SBD,F
Girls,60.1,7,Kyra Keylich,Devine,56.7,79.38,36.29,104.33,219.99,Single-ply,SBD,F
Girls,60.1,8,Jessica Gore,Comal Canyon Lake,56.74,77.11,29.48,83.91,190.51,Single-ply,SBD,F
Girls,67.36,1,Sofia Almendarez,Natalia,65,136.08,65.77,122.47,324.32,Single-ply,SBD,F
Girls,67.36,2,Jessie Ramirez,Devine,66.32,122.47,63.5,124.74,310.71,Single-ply,SBD,F
Girls,67.36,3,Miranda Ovalle,Pleasanton,66.59,122.47,58.97,122.47,303.91,Single-ply,SBD,F
Girls,67.36,4,Kaelyn Lara,Natalia,63.73,115.67,58.97,111.13,285.76,Single-ply,SBD,F
Girls,67.36,5,Jazmine Bible,Blanco,65.89,104.33,58.97,117.93,281.23,Single-ply,SBD,F
Girls,67.36,6,Faith Mayse,Marion,64.12,99.79,52.16,113.4,265.35,Single-ply,SBD,F
Girls,67.36,7,Clarissa Ybanez,Devine,64.18,106.59,63.5,95.25,265.35,Single-ply,SBD,F
Girls,67.36,8,Kara Chapa,Natalia,60.78,99.79,56.7,104.33,260.82,Single-ply,SBD,F
Girls,67.36,9,Ofelia Macias,Bandera,66.5,97.52,52.16,106.59,256.28,Single-ply,SBD,F
Girls,67.36,10,Erica Santee,Pleasanton,62.01,86.18,52.16,113.4,251.74,Single-ply,SBD,F
Girls,67.36,11,Jasmine Watkins,Pleasanton,60.6,83.91,34.02,117.93,235.87,Single-ply,SBD,F
Girls,67.36,12,Jacy Goodard,Marion,63.5,74.84,43.09,108.86,226.8,Single-ply,SBD,F
Girls,67.36,13,Kailee Ruhland,San Antonio Cole,63.05,81.65,43.09,97.52,222.26,Single-ply,SBD,F
Girls,67.36,14,Brianna Torres,Devine,66.45,74.84,34.02,95.25,204.12,Single-ply,SBD,F
Girls,67.36,15,Aavery Navarro,Comal Canyon Lake,60.55,74.84,36.29,90.72,201.85,Single-ply,SBD,F
Girls,67.36,16,Brianna Berrones,Pleasanton,66.54,61.23,29.48,81.65,172.37,Single-ply,SBD,F
Girls,67.36,DQ,Sophia Porter,San Antonio Cole,63.69,56.7,,,,Single-ply,SBD,F
Girls,67.36,DQ,Annalese Andersen,Marion,67.3,,,,,Single-ply,SBD,F
Girls,67.36,DQ,Trista Vera,Natalia,64.18,97.52,52.16,,,Single-ply,SBD,F
Girls,67.36,DQ,Victoria Lasos,Alice,66.18,,,,,Single-ply,SBD,F
Girls,75.07,1,Dezarae Perez,Natalia,71.4,142.88,74.84,149.69,367.41,Single-ply,SBD,F
Girls,75.07,2,Gabrielle Santoya,Natalia,74.98,129.27,81.65,136.08,347,Single-ply,SBD,F
Girls,75.07,3,Estefani Ramirez,San Antonio Southwest Legacy,71.94,142.88,54.43,142.88,340.19,Single-ply,SBD,F
Girls,75.07,4,Kylee Hensley,Bandera,68.08,138.35,61.23,120.2,319.78,Single-ply,SBD,F
Girls,75.07,5,Mikayla Moore,Bandera,72.35,136.08,52.16,111.13,299.37,Single-ply,SBD,F
Girls,75.07,6,Sofia Aguilar,Pleasanton,74.53,113.4,56.7,120.2,290.3,Single-ply,SBD,F
Girls,75.07,7,Jazlin Olvera,Devine,68.54,92.99,58.97,136.08,288.03,Single-ply,SBD,F
Girls,75.07,8,Veronica Gonzalez,Marion,68.99,102.06,49.9,127.01,278.96,Single-ply,SBD,F
Girls,75.07,9,Elsa Vasquez,Marion,69.89,104.33,56.7,115.67,276.69,Single-ply,SBD,F
Girls,75.07,10,Heavenly Corpus,San Antonio Kennedy,69.67,106.59,47.63,120.2,274.42,Single-ply,SBD,F
Girls,75.07,11,Jermetryca McKnight,San Antonio Cole,74.84,108.86,52.16,108.86,269.89,Single-ply,SBD,F
Girls,75.07,12,Lexi Cumberland,Pleasanton,70.22,95.25,52.16,104.33,251.74,Single-ply,SBD,F
Girls,75.07,13,Cristal Altamirano,San Antonio Southwest Legacy,72.12,106.59,52.16,86.18,244.94,Single-ply,SBD,F
Girls,75.07,14,Emily Windham,Blanco,72.19,92.99,54.43,95.25,242.67,Single-ply,SBD,F
Girls,75.07,15,Giselle Villarreal,San Antonio Jubilee,72.3,79.38,43.09,117.93,240.4,Single-ply,SBD,F
Girls,75.07,16,Danny'l Garza,Blanco,69.54,81.65,54.43,102.06,238.14,Single-ply,SBD,F
Girls,75.07,17,Laney Heun,Comal Canyon Lake,69.81,77.11,31.75,90.72,199.58,Single-ply,SBD,F
Girls,75.07,18,Angeles Ramos,San Antonio Jubilee,74.55,70.31,31.75,97.52,199.58,Single-ply,SBD,F
Girls,82.33,1,Jacqueline Guerra,Alice,79.38,195.04,104.33,192.78,492.15,Single-ply,SBD,F
Girls,82.33,2,Zita Perez,Natalia,79.02,120.2,63.5,140.61,324.32,Single-ply,SBD,F
Girls,82.33,3,Isabella Gutierrez,Devine,80.65,111.13,45.36,127.01,283.5,Single-ply,SBD,F
Girls,82.33,4,Celestina Rodriguez,San Antonio Southwest Legacy,76.2,113.4,47.63,113.4,274.42,Single-ply,SBD,F
Girls,82.33,5,Eammalee Burr,San Antonio Cole,81.15,113.4,54.43,104.33,272.16,Single-ply,SBD,F
Girls,82.33,6,Amberly Vasquez,Alice,77.84,108.86,49.9,106.59,265.35,Single-ply,SBD,F
Girls,82.33,7,Hannah Gorsching,San Antonio Southwest Legacy,77.75,95.25,40.82,106.59,242.67,Single-ply,SBD,F
Girls,82.33,8,Kylie Rodriguez,Devine,77.11,90.72,45.36,104.33,240.4,Single-ply,SBD,F
Girls,82.33,9,Jazmine Rosales,San Antonio Jubilee,76.75,74.84,47.63,95.25,217.72,Single-ply,SBD,F
Girls,90.04,1,Jazlynn Lewis,Bandera,87.77,149.69,77.11,149.69,376.48,Single-ply,SBD,F
Girls,90.04,2,Khali Key,Devine,89.86,124.74,77.11,142.88,344.73,Single-ply,SBD,F
Girls,90.04,3,Brianna King,Bandera,90.04,154.22,61.23,120.2,335.66,Single-ply,SBD,F
Girls,90.04,4,Natasha Dunn-Kvedaras,Natalia,85.91,99.79,54.43,120.2,274.42,Single-ply,SBD,F
Girls,100.02,1,Julie Sepulveda,Alice,94.17,195.04,97.52,174.63,467.2,Single-ply,SBD,F
Girls,100.02,2,Felicity Diaz,Devine,97.48,129.27,86.18,131.54,347,Single-ply,SBD,F
Girls,100.02,3,Savannah Greene,Blanco,93.71,120.2,65.77,108.86,294.84,Single-ply,SBD,F
Girls,100.02,DQ,Angelique Flores,Alice,93.85,142.88,,,,Single-ply,SBD,F
Girls,100.02,DQ,Tessa Welch,Pleasanton,91.26,108.86,74.84,,,Single-ply,SBD,F
Girls,117.71,1,Cirina Plaza,Blanco,106.68,127.01,68.04,120.2,315.25,Single-ply,SBD,F
Girls,117.71,2,Brianna Ortiz,Pleasanton,107.95,129.27,58.97,113.4,301.64,Single-ply,SBD,F
Girls,117.71,3,Kristiana Ortiz,Devine,101.97,97.52,54.43,115.67,267.62,Single-ply,SBD,F
Girls,117.71+,1,Illeana Bosquez,Pleasanton,145.38,167.83,92.99,158.76,419.57,Single-ply,SBD,F
Girls,117.71+,2,Madison Curbow,Pleasanton,126.69,151.95,104.33,131.54,387.82,Single-ply,SBD,F
Girls,117.71+,3,Meela Garza,Alice,140.34,136.08,70.31,124.74,331.12,Single-ply,SBD,F
