Division,WeightClassKg,Place,Name,Team,BodyweightKg,Best3SquatKg,Best3BenchKg,Best3DeadliftKg,TotalKg,Equipment,Event,Sex,BirthDate
Boys,51.71,1,David Chittarath,Rockport-Fulton,51.62,138.35,72.57,147.42,358.34,Single-ply,SBD,M,
Boys,51.71,DQ,Justin Bronaugh,Skidmore-Tynan,51.35,108.86,56.7,,,Single-ply,SBD,M,
Boys,55.79,1,Chase Chapa,Port Lavaca Calhoun,54.88,185.97,117.93,226.8,530.7,Single-ply,SBD,M,
Boys,55.79,2,Donavon Longoria,Beeville Jones,53.12,142.88,83.91,145.15,371.95,Single-ply,SBD,M,
Boys,55.79,3,Carson Guidry,Taft,55.79,92.99,56.7,102.06,251.74,Single-ply,SBD,M,
Boys,59.87,1,Jakob Cortez,Port Lavaca Calhoun,59.78,208.65,108.86,226.8,544.31,Single-ply,SBD,M,
Boys,59.87,2,Lupe Ibarra,Floresville,59.6,179.17,117.93,195.04,492.15,Single-ply,SBD,M,
Boys,59.87,3,Corey Francis,Beeville Jones,59.51,138.35,122.47,165.56,426.38,Single-ply,SBD,M,
Boys,59.87,4,John Contreras,Beeville Jones,59.87,158.76,68.04,190.51,417.3,Single-ply,SBD,M,
Boys,59.87,5,Javier Ontieveros,Refugio,59.15,136.08,81.65,161.03,378.75,Single-ply,SBD,M,
Boys,59.87,DQ,Justin Cantu,Corpus Christi Calallen,56.88,131.54,81.65,,,Single-ply,SBD,M,
Boys,67.13,1,Angel Trujillo,Rockport-Fulton,66.95,204.12,129.27,217.72,551.11,Single-ply,SBD,M,
Boys,67.13,2,Andrew Vasquez,Corpus Christi Calallen,65.68,219.99,113.4,197.31,530.7,Single-ply,SBD,M,
Boys,67.13,3,Rafael Garza,Poteet,67.13,190.51,113.4,185.97,489.88,Single-ply,SBD,M,
Boys,67.13,4,Joseph Chavez,Taft,66.77,183.7,102.06,197.31,483.08,Single-ply,SBD,M,
Boys,67.13,5,Christopher Hernandez,Beeville Jones,66.32,165.56,120.2,165.56,451.32,Single-ply,SBD,M,
Boys,67.13,6,Gavin LaFleur,Floresville,61.96,179.17,102.06,156.49,437.72,Single-ply,SBD,M,
Boys,67.13,7,Eh Ler Moo,Port Lavaca Calhoun,64.05,140.61,83.91,165.56,390.09,Single-ply,SBD,M,
Boys,67.13,DQ,Jerek Sanchez,Taft,62.69,174.63,,,,Single-ply,SBD,M,
Boys,67.13,DQ,Juan Vasquez,Corpus Christi Calallen,65.95,213.19,,,,Single-ply,SBD,M,
Boys,67.13,DQ,Vincent Villanueva,Floresville,65.23,,,,,Single-ply,SBD,M,
Boys,67.13,DQ,Nathan Meza,Refugio,66.95,217.72,124.74,,,Single-ply,SBD,M,
Boys,74.84,1,Logen Schanen,Skidmore-Tynan,70.67,201.85,117.93,231.33,551.11,Single-ply,SBD,M,
Boys,74.84,2,Ryan Wells,Rockport-Fulton,74.75,210.92,129.27,210.92,551.11,Single-ply,SBD,M,
Boys,74.84,3,Jose Raynaga,Port Lavaca Calhoun,74.03,192.78,108.86,208.65,510.29,Single-ply,SBD,M,
Boys,74.84,4,Samuel Torres,Port Lavaca Calhoun,74.66,190.51,124.74,192.78,508.02,Single-ply,SBD,M,
Boys,74.84,5,Jose Vasquez,Corpus Christi Calallen,70.58,183.7,102.06,215.46,501.22,Single-ply,SBD,M,
Boys,74.84,6,Zack Nelson,Floresville,70.22,174.63,124.74,181.44,480.81,Single-ply,SBD,M,
Boys,74.84,7,Cristian Kane,Rockport-Fulton,70.22,151.95,79.38,165.56,396.89,Single-ply,SBD,M,
Boys,74.84,8,Nathaniel Garcia,Corpus Christi Calallen,72.85,140.61,97.52,156.49,394.63,Single-ply,SBD,M,
Boys,74.84,9,Arve Vasquez,Beeville Jones,74.12,136.08,77.11,149.69,362.87,Single-ply,SBD,M,
Boys,82.1,1,Xavier Smith,Port Lavaca Calhoun,81.1,204.12,127.01,226.8,557.92,Single-ply,SBD,M,
Boys,82.1,2,Matthias Esparza,Rockport-Fulton,78.93,174.63,95.25,183.7,453.59,Single-ply,SBD,M,
Boys,82.1,3,David Rodriguez,Beeville Jones,80.88,149.69,106.59,167.83,424.11,Single-ply,SBD,M,
Boys,82.1,DQ,Leroy Lima,Floresville,79.11,,,,,Single-ply,SBD,M,
Boys,89.81,1,Jaime Rios,Port Lavaca Calhoun,89.36,281.23,174.63,267.62,723.48,Single-ply,SBD,M,
Boys,89.81,2,Joe D Montoya,Beeville Jones,89.54,238.14,151.95,204.12,594.21,Single-ply,SBD,M,
Boys,89.81,3,Ean McPherson,Rockport-Fulton,87.91,226.8,127.01,195.04,548.85,Single-ply,SBD,M,
Boys,89.81,4,Marcus Gutierrez,Beeville Jones,84.87,208.65,117.93,204.12,530.7,Single-ply,SBD,M,
Boys,89.81,5,Matthew Salinas,Beeville Jones,85.91,176.9,120.2,185.97,483.08,Single-ply,SBD,M,
Boys,89.81,6,Carlos Reyes #4,Beeville Jones,83.46,156.49,117.93,151.95,426.38,Single-ply,SBD,M,
Boys,89.81,DQ,Anastacio Lopez,Taft,84.73,142.88,,,,Single-ply,SBD,M,
Boys,89.81,DQ,Jason Coronado,Floresville,88.72,,,,,Single-ply,SBD,M,
Boys,89.81,DQ,Jaykob De La Paz,Corpus Christi Calallen,84.82,133.81,99.79,172.37,,Single-ply,SBD,M,
Boys,89.81,DQ,Benji DeNava,Refugio,89.45,,,,,Single-ply,SBD,M,
Boys,99.79,1,Ambrose Patton,Beeville Jones,98.16,265.35,151.95,244.94,662.24,Single-ply,SBD,M,
Boys,99.79,2,Alejandro Ortega,Corpus Christi Calallen,98.88,283.5,149.69,204.12,637.3,Single-ply,SBD,M,
Boys,99.79,3,Jake Arroyos,Beeville Jones,98.02,240.4,151.95,226.8,619.15,Single-ply,SBD,M,
Boys,99.79,4,Joseph Beebe,Port Lavaca Calhoun,96.07,217.72,147.42,233.6,598.74,Single-ply,SBD,M,
Boys,99.79,5,Maartelo Villarreal,Beeville Jones,94.85,208.65,149.69,199.58,557.92,Single-ply,SBD,M,
Boys,99.79,6,Joey Cantu,Rockport-Fulton,97.61,254.01,117.93,174.63,546.58,Single-ply,SBD,M,
Boys,99.79,7,Corey Poole,Beeville Jones,95.3,195.04,129.27,195.04,519.36,Single-ply,SBD,M,
Boys,99.79,8,Mark Morin,Taft,99.7,188.24,133.81,192.78,514.83,Single-ply,SBD,M,
Boys,99.79,9,Alex Gaona,Beeville Jones,97.25,183.7,124.74,188.24,496.68,Single-ply,SBD,M,
Boys,99.79,10,Michael Rocha,Refugio,96.8,165.56,106.59,188.24,460.4,Single-ply,SBD,M,
Boys,99.79,11,Joshua Jaman,Corpus Christi Calallen,94.44,167.83,99.79,174.63,442.25,Single-ply,SBD,M,
Boys,99.79,12,Jesus Herera,Port Lavaca Calhoun,95.62,158.76,108.86,167.83,435.45,Single-ply,SBD,M,
Boys,99.79,13,Ivan Rangel,Corpus Christi Calallen,93.89,147.42,68.04,172.37,387.82,Single-ply,SBD,M,
Boys,99.79,14,Joaquin Tagle,Corpus Christi Calallen,99.34,115.67,90.72,140.61,347,Single-ply,SBD,M,
Boys,99.79,DQ,Alex Flood,Port Lavaca Calhoun,97.61,,,,,Single-ply,SBD,M,
Boys,99.79,DQ,Gilbert Herrera,Beeville Jones,94.39,120.2,92.99,,,Single-ply,SBD,M,
Boys,99.79,DQ,Moses Carrasco,Poteet,99.25,272.16,158.76,,,Single-ply,SBD,M,
Boys,109.77,1,Dylan Lageschulte,Corpus Christi Calallen,101.06,213.19,136.08,222.26,571.53,Single-ply,SBD,M,
Boys,109.77,2,Michael Esquivel III,Taft,101.24,224.53,142.88,181.44,548.85,Single-ply,SBD,M,
Boys,109.77,3,Ricardo Carrion,Corpus Christi Calallen,105.23,201.85,122.47,222.26,546.58,Single-ply,SBD,M,
Boys,109.77,4,Jacob Gomez,Taft,106.32,215.46,120.2,174.63,510.29,Single-ply,SBD,M,
Boys,109.77,5,Gilbert Hererra,Corpus Christi Calallen,103.69,149.69,65.77,136.08,351.53,Single-ply,SBD,M,
Boys,109.77,DQ,Sebastian Aleman,Skidmore-Tynan,108.32,206.38,129.27,,,Single-ply,SBD,M,
Boys,124.74,1,Brandon Kilough,Rockport-Fulton,122.11,272.16,156.49,274.42,703.07,Single-ply,SBD,M,
Boys,124.74,2,Jamie Gonzales,Taft,112.22,269.89,161.03,256.28,687.19,Single-ply,SBD,M,
Boys,124.74,3,John Rodriguez,Skidmore-Tynan,116.85,238.14,136.08,219.99,594.21,Single-ply,SBD,M,
Boys,124.74,4,John Cuevas #2,Skidmore-Tynan,118.93,233.6,147.42,188.24,569.26,Single-ply,SBD,M,
Boys,124.74,5,Matt Polasek,Floresville,120.29,238.14,136.08,188.24,562.45,Single-ply,SBD,M,
Boys,124.74,6,Joshua Serenil,Floresville,118.02,226.8,113.4,204.12,544.31,Single-ply,SBD,M,
Boys,124.74,DQ,Jayden Miller,Poteet,118.39,,,,,Single-ply,SBD,M,
Boys,124.74+,1,Daniel García,Port Lavaca Calhoun,142.97,272.16,136.08,219.99,628.23,Single-ply,SBD,M,
Boys,124.74+,2,Paul Cruz,Skidmore-Tynan,147.05,219.99,102.06,204.12,526.17,Single-ply,SBD,M,
Boys,124.74+,3,Tony Chavez,Taft,164.84,219.99,106.59,190.51,517.1,Single-ply,SBD,M,
Boys,124.74+,4,Jorge Rodriguez,Taft,165.47,77.11,79.38,142.88,299.37,Single-ply,SBD,M,
