Division,WeightClassKg,Place,Name,Team,BodyweightKg,Best3SquatKg,Best3BenchKg,Best3DeadliftKg,TotalKg,Equipment,Event,Sex
Boys,51.71,1,Mason Williams,Yorktown,51.17,154.22,77.11,163.29,394.63,Single-ply,SBD,M
Boys,51.71,2,Chase Chapa,Port Lavaca Calhoun,51.53,136.08,95.25,163.29,394.63,Single-ply,SBD,M
Boys,51.71,3,Adrian Linares,Victoria West,44.45,115.67,68.04,117.93,301.64,Single-ply,SBD,M
Boys,51.71,4,Dylan Crye,Hallettsville,51.62,122.47,58.97,120.2,301.64,Single-ply,SBD,M
Boys,51.71,5,Elisha Garcia,Palacios,47.54,99.79,52.16,106.59,258.55,Single-ply,SBD,M
Boys,55.79,1,Michael Casillas,Victoria West,55.7,183.7,117.93,197.31,498.95,Single-ply,SBD,M
Boys,55.79,2,Jeremiah Zelaya,Victoria East,53.98,192.78,99.79,179.17,471.74,Single-ply,SBD,M
Boys,55.79,3,Zechariah Segovia,Beeville Jones,55.61,140.61,83.91,149.69,374.21,Single-ply,SBD,M
Boys,55.79,DQ,Lucas DeBord,Cuero,52.44,104.33,56.7,,,Single-ply,SBD,M
Boys,55.79,DQ,Moses Alaniz,Cuero,55.79,102.06,,,,Single-ply,SBD,M
Boys,55.79,DQ,Evan Smith,Port Lavaca Calhoun,55.7,138.35,,,,Single-ply,SBD,M
Boys,59.87,1,Jakob Cortez,Port Lavaca Calhoun,58.88,190.51,92.99,181.44,464.93,Single-ply,SBD,M
Boys,59.87,2,Moises Amaro,Palacios,57.42,174.63,92.99,176.9,444.52,Single-ply,SBD,M
Boys,59.87,3,Drake Moya,Beeville Jones,58.33,138.35,77.11,158.76,374.21,Single-ply,SBD,M
Boys,59.87,4,Miguel Sanchez,Palacios,59.87,142.88,79.38,151.95,374.21,Single-ply,SBD,M
Boys,59.87,DQ,Joe Alvarez,Beeville Jones,59.87,,,,,Single-ply,SBD,M
Boys,67.13,1,Jonathan Zelaya,Victoria East,65.77,272.16,142.88,240.4,655.44,Single-ply,SBD,M
Boys,67.13,2,Nathan Meza,Refugio,66.32,188.24,117.93,192.78,498.95,Single-ply,SBD,M
Boys,67.13,3,Noah Martinez,Victoria West,66.13,183.7,106.59,199.58,489.88,Single-ply,SBD,M
Boys,67.13,4,Andrew Powell,Hallettsville,67.04,192.78,111.13,170.1,474,Single-ply,SBD,M
Boys,67.13,5,Landen Valdez,Victoria West,64.41,181.44,106.59,165.56,453.59,Single-ply,SBD,M
Boys,67.13,6,Nathaniel Reyna,Victoria West,65.41,174.63,99.79,176.9,451.32,Single-ply,SBD,M
Boys,67.13,7,Benjamin Luna,Goliad,66.86,165.56,95.25,174.63,435.45,Single-ply,SBD,M
Boys,67.13,8,Brandon Banda,Victoria West,64.77,158.76,74.84,170.1,403.7,Single-ply,SBD,M
Boys,67.13,DQ,Saiah Collumbs,Goliad,67.13,,,,,Single-ply,SBD,M
Boys,67.13,DQ,Joshua Dutiel,Beeville Jones,65.41,161.03,,,,Single-ply,SBD,M
Boys,74.84,1,Patrick Prieto,Beeville Jones,74.12,256.28,138.35,240.4,635.03,Single-ply,SBD,M
Boys,74.84,2,Jose Cumpean,Port Lavaca Calhoun,73.3,244.94,142.88,244.94,632.76,Single-ply,SBD,M
Boys,74.84,3,Trey Hernandez,Beeville Jones,68.67,185.97,95.25,176.9,458.13,Single-ply,SBD,M
Boys,74.84,4,Trenton Carter,Victoria West,71.76,174.63,97.52,151.95,424.11,Single-ply,SBD,M
Boys,74.84,5,Dominic Diaz,Victoria West,73.03,124.74,74.84,142.88,342.46,Single-ply,SBD,M
Boys,74.84,6,Aaron Gomez,Louise,74.84,113.4,61.23,113.4,288.03,Single-ply,SBD,M
Boys,74.84,DQ,Morgan Segovia,Palacios,74.84,,,,,Single-ply,SBD,M
Boys,74.84,DQ,Aaron Arrendondo,Refugio,74.84,,,,,Single-ply,SBD,M
Boys,74.84,DQ,Ray Caltzonzin,Victoria West,74.84,,,,,Single-ply,SBD,M
Boys,82.1,1,Eh Klo Htoo,Port Lavaca Calhoun,81.19,244.94,124.74,231.33,601.01,Single-ply,SBD,M
Boys,82.1,2,Kyle Mikes,East Bernard,80.65,188.24,142.88,206.38,537.51,Single-ply,SBD,M
Boys,82.1,3,Gary Hunley,Victoria West,81.56,199.58,129.27,206.38,535.24,Single-ply,SBD,M
Boys,82.1,4,Adam Nguyen,Palacios,80.29,192.78,102.06,201.85,496.68,Single-ply,SBD,M
Boys,82.1,5,Ray Buckner,Victoria West,82.1,151.95,88.45,174.63,415.04,Single-ply,SBD,M
Boys,82.1,6,Nathan Nguyen,Palacios,75.75,131.54,72.57,136.08,340.19,Single-ply,SBD,M
Boys,82.1,DQ,Jesse Gonzales,Yorktown,82.1,,,,,Single-ply,SBD,M
Boys,82.1,DQ,Steven Brandt,Victoria West,81.83,,,,,Single-ply,SBD,M
Boys,89.81,1,Jaime Rios,Port Lavaca Calhoun,87.27,265.35,136.08,235.87,637.3,Single-ply,SBD,M
Boys,89.81,2,Raul Padilla,Victoria West,89.45,242.67,172.37,206.38,621.42,Single-ply,SBD,M
Boys,89.81,3,Jonathan Oviedo,Victoria East,87.54,258.55,147.42,195.04,601.01,Single-ply,SBD,M
Boys,89.81,4,Nick Delgado,Victoria West,87.27,174.63,102.06,151.95,428.64,Single-ply,SBD,M
Boys,89.81,5,Kaden Collins,Goliad,85.64,111.13,61.23,113.4,285.76,Single-ply,SBD,M
Boys,89.81,DQ,David Zavala,Palacios,89.81,,,,,Single-ply,SBD,M
Boys,89.81,DQ,Danny Williams,Louise,89.81,,,,,Single-ply,SBD,M
Boys,89.81,DQ,Cole Hobbs,Goliad,88.18,,,,,Single-ply,SBD,M
Boys,89.81,DQ,Dayton Bell,Cuero,82.92,,,,,Single-ply,SBD,M
Boys,89.81,DQ,Raphael Chacon,Victoria East,82.28,,,,,Single-ply,SBD,M
Boys,99.79,1,Christian Oviedo,Victoria East,99.79,312.98,210.92,247.21,771.11,Single-ply,SBD,M
Boys,99.79,2,Sylas Montgomery,Port Lavaca Calhoun,95.98,263.08,138.35,263.08,664.51,Single-ply,SBD,M
Boys,99.79,3,Conner Brandt,Yoakum,97.34,267.62,138.35,215.46,621.42,Single-ply,SBD,M
Boys,99.79,4,Joe Montoya,Beeville Jones,90.08,197.31,113.4,183.7,494.42,Single-ply,SBD,M
Boys,99.79,5,Jackson Engel,Palacios,97.89,204.12,124.74,165.56,494.42,Single-ply,SBD,M
Boys,99.79,6,Marshall Purdy,Victoria West,95.62,170.1,115.67,192.78,478.54,Single-ply,SBD,M
Boys,99.79,7,Benji DeNava,Refugio,97.98,163.29,113.4,158.76,435.45,Single-ply,SBD,M
Boys,99.79,8,Caleb Smith,Victoria West,93.35,172.37,83.91,174.63,430.91,Single-ply,SBD,M
Boys,99.79,DQ,Miguel Montes,Louise,99.79,,,,,Single-ply,SBD,M
Boys,99.79,DQ,Mateo Martinez,Goliad,99.79,,,,,Single-ply,SBD,M
Boys,109.77,1,Celestino Alvarez,Victoria East,101.6,294.84,145.15,244.94,684.92,Single-ply,SBD,M
Boys,109.77,2,Arron Vasquez,Victoria East,106.05,254.01,149.69,204.12,607.81,Single-ply,SBD,M
Boys,109.77,3,Ezekiel Palacios,Goliad,109.32,226.8,129.27,222.26,578.33,Single-ply,SBD,M
Boys,109.77,4,Nick Searcy,Cuero,109.04,219.99,122.47,215.46,557.92,Single-ply,SBD,M
Boys,109.77,5,Clayton Kleckler,Goliad,105.41,185.97,129.27,206.38,521.63,Single-ply,SBD,M
Boys,109.77,6,Ethan Carr,Palacios,104.14,204.12,97.52,179.17,480.81,Single-ply,SBD,M
Boys,109.77,7,Tyler Baladez,Victoria West,104.96,174.63,111.13,174.63,460.4,Single-ply,SBD,M
Boys,109.77,DQ,Cruz Medina,Yorktown,109.77,,,,,Single-ply,SBD,M
Boys,109.77,DQ,Ellian Perez,Palacios,109.77,,,,,Single-ply,SBD,M
Boys,109.77,DQ,Paul Rojas,Goliad,109.77,,,,,Single-ply,SBD,M
Boys,109.77,DQ,Cameron Antwine,Cuero,101.15,,,,,Single-ply,SBD,M
Boys,124.74,1,Juan LeBron,Port Lavaca Calhoun,123.38,267.62,142.88,233.6,644.1,Single-ply,SBD,M
Boys,124.74,2,Jorge Melgoza,Cuero,123.1,249.48,174.63,206.38,630.49,Single-ply,SBD,M
Boys,124.74,3,Jorge Vasquez,Victoria East,116.3,281.23,131.54,215.46,628.23,Single-ply,SBD,M
Boys,124.74,4,Mario Cano,Beeville Jones,121.74,251.74,167.83,204.12,623.69,Single-ply,SBD,M
Boys,124.74,5,Jaedon Hinchliffe,Palacios,116.21,206.38,142.88,251.74,601.01,Single-ply,SBD,M
Boys,124.74,6,Noah Nelson,Victoria West,122.29,256.28,142.88,190.51,589.67,Single-ply,SBD,M
Boys,124.74,7,Justin Carmona,Victoria East,115.76,215.46,108.86,201.85,526.17,Single-ply,SBD,M
Boys,124.74,8,Trevor Benavides,Victoria West,122.29,201.85,136.08,183.7,521.63,Single-ply,SBD,M
Boys,124.74,9,Darian Wills,Refugio,114.58,167.83,108.86,172.37,449.06,Single-ply,SBD,M
Boys,124.74,10,Eloy Mendez,Victoria West,123.01,181.44,83.91,129.27,394.63,Single-ply,SBD,M
Boys,124.74,DQ,Malakye Adams,Victoria East,124.74,,,,,Single-ply,SBD,M
Boys,124.74,DQ,Tyler Neese,Victoria West,124.74,,,,,Single-ply,SBD,M
Boys,124.74+,1,Leo Madera,Port Lavaca Calhoun,145.42,278.96,167.83,226.8,673.58,Single-ply,SBD,M
Boys,124.74+,2,Ray Martinez,Port Lavaca Calhoun,125.65,265.35,161.03,219.99,646.37,Single-ply,SBD,M
Boys,124.74+,3,DaWayne Haynes,Palacios,125.19,181.44,104.33,170.1,455.86,Single-ply,SBD,M
Boys,124.74+,DQ,Amos Haynes,Palacios,134.72,,,,,Single-ply,SBD,M
Boys,124.74+,DQ,Isaac Mendez,Goliad,125.19,,,,,Single-ply,SBD,M
Boys,124.74+,DQ,Xavier Perry,Goliad,125.19,,,,,Single-ply,SBD,M
Boys,124.74+,DQ,Jaedon Segura,Goliad,139.62,181.44,,,,Single-ply,SBD,M
Boys,124.74+,DQ,Daniel Martinez #9,Beeville Jones,140.89,267.62,174.63,,,Single-ply,SBD,M
Boys,124.74+,DQ,Damian Chavez,Port Lavaca Calhoun,134.44,258.55,120.2,,,Single-ply,SBD,M
Boys,124.74+,DQ,Jose Campos,Victoria West,129.55,215.46,151.95,,,Single-ply,SBD,M
Boys,124.74+,DQ,Brycen Castillo,Victoria West,127.46,231.33,,,,Single-ply,SBD,M
Boys,124.74+,DQ,Nick Gomez,Yoakum,125.83,267.62,131.54,,,Single-ply,SBD,M
