Sex,Place,WeightClassKg,Division,Name,BodyweightKg,Bench1Kg,Bench2Kg,Bench3Kg,Bench4Kg,Best3BenchKg,TotalKg,Event,Equipment
F,1,48,Masters 1,Mara Montano,45.3,55,60,62.5,,62.5,62.5,B,Single-ply
F,2,48,Masters 1,Rossella Montalti,47.4,50,55,57.5,,57.5,57.5,B,Single-ply
F,1,48,Open,Stefania Stucchi,47.7,45,47.5,50,,50,50,B,Single-ply
F,1,52,Open,Alessia Rodina,51.7,50,-55,-55,,50,50,B,Single-ply
F,1,56,Masters 1,Laura Locatelli,55.8,85,-90,-90,,85,85,B,Single-ply
F,2,56,Masters 1,Paola Guidi,55,67.5,-72.5,-75,,67.5,67.5,B,Single-ply
F,DQ,56,Open,Nicoletta Perego,55.8,-65,-70,-70,,,,B,Single-ply
F,1,60,Open,Emanuela Cazzaniga,56.4,50,55,-57.5,,55,55,B,Single-ply
F,1,67.5,Masters 1,Antonietta Orsini,67.4,115,122.5,127.5,,127.5,127.5,B,Single-ply
F,1,75,Open,Elena Sala,68.4,-100,110,-115.5,,110,110,B,Single-ply
F,1,75,Masters 1,Donatella Beretta,68.6,80.5,-90,-90,,80.5,80.5,B,Single-ply
M,1,56,Juniors,Daniele Tarchi,53.4,75,83,-87.5,,83,83,B,Single-ply
M,1,56,Masters 2,Franco Giummarra,55.7,75,80,-85,,80,80,B,Single-ply
M,1,60,Open,Pietro Panpolini,58.4,90,95,,,95,95,B,Single-ply
M,1,67.5,Open,Tiziano Barreca,64.6,120,125,127.5,,127.5,127.5,B,Single-ply
M,1,67.5,Juniors,Marco Margelli,63.9,110,117.5,120,,120,120,B,Single-ply
M,2,67.5,Open,Patrizio Caramia,61.4,112.5,117.5,-122.5,,117.5,117.5,B,Single-ply
M,3,67.5,Open,Francesco Palmisano,67.5,100,105,110,,110,110,B,Single-ply
M,4,67.5,Open,Andrea Porcari,66,-100,107.5,-115,,107.5,107.5,B,Single-ply
M,2,67.5,Juniors,Daniele Lattanzio,63.4,95,-100,-102.5,,95,95,B,Single-ply
M,5,67.5,Open,Fabrizio Maltoni,64.8,87.5,92.5,-100,,92.5,92.5,B,Single-ply
M,1,75,Open,Roberto Sacco,73.3,165,175,185,190,185,185,B,Single-ply
M,2,75,Open,Alan Baroncini,74.2,160,165,170,,170,170,B,Single-ply
M,1,75,Masters 1,Paolo Buonavita,73.9,-150,150,155,-165,155,155,B,Single-ply
M,3,75,Open,Petrit Kapsaj,74.7,130,137.5,150,,150,150,B,Single-ply
M,2,75,Masters 1,Rosseun Cavazzana,74.6,140.5,145,-150.5,,145,145,B,Single-ply
M,3,75,Masters 1,Claudio Copetti,74.2,130,-137.5,-137.5,,130,130,B,Single-ply
M,4,75,Open,Michele Ardigo,68.4,100,105,-110,,105,105,B,Single-ply
M,1,75,Juniors,Florenz Collaku,74.6,100,-107.5,-107.5,,100,100,B,Single-ply
M,1,82.5,Juniors,Luca Pennacchi,76.4,132.5,-140,-140,,132.5,132.5,B,Single-ply
M,2,82.5,Juniors,Walter Bonazza,75.6,115,122.5,127.5,,127.5,127.5,B,Single-ply
M,1,82.5,Masters 1,Stefano Marescotti,81.7,185,-202.5,-202.5,,185,185,B,Single-ply
M,2,82.5,Masters 1,Luciano Bertoletti,82.3,-155,162.5,-170,,162.5,162.5,B,Single-ply
M,3,82.5,Masters 1,Tindaro La Monica,80.9,110,-120,-125,,110,110,B,Single-ply
M,1,82.5,Masters 2,Pietro Andreatta,81.4,-140,-142.5,142.5,,142.5,142.5,B,Single-ply
M,2,82.5,Masters 2,Sergio Zanetti,76.4,110,115,-120,,115,115,B,Single-ply
M,1,82.5,Open,Daniele Andreatta,76.7,-145,150,157.5,,157.5,157.5,B,Single-ply
M,2,82.5,Open,Davide Vailati,82.5,145,155,-160,,155,155,B,Single-ply
M,3,82.5,Open,Silvano Zonca,81.4,145,-152.5,-152.5,,145,145,B,Single-ply
M,4,82.5,Open,Arnaldo Gruzza,75.3,140,-145,-145,,140,140,B,Single-ply
M,5,82.5,Open,Luca Ricci,81.4,105,115,120,,120,120,B,Single-ply
M,7,82.5,Open,Giuseppe Grifoni,81.5,-105,105,115,,115,115,B,Single-ply
M,6,82.5,Open,Davide Alberici,78.3,-115,115,-125,,115,115,B,Single-ply
M,8,82.5,Open,Valeriano Foti,75.7,100,110,-120,,110,110,B,Single-ply
M,DQ,82.5,Open,Igor Leani,77.2,-130,-130,-135,,,,B,Single-ply
M,1,90,Masters 1,Giorgio Zanni,84.9,-175,182.5,-190,,182.5,182.5,B,Single-ply
M,2,90,Masters 1,Fabio Formicola,85,155,162.5,170,,170,170,B,Single-ply
M,3,90,Masters 1,Piergiorgio Criscione,84.3,135,142.5,147.5,,147.5,147.5,B,Single-ply
M,1,90,Open,Daniele Ghirardi,88.8,200,210,,,210,210,B,Single-ply
M,2,90,Open,Cristian Voso,89.2,170,180,190,,190,190,B,Single-ply
M,3,90,Open,Luigi Sanges,88.1,175,-185,-190,,175,175,B,Single-ply
M,4,90,Open,Alessandro Favorito,89.5,172.5,-182.5,-182.5,,172.5,172.5,B,Single-ply
M,5,90,Open,Antonino Barbera,84.8,150,160,165,,165,165,B,Single-ply
M,6,90,Open,Manuel Fichicelli,83.2,145,-150,-155,,145,145,B,Single-ply
M,7,90,Open,Alessio Marazzini,88.2,130,145,-155,,145,145,B,Single-ply
M,8,90,Open,Lorenzo Fiori,84.7,-130,132.5,140,,140,140,B,Single-ply
M,9,90,Open,Marco Morganti,83.6,135,-142.5,-150,,135,135,B,Single-ply
M,10,90,Open,Gheorghe Pomirleanu,83.3,-120,125,-130,,125,125,B,Single-ply
M,1,100,Juniors,Riccardo Tanzini,90.1,135,145,152.5,,152.5,152.5,B,Single-ply
M,2,100,Juniors,Aldo Rubinelli,94.9,130,140,150,,150,150,B,Single-ply
M,1,100,Masters 1,Roberto Bettati,90.8,150,160,170,,170,170,B,Single-ply
M,1,100,Open,Antonio Foroni,98.1,200,210.5,220,,220,220,B,Single-ply
M,2,100,Open,Stefano Bettati,90.9,-150,170,190,,190,190,B,Single-ply
M,3,100,Open,Luciano Rotella,90.6,170,175,-185,,175,175,B,Single-ply
M,4,100,Open,Enrico Bomboletti,90.8,160,167.5,170,,170,170,B,Single-ply
M,5,100,Open,Nicola Forte,92.1,150,-160,160,,160,160,B,Single-ply
M,1,110,Juniors,Giacomo Rattini,108.5,150,155,-160,,155,155,B,Single-ply
M,1,110,Masters 1,Antonio Russo,105,160,-167.5,-167.5,,160,160,B,Single-ply
M,DQ,110,Masters 1,Paolo Pollastri,106.8,-170,-180,-180,,,,B,Single-ply
M,1,110,Open,Martino Albanese,101,210.5,220,-230,,220,220,B,Single-ply
M,2,110,Open,Andrea Bassini,109,200,211,-222.5,,211,211,B,Single-ply
M,3,110,Open,Massimo Sobrero,100.8,190,-210.5,-210.5,,190,190,B,Single-ply
M,4,110,Open,Marco Lazzari,104,190,-197.5,-200,,190,190,B,Single-ply
M,5,110,Open,Tiziano Tura,107.4,130,140,-150,,140,140,B,Single-ply
M,6,110,Open,Nicola Tacito,105.1,130,-140,-150,,130,130,B,Single-ply
M,DQ,110,Open,Silvio Crisafi,103.3,-150,-150,-150,,,,B,Single-ply
M,1,125,Juniors,Giuseppe Pellino,115.2,140,150,155,,155,155,B,Single-ply
M,1,125+,Masters 1,Massimo Papini,125.5,255,263.5,-270,,263.5,263.5,B,Single-ply
