Division,WeightClassKg,Place,Name,Team,BodyweightKg,Best3SquatKg,Best3BenchKg,Best3DeadliftKg,TotalKg,Equipment,Event,Sex,BirthDate
Boys,51.71,1,Caleb Hernandez,Perryton,47.99,136.08,79.38,145.15,360.61,Single-ply,SBD,M,
Boys,51.71,2,Rodie Mayes,Amarillo Highland Park,50.44,92.99,56.7,129.27,278.96,Single-ply,SBD,M,
Boys,51.71,3,Benjamin Perez,Amarillo Highland Park,47.08,88.45,47.63,113.4,249.48,Single-ply,SBD,M,
Boys,51.71,4,Braden Amaya,Amarillo Highland Park,51.71,86.18,49.9,102.06,238.14,Single-ply,SBD,M,
Boys,51.71,5,Jose Zamora,Dumas,50.62,79.38,43.09,111.13,233.6,Single-ply,SBD,M,
Boys,55.79,1,Bryan Ordaz,Dumas,55.7,154.22,99.79,165.56,419.57,Single-ply,SBD,M,
Boys,55.79,2,Isaac Castro,Perryton,55.16,122.47,81.65,158.76,362.87,Single-ply,SBD,M,
Boys,55.79,3,Alex Garcia,Plainview,55.16,115.67,72.57,129.27,317.51,Single-ply,SBD,M,
Boys,55.79,4,Isaiah Esquivel,Plainview,54.07,117.93,70.31,95.25,283.5,Single-ply,SBD,M,
Boys,55.79,5,Kaiven Encinias,Dalhart,55.16,92.99,52.16,108.86,254.01,Single-ply,SBD,M,
Boys,59.87,1,Fernando Escontrias,Borger,59.78,183.7,79.38,192.78,455.86,Single-ply,SBD,M,
Boys,59.87,2,Jose Herrera,Amarillo Highland Park,58.6,133.81,99.79,142.88,376.48,Single-ply,SBD,M,
Boys,59.87,3,Emmanuel Ibanez,Dumas,59.78,133.81,86.18,154.22,374.21,Single-ply,SBD,M,
Boys,59.87,4,Johnson Phan,Amarillo Highland Park,59.06,149.69,52.16,167.83,369.68,Single-ply,SBD,M,
Boys,67.13,1,Levi Condren,Borger,66.59,226.8,102.06,190.51,519.36,Single-ply,SBD,M,
Boys,67.13,2,Uriel Avila,Perryton,66.86,190.51,117.93,199.58,508.02,Single-ply,SBD,M,
Boys,67.13,3,Damian Mendoza,Dumas,64.14,167.83,108.86,195.04,471.74,Single-ply,SBD,M,
Boys,67.13,4,Derian Williams,Amarillo Highland Park,66.68,145.15,74.84,151.95,371.95,Single-ply,SBD,M,
Boys,67.13,5,David Garcia,Perryton,65.68,124.74,77.11,142.88,344.73,Single-ply,SBD,M,
Boys,67.13,6,Roger Marquez,Plainview,65.05,127.01,68.04,138.35,333.39,Single-ply,SBD,M,
Boys,67.13,7,Daniel Hernandez,Amarillo Highland Park,65.05,58.97,,,58.97,Single-ply,S,M,
Boys,67.13,DQ,Jose Chavira,Dumas,66.04,165.56,115.67,,,Single-ply,SBD,M,
Boys,74.84,1,Julian Aragon,Plainview,71.03,195.04,102.06,183.7,480.81,Single-ply,SBD,M,
Boys,74.84,2,Hector Borunda,Dumas,71.85,174.63,117.93,183.7,476.27,Single-ply,SBD,M,
Boys,74.84,3,Tony Sanchez,Amarillo Highland Park,70.49,161.03,79.38,210.92,451.32,Single-ply,SBD,M,
Boys,74.84,4,Jake Wirt,Canyon,74.12,158.76,97.52,192.78,449.06,Single-ply,SBD,M,
Boys,74.84,5,Damian Serna,Amarillo Highland Park,74.21,147.42,79.38,167.83,394.63,Single-ply,SBD,M,
Boys,74.84,6,Evan Height,Plainview,71.58,149.69,86.18,149.69,385.55,Single-ply,SBD,M,
Boys,74.84,7,Donavon Cardenas,Amarillo Highland Park,74.39,142.88,86.18,151.95,381.02,Single-ply,SBD,M,
Boys,74.84,8,Gerardo Rivera,Plainview,73.75,127.01,86.18,136.08,349.27,Single-ply,SBD,M,
Boys,74.84,9,Wayne Fish,Bushland,68.4,90.72,68.04,77.11,235.87,Single-ply,SBD,M,
Boys,82.1,1,Joseph Raissez,Perryton,77.79,256.28,124.74,242.67,623.69,Single-ply,SBD,M,
Boys,82.1,2,Alex Clements,Borger,81.06,183.7,97.52,231.33,512.56,Single-ply,SBD,M,
Boys,82.1,3,Junior Torres,Perryton,80.38,199.58,111.13,190.51,501.22,Single-ply,SBD,M,
Boys,82.1,4,Carson Ward #3,Borger,82.05,174.63,102.06,192.78,469.47,Single-ply,SBD,M,
Boys,82.1,5,Jagger Puga,Dalhart,80.56,154.22,122.47,165.56,442.25,Single-ply,SBD,M,
Boys,82.1,6,Stetson Garcia,Perryton,76.57,142.88,106.59,163.29,412.77,Single-ply,SBD,M,
Boys,82.1,DQ,Joel Herrera,Dalhart,80.65,,,,,Single-ply,SBD,M,
Boys,89.81,1,Marco Godino,Plainview,83.37,208.65,111.13,208.65,528.44,Single-ply,SBD,M,
Boys,89.81,2,Mark Hernandez,Dumas,89.18,185.97,129.27,185.97,501.22,Single-ply,SBD,M,
Boys,89.81,3,Jose Ibarra,Perryton,87.72,192.78,102.06,195.04,489.88,Single-ply,SBD,M,
Boys,89.81,4,Jordan Vasquez,Plainview,87.09,183.7,111.13,190.51,485.34,Single-ply,SBD,M,
Boys,89.81,5,Zavon Ponder,Plainview,89.18,195.04,106.59,174.63,476.27,Single-ply,SBD,M,
Boys,89.81,6,Gavin Groll,Dalhart,82.92,190.51,106.59,165.56,462.66,Single-ply,SBD,M,
Boys,89.81,7,Ezequiel Fernandez Uguet,Borger,89.81,185.97,97.52,170.1,453.59,Single-ply,SBD,M,
Boys,89.81,8,Roise Marquez,Dalhart,87.45,172.37,111.13,154.22,437.72,Single-ply,SBD,M,
Boys,89.81,9,Anthony Aguilera,Dalhart,86.36,210.92,127.01,,337.93,Single-ply,SB,M,
Boys,99.79,1,Alonso Tarango,Perryton,94.89,249.48,158.76,217.72,625.96,Single-ply,SBD,M,
Boys,99.79,2,Gael Davila,Dumas,98.34,197.31,142.88,197.31,537.51,Single-ply,SBD,M,
Boys,99.79,3,Jacob Raissez,Perryton,92.62,183.7,108.86,192.78,485.34,Single-ply,SBD,M,
Boys,99.79,4,Xavier Gonzalez,Dalhart,90.9,195.04,95.25,167.83,458.13,Single-ply,SBD,M,
Boys,99.79,5,Vance Vyoral,Perryton,91.26,154.22,99.79,172.37,426.38,Single-ply,SBD,M,
Boys,99.79,6,Raul Baeza-Garcia,Amarillo Highland Park,98.52,156.49,86.18,147.42,390.09,Single-ply,SBD,M,
Boys,109.77,1,Jaziel Torres,Borger,109.45,283.5,165.56,213.19,662.24,Single-ply,SBD,M,
Boys,109.77,2,Chris Delatorre,Dumas,104.96,247.21,154.22,238.14,639.57,Single-ply,SBD,M,
Boys,109.77,3,Ivan Perez,Amarillo Highland Park,109.32,204.12,124.74,217.72,546.58,Single-ply,SBD,M,
Boys,109.77,4,Danny Guiterrez,Plainview,103.69,206.38,108.86,185.97,501.22,Single-ply,SBD,M,
Boys,109.77,5,Abner Garcia,Borger,104.37,197.31,83.91,204.12,485.34,Single-ply,SBD,M,
Boys,109.77,6,Yostin Villagomez,Dalhart,106.5,217.72,158.76,,376.48,Single-ply,SB,M,
Boys,124.74,1,Omar Hernandez,Dumas,121.38,283.5,183.7,231.33,698.53,Single-ply,SBD,M,
Boys,124.74,2,Zemere Perez,Plainview,113.31,190.51,113.4,188.24,492.15,Single-ply,SBD,M,
Boys,124.74,DQ,Kaleb Hughes,Borger,110.86,,,,,Single-ply,SBD,M,
Boys,124.74+,1,Yordi Hernandez,Perryton,128.64,326.59,174.63,258.55,759.77,Single-ply,SBD,M,
Boys,124.74+,2,Lucas Martinez,Dumas,124.92,185.97,129.27,219.99,535.24,Single-ply,SBD,M,
Boys,124.74+,3,Damarco Castellon Castellon,Amarillo Highland Park,131.9,206.38,122.47,188.24,517.1,Single-ply,SBD,M,
Boys,124.74+,4,Cristian Salinas,Dalhart,125.74,188.24,133.81,151.95,474,Single-ply,SBD,M,
