Division,WeightClassKg,Place,Name,Team,BodyweightKg,Best3SquatKg,Best3BenchKg,Best3DeadliftKg,TotalKg,Equipment,Event,Sex
Boys,51.71,1,Randy Trevino,Gregory-Portland,50.35,154.22,81.65,176.9,412.77,Single-ply,SBD,M
Boys,51.71,2,Pete Olivarez,Orange Grove,50.89,145.15,86.18,145.15,376.48,Single-ply,SBD,M
Boys,51.71,3,Trey Schmedt,Victoria East,51.35,127.01,61.23,151.95,340.19,Single-ply,SBD,M
Boys,51.71,4,Weston Skorrupa,Corpus Christi Calallen,49.99,58.97,52.16,90.72,201.85,Single-ply,SBD,M
Boys,55.79,1,Joe Castillo,Gregory-Portland,53.89,145.15,83.91,172.37,401.43,Single-ply,SBD,M
Boys,55.79,2,Michael Perez,Corpus Christi Tuloso-Midway,52.89,90.72,52.16,97.52,240.4,Single-ply,SBD,M
Boys,55.79,DQ,John Ramirez,Victoria West,55.79,154.22,,,,Single-ply,SBD,M
Boys,55.79,DQ,Arturo Morales,Corpus Christi West Oso,55.34,,,,,Single-ply,SBD,M
Boys,67.13,1,Jacob de la Paz,Corpus Christi Calallen,60.1,197.31,95.25,199.58,492.15,Single-ply,SBD,M
Boys,59.87,2,Mauro Garcia,Port Lavaca Calhoun,59.51,188.24,102.06,199.58,489.88,Single-ply,SBD,M
Boys,59.87,3,Jarrett Buford,Port Lavaca Calhoun,58.88,176.9,117.93,190.51,485.34,Single-ply,SBD,M
Boys,59.87,4,Aaron Martinez,Corpus Christi Calallen,58.97,154.22,102.06,188.24,444.52,Single-ply,SBD,M
Boys,59.87,5,Harry Averruz,Corpus Christi Tuloso-Midway,59.6,161.03,99.79,172.37,433.18,Single-ply,SBD,M
Boys,67.13,6,Jason Harries,Orange Grove,60.1,158.76,97.52,167.83,424.11,Single-ply,SBD,M
Boys,59.87,7,Anthony Huerta,Gregory-Portland,58.42,133.81,92.99,163.29,390.09,Single-ply,SBD,M
Boys,59.87,8,Jonathon Galvan,Corpus Christi Tuloso-Midway,58.97,124.74,83.91,154.22,362.87,Single-ply,SBD,M
Boys,59.87,9,Daniel Tortu,Corpus Christi West Oso,57.79,113.4,72.57,129.27,315.25,Single-ply,SBD,M
Boys,67.13,1,Jade Haney,Port Lavaca Calhoun,66.22,208.65,108.86,233.6,551.11,Single-ply,SBD,M
Boys,67.13,2,Samuel Navarro,Beeville Jones,66.22,204.12,117.93,210.92,532.97,Single-ply,SBD,M
Boys,67.13,3,Modesto Martinez,Victoria West,66.41,210.92,113.4,199.58,523.9,Single-ply,SBD,M
Boys,74.84,4,Damian Cisneros,Gregory-Portland,67.31,208.65,108.86,201.85,519.36,Single-ply,SBD,M
Boys,67.13,5,Daniel Martinez #16,Port Lavaca Calhoun,64.23,167.83,92.99,201.85,462.66,Single-ply,SBD,M
Boys,67.13,6,Blake Perez,Gregory-Portland,66.22,181.44,97.52,183.7,462.66,Single-ply,SBD,M
Boys,67.13,7,Jarrett Davenport,Victoria East,66.59,142.88,108.86,190.51,442.25,Single-ply,SBD,M
Boys,67.13,8,Marcus Crespin,Victoria West,64.86,172.37,83.91,170.1,426.38,Single-ply,SBD,M
Boys,67.13,9,Alonzo Moya,Corpus Christi West Oso,64.05,158.76,86.18,176.9,421.84,Single-ply,SBD,M
Boys,74.84,10,Alex Rodriguez,Corpus Christi Calallen,67.31,158.76,79.38,158.76,396.89,Single-ply,SBD,M
Boys,67.13,11,Ernie Ramirez,Sinton,63.78,136.08,92.99,149.69,378.75,Single-ply,SBD,M
Boys,67.13,12,Jonathon Hernandez,Orange Grove,65.41,124.74,88.45,158.76,371.95,Single-ply,SBD,M
Boys,67.13,13,Joseph Gonzales,Orange Grove,61.05,127.01,74.84,154.22,356.07,Single-ply,SBD,M
Boys,67.13,14,Michael Torres,Victoria East,60.87,133.81,68.04,149.69,351.53,Single-ply,SBD,M
Boys,67.13,15,Damon Liendo,Orange Grove,64.77,129.27,83.91,136.08,349.27,Single-ply,SBD,M
Boys,67.13,16,Raiden Windham,Gregory-Portland,61.33,108.86,63.5,122.47,294.84,Single-ply,SBD,M
Boys,67.13,DQ,Dylan Giles,Corpus Christi Tuloso-Midway,60.96,104.33,,,,Single-ply,SBD,M
Boys,67.13,DQ,Derrick Carroll,Beeville Jones,66.68,120.2,74.84,,,Single-ply,SBD,M
Boys,74.84,1,Jared Garcia,Corpus Christi Calallen,74.66,226.8,136.08,251.74,614.62,Single-ply,SBD,M
Boys,74.84,2,Miguel Salazar,Corpus Christi Tuloso-Midway,74.3,226.8,149.69,204.12,580.6,Single-ply,SBD,M
Boys,74.84,3,James Bain,Corpus Christi Tuloso-Midway,74.75,226.8,122.47,226.8,576.06,Single-ply,SBD,M
Boys,74.84,4,Christian Salazar,Corpus Christi Tuloso-Midway,73.03,204.12,122.47,204.12,530.7,Single-ply,SBD,M
Boys,74.84,5,Chris McGlaun,Ingleside,74.12,210.92,102.06,206.38,519.36,Single-ply,SBD,M
Boys,74.84,6,Gabriel Cantu,Corpus Christi Calallen,72.12,179.17,108.86,226.8,514.83,Single-ply,SBD,M
Boys,74.84,7,Jd Savanich,Corpus Christi Calallen,68.31,199.58,102.06,199.58,501.22,Single-ply,SBD,M
Boys,82.1,8,Edward DeLeon,Port Lavaca Calhoun,74.93,188.24,111.13,195.04,494.42,Single-ply,SBD,M
Boys,74.84,9,JC Garcia,Port Lavaca Calhoun,71.67,179.17,108.86,199.58,487.61,Single-ply,SBD,M
Boys,74.84,10,Steve Marin,Gregory-Portland,70.13,158.76,95.25,201.85,455.86,Single-ply,SBD,M
Boys,74.84,11,John Ruth,Gregory-Portland,69.13,163.29,88.45,163.29,415.04,Single-ply,SBD,M
Boys,74.84,12,Scott Barrington,Corpus Christi Calallen,70.13,136.08,86.18,165.56,387.82,Single-ply,SBD,M
Boys,74.84,13,Ray Lindeman,Sinton,71.4,142.88,99.79,142.88,385.55,Single-ply,SBD,M
Boys,74.84,14,Kory Taylor,Victoria West,72.67,140.61,86.18,158.76,385.55,Single-ply,SBD,M
Boys,74.84,15,Daniel Green,Gregory-Portland,73.66,133.81,79.38,167.83,381.02,Single-ply,SBD,M
Boys,74.84,DQ,Austin Muns,Gregory-Portland,69.4,,,,,Single-ply,SBD,M
Boys,74.84,DQ,Caleb Iglesias,Corpus Christi Tuloso-Midway,73.12,142.88,,,,Single-ply,SBD,M
Boys,74.84,DQ,Dustin Torres,Beeville Jones,73.48,149.69,,,,Single-ply,SBD,M
Boys,74.84,DQ,Darrell Upton,Victoria East,73.12,124.74,,,,Single-ply,SBD,M
Boys,74.84,DQ,Matt Martin,Victoria East,72.48,,,,,Single-ply,SBD,M
Boys,82.1,1,Carlos Charles,Bishop,80.74,238.14,151.95,226.8,616.89,Single-ply,SBD,M
Boys,82.1,2,Jhony Zelaya,Victoria East,80.29,213.19,133.81,188.24,535.24,Single-ply,SBD,M
Boys,82.1,3,Angel Casas,Corpus Christi Tuloso-Midway,80.83,190.51,129.27,195.04,514.83,Single-ply,SBD,M
Boys,82.1,4,Joshua Flatt,Victoria West,79.92,195.04,113.4,192.78,501.22,Single-ply,SBD,M
Boys,82.1,5,Bobby Morris,Victoria East,81.83,183.7,92.99,213.19,489.88,Single-ply,SBD,M
Boys,82.1,6,Shavar Richard,Port Lavaca Calhoun,77.29,195.04,102.06,181.44,478.54,Single-ply,SBD,M
Boys,82.1,7,Link Emard,Corpus Christi Calallen,76.75,167.83,113.4,190.51,471.74,Single-ply,SBD,M
Boys,82.1,8,Gianni Villarreal,Corpus Christi Tuloso-Midway,81.19,181.44,113.4,167.83,462.66,Single-ply,SBD,M
Boys,82.1,9,Keenan Gissannder,Gregory-Portland,76.84,170.1,83.91,183.7,437.72,Single-ply,SBD,M
Boys,82.1,10,Abel Rodriguez,Corpus Christi Tuloso-Midway,81.83,165.56,113.4,156.49,435.45,Single-ply,SBD,M
Boys,82.1,11,Joshua Morvant,Sinton,77.11,165.56,83.91,170.1,419.57,Single-ply,SBD,M
Boys,82.1,12,John Tanguma,Corpus Christi Calallen,80.29,117.93,90.72,167.83,376.48,Single-ply,SBD,M
Boys,82.1,DQ,Nolan Ladewig,Ingleside,80.92,,,,,Single-ply,SBD,M
Boys,82.1,DQ,Steve Garza,Ingleside,81.1,217.72,129.27,,,Single-ply,SBD,M
Boys,99.79,1,Jacob Flores,Beeville Jones,90.04,260.82,147.42,249.48,657.71,Single-ply,SBD,M
Boys,89.81,2,James Johnson,Victoria East,88.81,204.12,113.4,208.65,526.17,Single-ply,SBD,M
Boys,89.81,3,Miguel Ortiz,Orange Grove,86.91,190.51,117.93,201.85,510.29,Single-ply,SBD,M
Boys,89.81,4,Michael Munoz,Bishop,88.72,204.12,113.4,190.51,508.02,Single-ply,SBD,M
Boys,89.81,5,Curtis Nix,Victoria East,83.1,163.29,92.99,213.19,469.47,Single-ply,SBD,M
Boys,89.81,6,Zevaughn Shelton,Victoria West,85.18,183.7,92.99,181.44,458.13,Single-ply,SBD,M
Boys,89.81,7,Jonathon Reinhert,Gregory-Portland,89.54,185.97,102.06,167.83,455.86,Single-ply,SBD,M
Boys,89.81,8,Dre Littles,Victoria West,85.09,161.03,92.99,181.44,435.45,Single-ply,SBD,M
Boys,89.81,9,Jordan Garcia,Corpus Christi Calallen,83.82,133.81,97.52,149.69,381.02,Single-ply,SBD,M
Boys,89.81,DQ,John Castro,Corpus Christi Tuloso-Midway,83.19,,,,,Single-ply,SBD,M
Boys,89.81,DQ,Kolton Kubala,Orange Grove,89.81,,,,,Single-ply,SBD,M
Boys,89.81,DQ,Rolando Gutierrez,Corpus Christi West Oso,83.19,158.76,,,,Single-ply,SBD,M
Boys,99.79,1,Blade Bronstad,Corpus Christi Calallen,98.34,281.23,163.29,267.62,712.14,Single-ply,SBD,M
Boys,99.79,2,Matthew Dickson,Corpus Christi Tuloso-Midway,91.63,226.8,158.76,251.74,637.3,Single-ply,SBD,M
Boys,99.79,3,Connor Chumchall,Victoria West,98.61,260.82,133.81,215.46,610.08,Single-ply,SBD,M
Boys,99.79,4,Zachary Kwiatkowski,Corpus Christi West Oso,97.79,215.46,127.01,229.06,571.53,Single-ply,SBD,M
Boys,109.77,5,Roy Saenz,Bishop,100.02,217.72,120.2,224.53,562.45,Single-ply,SBD,M
Boys,99.79,6,Eddie Garcia,Port Lavaca Calhoun,98.61,226.8,111.13,197.31,535.24,Single-ply,SBD,M
Boys,99.79,7,Charles West,Gregory-Portland,95.89,204.12,113.4,215.46,532.97,Single-ply,SBD,M
Boys,99.79,8,Aaron Rodriguez,Beeville Jones,98.52,199.58,147.42,185.97,532.97,Single-ply,SBD,M
Boys,99.79,9,Thomas Campos,Gregory-Portland,99.79,190.51,115.67,197.31,503.49,Single-ply,SBD,M
Boys,99.79,10,Adrian Rivas,Sinton,97.98,183.7,113.4,183.7,480.81,Single-ply,SBD,M
Boys,99.79,11,Aaron Puga,Beeville Jones,95.62,167.83,117.93,192.78,478.54,Single-ply,SBD,M
Boys,99.79,12,Weston Laymon,Victoria West,96.89,188.24,106.59,181.44,476.27,Single-ply,SBD,M
Boys,99.79,13,Joseph Rodriguez,Corpus Christi Tuloso-Midway,96.34,179.17,104.33,158.76,442.25,Single-ply,SBD,M
Boys,99.79,14,Vince Narvaez,Corpus Christi Tuloso-Midway,94.98,170.1,113.4,147.42,430.91,Single-ply,SBD,M
Boys,99.79,15,Angel Rodríguez,Corpus Christi West Oso,98.07,158.76,117.93,149.69,426.38,Single-ply,SBD,M
Boys,99.79,16,Michael Duenes,Gregory-Portland,97.89,145.15,104.33,142.88,392.36,Single-ply,SBD,M
Boys,99.79,17,Arnold Molina,Sinton,93.53,140.61,92.99,156.49,390.09,Single-ply,SBD,M
Boys,99.79,18,August Calison,Victoria East,92.17,147.42,83.91,151.95,383.29,Single-ply,SBD,M
Boys,99.79,19,Antonio Cantu,Sinton,97.52,129.27,92.99,133.81,356.07,Single-ply,SBD,M
Boys,99.79,20,Eric Espinoza,Sinton,96.34,138.35,95.25,120.2,353.8,Single-ply,SBD,M
Boys,99.79,21,Kevin Perez,Corpus Christi Tuloso-Midway,94.17,124.74,61.23,124.74,310.71,Single-ply,SBD,M
Boys,99.79,DQ,Jordan Hinojosa,Corpus Christi Tuloso-Midway,95.44,,,,,Single-ply,SBD,M
Boys,99.79,DQ,Jonathan Galvan,Corpus Christi West Oso,94.44,158.76,77.11,,,Single-ply,SBD,M
Boys,109.77,1,Dakota Cooksy,Corpus Christi Calallen,108.23,306.17,188.24,281.23,775.64,Single-ply,SBD,M
Boys,109.77,2,Matt Ramirez,Victoria West,107.41,240.4,147.42,231.33,619.15,Single-ply,SBD,M
Boys,109.77,3,Frankie Lopez,Corpus Christi Tuloso-Midway,104.69,219.99,133.81,190.51,544.31,Single-ply,SBD,M
Boys,109.77,4,Nathaniel Caskie,Corpus Christi Calallen,106.78,217.72,95.25,195.04,508.02,Single-ply,SBD,M
Boys,109.77,5,Benino Torres,Sinton,105.6,199.58,108.86,192.78,501.22,Single-ply,SBD,M
Boys,109.77,6,Cody Dablestein,Corpus Christi Calallen,106.05,176.9,136.08,183.7,496.68,Single-ply,SBD,M
Boys,109.77,7,Oscar Cantua,Sinton,101.42,190.51,111.13,192.78,494.42,Single-ply,SBD,M
Boys,109.77,8,Jeremy Trevino,Gregory-Portland,104.42,149.69,83.91,149.69,383.29,Single-ply,SBD,M
Boys,109.77,DQ,Ysauro Gomez,Corpus Christi West Oso,103.87,,,,,Single-ply,SBD,M
Boys,109.77,DQ,Matthew Botello,Beeville Jones,109.5,,,,,Single-ply,SBD,M
Boys,124.74,1,Vincent Gutierrez,Corpus Christi Tuloso-Midway,121.83,240.4,154.22,226.8,621.42,Single-ply,SBD,M
Boys,124.74,2,Isaac Salinas #1,Gregory-Portland,115.3,240.4,145.15,219.99,605.55,Single-ply,SBD,M
Boys,124.74,3,Zeke Calzada,Port Lavaca Calhoun,112.13,217.72,133.81,217.72,569.26,Single-ply,SBD,M
Boys,124.74,4,Jacob Rodriguez,Corpus Christi Tuloso-Midway,116.3,226.8,124.74,197.31,548.85,Single-ply,SBD,M
Boys,124.74,5,Ben Morgan,Victoria West,117.48,210.92,136.08,195.04,542.04,Single-ply,SBD,M
Boys,124.74,6,Jose Aguero,Sinton,113.94,204.12,127.01,188.24,519.36,Single-ply,SBD,M
Boys,124.74,7,Nicholas Zapata,Bishop,121.65,215.46,124.74,179.17,519.36,Single-ply,SBD,M
Boys,124.74,8,Chase Herrig,Sinton,123.92,192.78,127.01,190.51,510.29,Single-ply,SBD,M
Boys,124.74,9,Cullen Oliver,Victoria East,123.83,188.24,136.08,183.7,508.02,Single-ply,SBD,M
Boys,124.74,10,William Withers,Gregory-Portland,120.47,192.78,120.2,183.7,496.68,Single-ply,SBD,M
Boys,124.74,11,Aaron Aguilera,Bishop,114.49,158.76,102.06,192.78,453.59,Single-ply,SBD,M
Boys,124.74,12,Javier Ceballos,Corpus Christi West Oso,111.22,145.15,102.06,174.63,421.84,Single-ply,SBD,M
Boys,124.74,DQ,Ryan Everett,Corpus Christi Calallen,122.92,,,,,Single-ply,SBD,M
Boys,124.74,DQ,Arturo Romero,Port Lavaca Calhoun,122.65,,,,,Single-ply,SBD,M
Boys,124.74+,1,Bobby Limon,Port Lavaca Calhoun,144.06,254.01,183.7,254.01,691.73,Single-ply,SBD,M
Boys,124.74+,2,Jeremiah Sodia,Victoria West,132.18,276.69,129.27,226.8,632.76,Single-ply,SBD,M
Boys,124.74+,3,Angel Salinas,Orange Grove,137.08,170.1,113.4,206.38,489.88,Single-ply,SBD,M
Boys,124.74+,4,Albert Briones,Beeville Jones,128.91,102.06,70.31,133.81,306.17,Single-ply,SBD,M
Boys,124.74+,DQ,Cameron Ellerbee,Beeville Jones,131.09,,,,,Single-ply,SBD,M
Boys,,NS,Garrett Canchola,Orange Grove,,,,,,Single-ply,SBD,M
