Division,WeightClassKg,Place,Name,Team,BodyweightKg,Best3SquatKg,Best3BenchKg,Best3DeadliftKg,TotalKg,Equipment,Event,Sex
Girls,44.23,1,Camryn Riggins,College Station,43.45,90.72,52.16,106.59,249.48,Single-ply,SBD,F
Girls,47.85,1,Amanda Hubbard,Moody,46.99,97.52,63.5,117.93,278.96,Single-ply,SBD,F
Girls,47.85,2,Hope Spivey,College Station,45.99,99.79,65.77,106.59,272.16,Single-ply,SBD,F
Girls,47.85,3,Arianna Garcia,Belton,47.63,113.4,52.16,99.79,265.35,Single-ply,SBD,F
Girls,47.85,4,Samantha Garcia,Whitney,46.81,90.72,43.09,104.33,238.14,Single-ply,SBD,F
Girls,51.94,1,Jessi Carreon,College Station,48.53,86.18,47.63,90.72,224.53,Single-ply,SBD,F
Girls,51.94,2,Noelia Delgado,Whitney,51.48,90.72,49.9,83.91,224.53,Single-ply,SBD,F
Girls,51.94,3,Elisa Chutes,Waco La Vega,51.26,79.38,34.02,88.45,201.85,Single-ply,SBD,F
Girls,51.94,4,Selene Vargas,Cameron Yoe,50.8,56.7,40.82,97.52,195.04,Single-ply,SBD,F
Girls,51.94,5,Zaria Hardy,Belton,51.71,79.38,,90.72,170.1,Single-ply,SD,F
Girls,51.94,6,Bethany Contreras,Belton,48.99,79.38,,65.77,145.15,Single-ply,SD,F
Girls,51.94,7,Kylie Thompson,Smithville,48.08,,34.02,61.23,95.25,Single-ply,BD,F
Girls,56.02,1,Kalen Wootan,College Station,55.97,136.08,70.31,138.35,344.73,Single-ply,SBD,F
Girls,56.02,2,Shawnee Chavez,College Station,55.97,136.08,70.31,131.54,337.93,Single-ply,SBD,F
Girls,56.02,3,Taylor Jones,Little River Academy,55.16,131.54,65.77,138.35,335.66,Single-ply,SBD,F
Girls,56.02,4,Chassie Fisher,Moody,55.61,127.01,61.23,120.2,308.44,Single-ply,SBD,F
Girls,56.02,5,Gillian Nietsche,Giddings,54.88,113.4,61.23,113.4,288.03,Single-ply,SBD,F
Girls,56.02,6,Devion English,Belton,55.07,95.25,65.77,108.86,269.89,Single-ply,SBD,F
Girls,56.02,7,Maria Martinez,Belton,55.52,117.93,,129.27,247.21,Single-ply,SD,F
Girls,56.02,8,DezJ'nae Hodge,Smithville,54.25,90.72,45.36,86.18,222.26,Single-ply,SBD,F
Girls,56.02,9,Felisity Natal,Belton,55.61,77.11,34.02,83.91,195.04,Single-ply,SBD,F
Girls,56.02,10,Diana Morris,Waco La Vega,53.61,,34.02,61.23,95.25,Single-ply,BD,F
Girls,60.1,1,Dana Young,Belton,58.42,113.4,77.11,129.27,319.78,Single-ply,SBD,F
Girls,60.1,2,Claire Courtemanche,Smithville,59.78,113.4,54.43,108.86,276.69,Single-ply,SBD,F
Girls,60.1,3,Paige Reed,Whitney,56.79,99.79,49.9,104.33,254.01,Single-ply,SBD,F
Girls,60.1,4,Faith Kistler,Cameron Yoe,58.97,88.45,43.09,90.72,222.26,Single-ply,SBD,F
Girls,60.1,5,Zoe Showalter,Giddings,58.24,72.57,36.29,86.18,195.04,Single-ply,SBD,F
Girls,60.1,6,Michaelanne Roach,Belton,60.1,63.5,34.02,65.77,163.29,Single-ply,SBD,F
Girls,67.36,1,Crystal Williams,Little River Academy,66.95,138.35,70.31,147.42,356.07,Single-ply,SBD,F
Girls,67.36,2,Brianna Lavalais,College Station,62.96,131.54,56.7,113.4,301.64,Single-ply,SBD,F
Girls,67.36,3,McKenna Thompson,Belton,61.87,113.4,58.97,120.2,292.57,Single-ply,SBD,F
Girls,67.36,4,Tobie Sherrill,Smithville,60.78,113.4,61.23,113.4,288.03,Single-ply,SBD,F
Girls,67.36,5,Adele Chaffer,Little River Academy,66.32,106.59,61.23,113.4,281.23,Single-ply,SBD,F
Girls,67.36,6,Brianna Temby,Smithville,64.41,74.84,43.09,111.13,229.06,Single-ply,SBD,F
Girls,67.36,7,McKenna Spurlock,Smithville,62.78,83.91,38.56,102.06,224.53,Single-ply,SBD,F
Girls,67.36,8,Jenna Kirk,Giddings,66.04,68.04,29.48,86.18,183.7,Single-ply,SBD,F
Girls,67.36,9,Afrin Momin,College Station,66.59,,61.23,113.4,174.63,Single-ply,BD,F
Girls,67.36,10,Kyndall Carroll,Belton,64.68,83.91,,83.91,167.83,Single-ply,SD,F
Girls,75.07,1,Julia McGinnis,College Station,74.84,158.76,86.18,167.83,412.77,Single-ply,SBD,F
Girls,75.07,2,Maggie Dolan,Belton,75.02,124.74,58.97,136.08,319.78,Single-ply,SBD,F
Girls,75.07,3,Angel Price,Whitney,72.21,102.06,58.97,104.33,265.35,Single-ply,SBD,F
Girls,75.07,4,Hannah Junek,Little River Academy,74.84,102.06,58.97,104.33,265.35,Single-ply,SBD,F
Girls,75.07,5,Deondria Brandyburg,Smithville,72.48,97.52,52.16,108.86,258.55,Single-ply,SBD,F
Girls,75.07,6,Dazia Apland,Whitney,71.4,102.06,47.63,102.06,251.74,Single-ply,SBD,F
Girls,75.07,7,Kayleigh Carson,Smithville,68.95,74.84,49.9,102.06,226.8,Single-ply,SBD,F
Girls,82.33,1,Chesney Kuper,Little River Academy,80.74,120.2,77.11,145.15,342.46,Single-ply,SBD,F
Girls,82.33,2,Morgan Callin,Belton,80.56,108.86,65.77,136.08,310.71,Single-ply,SBD,F
Girls,82.33,3,Izzy Gutierrez #1,Belton,79.56,117.93,63.5,124.74,306.17,Single-ply,SBD,F
Girls,82.33,4,Tytiana Phillips,Waco La Vega,82.28,102.06,47.63,136.08,285.76,Single-ply,SBD,F
Girls,82.33,5,Isis Cruz,Waco La Vega,76.11,97.52,,95.25,192.78,Single-ply,SD,F
Girls,90.04,1,Taylor Strmiska,Little River Academy,89.9,199.58,120.2,181.44,501.22,Single-ply,SBD,F
Girls,90.04,2,Katie Lollar,College Station,83.55,204.12,97.52,158.76,460.4,Single-ply,SBD,F
Girls,90.04,3,Beth Bounds,Moody,89.9,176.9,79.38,165.56,421.84,Single-ply,SBD,F
Girls,90.04,4,Jordan Bush,Little River Academy,85.55,140.61,70.31,136.08,347,Single-ply,SBD,F
Girls,90.04,5,Kailey Hobson,Belton,86.36,129.27,79.38,127.01,335.66,Single-ply,SBD,F
Girls,90.04,6,Keelie Cheek,Belton,87.09,108.86,52.16,108.86,269.89,Single-ply,SBD,F
Girls,90.04,7,Takiya Alexander,Waco La Vega,84.64,92.99,54.43,102.06,249.48,Single-ply,SBD,F
Girls,90.04,8,ShauTavia Crenshaw,Waco La Vega,89.36,97.52,49.9,102.06,249.48,Single-ply,SBD,F
Girls,90.04,9,Betty Hernandez,Belton,88.99,97.52,,104.33,201.85,Single-ply,SD,F
Girls,100.02,1,Alicia Goodridge,Belton,91.44,117.93,61.23,122.47,301.64,Single-ply,SBD,F
Girls,100.02,2,Scout Grimes,College Station,98.97,142.88,79.38,,222.26,Single-ply,SB,F
Girls,100.02,3,Savanna Pease,Smithville,96.98,38.56,36.29,61.23,136.08,Single-ply,SBD,F
Girls,117.71,1,Ellie Hair,College Station,116.48,188.24,102.06,181.44,471.74,Single-ply,SBD,F
Girls,117.71,2,Zaida Soto,Waco La Vega,109.5,142.88,77.11,133.81,353.8,Single-ply,SBD,F
Girls,117.71,3,Kaylee Shilling,Waco La Vega,109.32,142.88,72.57,136.08,351.53,Single-ply,SBD,F
Girls,117.71,4,Kaylee Hausam,Belton,106.68,117.93,61.23,108.86,288.03,Single-ply,SBD,F
Girls,117.71,5,Daejanay Bell,Cameron Yoe,112.04,120.2,58.97,106.59,285.76,Single-ply,SBD,F
Girls,117.71,6,Aiyana Ramos,Smithville,117.3,86.18,47.63,97.52,231.33,Single-ply,SBD,F
Girls,117.71,7,Serenety Yates,Belton,111.31,,79.38,111.13,190.51,Single-ply,BD,F
Girls,117.71+,1,Jasmine Kellar,Giddings,140.52,181.44,102.06,170.1,453.59,Single-ply,SBD,F
Girls,117.71+,2,Ebony Wolridge,Giddings,143.52,147.42,74.84,145.15,367.41,Single-ply,SBD,F
Girls,117.71+,3,Aliyah Allison,Waco La Vega,147.24,102.06,74.84,111.13,288.03,Single-ply,SBD,F
Girls,117.71+,4,Montana George,Belton,139.89,97.52,52.16,120.2,269.89,Single-ply,SBD,F
Girls,117.71+,5,Haley Boydstun,Belton,122.11,74.84,43.09,102.06,219.99,Single-ply,SBD,F
Girls,,NS,Brianna Shilling,Waco La Vega,,,,,,Single-ply,SBD,F
Girls,,NS,Alize Lopez,Waco La Vega,,,,,,Single-ply,SBD,F
Girls,,NS,Shyanne Riojas,Belton,,,,,,Single-ply,SBD,F
Girls,,NS,Merry Francis,Belton,,,,,,Single-ply,SBD,F
Girls,,NS,Kate Kasmiersky,Giddings,,,,,,Single-ply,SBD,F
Girls,,NS,Kaylie Hinnant,Smithville,,,,,,Single-ply,SBD,F
Girls,,NS,Lydia Richardson,Smithville,,,,,,Single-ply,SBD,F
