Division,WeightClassKg,Place,Name,Team,BodyweightKg,Best3SquatKg,Best3BenchKg,Best3DeadliftKg,TotalKg,Equipment,Event,Sex
Boys,51.71,1,Nico Lopez,Belton,51.44,124.74,70.31,147.42,342.46,Single-ply,SBD,M
Boys,51.71,2,Sergio Valenzvela,Belton,51.35,124.74,65.77,122.47,312.98,Single-ply,SBD,M
Boys,51.71,3,Patrick Rodriguez,Waco Midway,51.07,88.45,49.9,97.52,235.87,Single-ply,SBD,M
Boys,55.79,1,Edward Castaneda,Waco Midway,53.61,129.27,70.31,154.22,353.8,Single-ply,SBD,M
Boys,55.79,2,Greg Palmour,Belton,55.61,113.4,81.65,122.47,317.51,Single-ply,SBD,M
Boys,55.79,3,Ricky Guerra,Waco Midway,54.88,108.86,63.5,120.2,292.57,Single-ply,SBD,M
Boys,59.87,4,Sam Vega,Copperas Cove,55.88,92.99,61.23,117.93,272.16,Single-ply,SBD,M
Boys,59.87,1,Rolando Salazar,Belton,59.51,163.29,90.72,192.78,446.79,Single-ply,SBD,M
Boys,59.87,2,Matt Hall,Copperas Cove,59.24,142.88,92.99,176.9,412.77,Single-ply,SBD,M
Boys,59.87,3,Enrique Gonzalez,Belton,59.78,115.67,70.31,140.61,326.59,Single-ply,SBD,M
Boys,59.87,4,Dustin James,Temple,58.06,117.93,65.77,133.81,317.51,Single-ply,SBD,M
Boys,67.13,1,Kevin Atherton,Belton,66.68,204.12,133.81,208.65,546.58,Single-ply,SBD,M
Boys,67.13,2,Bobby Liles,Waco Midway,66.95,174.63,92.99,176.9,444.52,Single-ply,SBD,M
Boys,74.84,3,Shamel Baskerville,Copperas Cove,67.31,163.29,72.57,174.63,410.5,Single-ply,SBD,M
Boys,67.13,4,Robert Martinez,Belton,64.32,136.08,74.84,181.44,392.36,Single-ply,SBD,M
Boys,67.13,5,Tyson Eno,Belton,62.69,136.08,95.25,147.42,378.75,Single-ply,SBD,M
Boys,67.13,6,William Degraff,Waco Midway,66.13,136.08,83.91,158.76,378.75,Single-ply,SBD,M
Boys,67.13,7,Colton Nixon,Waco Midway,66.59,140.61,90.72,142.88,374.21,Single-ply,SBD,M
Boys,67.13,8,Case D'Herde,Waco Midway,66.68,124.74,83.91,161.03,369.68,Single-ply,SBD,M
Boys,67.13,9,Karim Sarhani,Copperas Cove,66.32,106.59,79.38,102.06,288.03,Single-ply,SBD,M
Boys,67.13,10,Julian Vanryan,Copperas Cove,66.13,90.72,61.23,104.33,256.28,Single-ply,SBD,M
Boys,67.13,DQ,Jordan Lucas,Copperas Cove,63.78,124.74,90.72,,,Single-ply,SBD,M
Boys,74.84,1,Tywon Thomas,Belton,74.48,183.7,115.67,215.46,514.83,Single-ply,SBD,M
Boys,74.84,2,Myrlon Edwards,Waco Midway,74.12,219.99,106.59,185.97,512.56,Single-ply,SBD,M
Boys,74.84,3,Edwardo Rodriguez,Temple,72.85,185.97,122.47,190.51,498.95,Single-ply,SBD,M
Boys,74.84,4,Zach Hill,Waco Midway,74.21,174.63,113.4,210.92,498.95,Single-ply,SBD,M
Boys,74.84,5,Dennis Gibson,Waco,70.4,185.97,120.2,163.29,469.47,Single-ply,SBD,M
Boys,74.84,6,Bentley Allen,Waco,72.85,165.56,113.4,190.51,469.47,Single-ply,SBD,M
Boys,74.84,7,Stephen St John,Belton,73.3,170.1,90.72,185.97,446.79,Single-ply,SBD,M
Boys,74.84,8,Keegan Barber,Temple,68.95,170.1,97.52,174.63,442.25,Single-ply,SBD,M
Boys,74.84,9,William Skoch,Copperas Cove,74.66,142.88,97.52,167.83,408.23,Single-ply,SBD,M
Boys,82.1,9,Richard Campbell,Copperas Cove,75.02,81.65,54.43,133.81,269.89,Single-ply,SBD,M
Boys,74.84,10,Dalton Randolph,Temple,68.49,117.93,79.38,172.37,369.68,Single-ply,SBD,M
Boys,74.84,11,Kyle Morgan,Copperas Cove,72.03,131.54,72.57,142.88,347,Single-ply,SBD,M
Boys,74.84,12,Jared Russell,Copperas Cove,72.67,106.59,61.23,147.42,315.25,Single-ply,SBD,M
Boys,74.84,13,Joseph Spurill,Copperas Cove,67.4,95.25,70.31,145.15,310.71,Single-ply,SBD,M
Boys,74.84,DQ,Noah Barrows,Copperas Cove,70.85,102.06,,158.76,,Single-ply,SBD,M
Boys,74.84,DQ,Colby Guillory,Copperas Cove,70.22,113.4,68.04,,,Single-ply,SBD,M
Boys,82.1,DQ,Jonne Warnstaff,Waco Midway,82.1,,,,,Single-ply,SBD,M
Boys,82.1,2,Tommy Sharp,Waco Midway,80.92,192.78,124.74,229.06,546.58,Single-ply,SBD,M
Boys,82.1,3,Matt Wells,Temple,81.65,195.04,129.27,210.92,535.24,Single-ply,SBD,M
Boys,82.1,4,Trey Reagan,Waco Midway,79.29,181.44,113.4,185.97,480.81,Single-ply,SBD,M
Boys,82.1,5,Devin Patterson,Belton,80.83,163.29,108.86,208.65,480.81,Single-ply,SBD,M
Boys,82.1,6,Chase Woods,Copperas Cove,81.83,170.1,113.4,170.1,453.59,Single-ply,SBD,M
Boys,82.1,7,Brodrick James,Belton,82.01,176.9,88.45,185.97,451.32,Single-ply,SBD,M
Boys,82.1,8,Robin Riley #2,Copperas Cove,80.56,142.88,70.31,167.83,381.02,Single-ply,SBD,M
Boys,89.81,1,Jeridal Alvarez,Temple,88.81,229.06,138.35,231.33,598.74,Single-ply,SBD,M
Boys,89.81,2,Alex Johnson #8,Copperas Cove,86.09,238.14,120.2,219.99,578.33,Single-ply,SBD,M
Boys,89.81,3,Patrick Rieves,Temple,88.9,204.12,133.81,206.38,544.31,Single-ply,SBD,M
Boys,89.81,4,Tayler Lackey,Temple,86.64,208.65,133.81,192.78,535.24,Single-ply,SBD,M
Boys,89.81,5,Frankie Irate,Belton,87.18,208.65,115.67,208.65,532.97,Single-ply,SBD,M
Boys,89.81,6,Cody Stidham,Waco Midway,89.63,190.51,111.13,219.99,521.63,Single-ply,SBD,M
Boys,89.81,7,Ryan Stinson,Belton,87.09,185.97,113.4,195.04,494.42,Single-ply,SBD,M
Boys,89.81,8,Jared Barber,Belton,89.54,158.76,115.67,195.04,469.47,Single-ply,SBD,M
Boys,89.81,9,Evan Walker,Temple,85.28,181.44,102.06,181.44,464.93,Single-ply,SBD,M
Boys,89.81,DQ,Eric Snell,Waco Midway,87.54,206.38,115.67,,,Single-ply,SBD,M
Boys,99.79,1,Eric Raysor,Copperas Cove,94.71,215.46,113.4,229.06,557.92,Single-ply,SBD,M
Boys,99.79,2,Charleston Lewis,Belton,96.8,185.97,136.08,235.87,557.92,Single-ply,SBD,M
Boys,99.79,3,Brandon Harding,Belton,99.06,185.97,138.35,215.46,539.77,Single-ply,SBD,M
Boys,99.79,4,Greg Garrett,Waco Midway,95.25,215.46,136.08,185.97,537.51,Single-ply,SBD,M
Boys,99.79,5,Aberto Lopez,Temple,95.71,188.24,113.4,204.12,505.76,Single-ply,SBD,M
Boys,109.77,6,Sean Shannon,Waco Midway,99.97,161.03,138.35,185.97,485.34,Single-ply,SBD,M
Boys,99.79,7,Quinton Manor,Belton,94.26,190.51,111.13,181.44,483.08,Single-ply,SBD,M
Boys,99.79,8,Brandon Retiford,Waco,95.25,170.1,95.25,185.97,451.32,Single-ply,SBD,M
Boys,99.79,9,Stefan White,Waco,92.44,176.9,97.52,167.83,442.25,Single-ply,SBD,M
Boys,99.79,10,Caleb Miles,Copperas Cove,97.7,145.15,99.79,167.83,412.77,Single-ply,SBD,M
Boys,99.79,DQ,Nathan Henget,Waco Midway,93.53,197.31,122.47,,,Single-ply,SBD,M
Boys,109.77,1,Ricky Alvarez,Belton,107.77,226.8,158.76,204.12,589.67,Single-ply,SBD,M
Boys,109.77,2,Joseph Stephens,Waco,105.01,217.72,136.08,197.31,551.11,Single-ply,SBD,M
Boys,109.77,3,Treveill Harden,Waco Midway,105.87,222.26,136.08,181.44,539.77,Single-ply,SBD,M
Boys,109.77,4,Marquise Johnson,Waco Midway,105.05,185.97,129.27,185.97,501.22,Single-ply,SBD,M
Boys,109.77,5,Zach McCart,Belton,104.51,181.44,117.93,195.04,494.42,Single-ply,SBD,M
Boys,109.77,6,Byron Reliford,Waco,108.95,201.85,104.33,185.97,492.15,Single-ply,SBD,M
Boys,124.74,1,Quincey Sims,Waco,119.39,229.06,131.54,265.35,625.96,Single-ply,SBD,M
Boys,124.74,2,Stephen Honeywood,Belton,117.93,244.94,147.42,231.33,623.69,Single-ply,SBD,M
Boys,124.74,3,Christian Barry,Waco Midway,111.67,240.4,149.69,219.99,610.08,Single-ply,SBD,M
Boys,124.74,4,David Lewis,Waco Midway,115.21,240.4,133.81,190.51,564.72,Single-ply,SBD,M
Boys,124.74,5,Troy Healey,Temple,120.2,222.26,136.08,195.04,553.38,Single-ply,SBD,M
Boys,124.74,6,Less Sakaria,Copperas Cove,117.75,215.46,104.33,217.72,537.51,Single-ply,SBD,M
Boys,124.74,7,Andrew Billings,Waco,118.39,192.78,131.54,204.12,528.44,Single-ply,SBD,M
Boys,124.74,8,Lincoln Marshall,Copperas Cove,113.04,145.15,74.84,158.76,378.75,Single-ply,SBD,M
Boys,124.74,9,Nick McGee,Copperas Cove,112.58,106.59,68.04,136.08,310.71,Single-ply,SBD,M
Boys,124.74+,1,Landon Boffman,Waco,158.76,256.28,142.88,226.8,625.96,Single-ply,SBD,M
Boys,124.74+,2,Daniel Alvarez,Waco Midway,173.27,238.14,147.42,226.8,612.35,Single-ply,SBD,M
Boys,124.74+,3,Zack Villanueva,Belton,173.36,195.04,111.13,174.63,480.81,Single-ply,SBD,M
Boys,124.74+,4,Karl Sakaria,Copperas Cove,144.7,170.1,88.45,172.37,430.91,Single-ply,SBD,M
