Sex,WeightClassKg,Division,Name,BirthYear,BodyweightKg,Deadlift1Kg,Deadlift2Kg,Deadlift3Kg,Best3DeadliftKg,TotalKg,Place,Event,Equipment
M,74,Open,Davide Massimo Agostini,1994,73.14,170,180,187.5,187.5,187.5,25,D,Raw
M,83,Master I,Rudy Agus,1974,82.5,285,297.5,-302.5,297.5,297.5,1,D,Single-ply
M,105,Junior,Andrea Alborghetti,1996,101.95,235,250,260,260,260,3,D,Raw
M,74,Open,Raffaele Alfiero,1991,72.98,215,230,245,245,245,4,D,Raw
M,74,Open,Andrea Allegrucci,1992,73.01,185,200,212.5,212.5,212.5,16,D,Raw
M,83,Junior,Filippo Almi,1998,80.1,-190,190,-195,190,190,15,D,Raw
M,93,Junior,Steven Amariles,1996,92.74,-215,225,-240,225,225,6,D,Raw
M,74,Open,Sergio Andreani,1983,70.55,130,-140,140,140,140,31,D,Raw
M,74,Open,Jonathan Andreatta,1992,68.76,235,240,-245,240,240,2,D,Single-ply
M,120,Open,Federico Andreon,1994,109.15,255,272.5,-285,272.5,272.5,3,D,Raw
M,93,Junior,Andrea Angella,1995,90.25,245,270,-290.5,270,270,1,D,Raw
F,57,Open,Simona Antonazzo,1994,54.61,75,85,-90,85,85,8,D,Raw
M,120,Open,Riccardo Arestia,1985,105.25,325,340,353,353,353,1,D,Single-ply
F,72,Sub-Junior,Erika Arosio,2000,65.89,130,140,145,145,145,1,D,Single-ply
M,83,Open,Filippo Avarelli,1990,78.88,180,-190,-190,180,180,24,D,Raw
M,93,Open,Gabriele Baccaglini,1983,91.43,315,330,-342,330,330,2,D,Single-ply
M,93,Open,Valentino Baccaglini,1988,88.22,215,230,-245,230,230,14,D,Raw
M,66,Open,Paolo Baccifava,1988,64.59,167.5,170,175,175,175,11,D,Raw
F,47,Master I,Monica Baffigi,1978,46.1,80,85,90,90,90,2,D,Raw
M,59,Open,Marco Baglio,1987,58.02,220,225,-227.5,225,225,1,D,Raw
M,74,Open,Alessandro Baldini,1991,73.23,165,-177.5,190,190,190,24,D,Raw
M,83,Open,Mirco Balzan,1986,75.74,-240,245,-262.5,245,245,3,D,Single-ply
F,63,Open,Sara Baragatti,1990,61.47,152.5,157.5,-166,157.5,157.5,3,D,Raw
F,84,Open,Valentina Barbieri,1989,81.01,215,220,225,225,225,1,D,Single-ply
F,84,Open,Valentina Barbieri,1989,81.06,190,195,-200,195,195,1,D,Raw
M,93,Open,Davide Bartolone,1991,92.46,240,255,-270,255,255,8,D,Raw
F,84+,Open,Maria Bartolucci,1989,90.17,-130,130,-137.5,130,130,2,D,Raw
M,66,Master II,Ezio Basano,1959,62.11,132.5,140,-150,140,140,1,D,Raw
M,83,Master II,Marco Bastianelli,1968,82.81,180,-185,-185,180,180,1,D,Raw
M,105,Master II,Giuseppe Battisti,1964,103.42,280,-300.5,-300.5,280,280,1,D,Single-ply
F,57,Open,Sara Baxhak,1991,55.43,110,117.5,120,120,120,7,D,Single-ply
M,93,Open,Alessio Bazzoli,1991,87.31,-235,-235,-235,,,DQ,D,Single-ply
M,93,Open,Bruno Benassi,1991,89.23,200,212.5,-220,212.5,212.5,19,D,Raw
F,63,Junior,Kristina Berdufi,1997,59.01,145,-155.5,-155.5,145,145,1,D,Raw
F,57,Junior,Sonia Berengan,1995,54.31,100,110,120,120,120,4,D,Raw
M,74,Open,Damiano Bernabei,1988,73.1,220,230,-235,230,230,8,D,Raw
F,52,Open,Maruska Bertoli,1979,51.48,-162.5,-162.5,-162.5,,,DQ,D,Raw
M,105,Open,Davide Bettiol,1986,102.19,290,305,-313,305,305,1,D,Raw
M,120,Junior,Giacomo Bifaro,1998,109.01,227.5,237.5,-250,237.5,237.5,3,D,Raw
M,66,Open,Giacomo Bindi,1987,65.39,140,150,165,165,165,12,D,Raw
M,93,Open,Marco Bissolati,1994,87.89,200,210,-212.5,210,210,20,D,Raw
M,93,Master I,Floriano Bitturini,1977,89.86,200,210,220,220,220,2,D,Raw
M,93,Junior,Luca Bonasorte,1999,87.33,-180,192.5,200,200,200,10,D,Raw
M,74,Open,Andrea Bonazza,1994,72.15,210,220,-230,220,220,11,D,Raw
F,57,Open,Anastasiya Bondarenko,1983,57,-110,115,125,125,125,3,D,Raw
M,83,Open,Francesco Bonelli,1991,82.4,230,-242.5,-247.5,230,230,6,D,Single-ply
F,72,Open,Demetra Bonini,1994,64.67,100,112.5,-120,112.5,112.5,8,D,Raw
F,47,Master I,Elena Borgatti,1969,45.76,115,121,125,125,125,1,D,Raw
F,72,Open,Marta Boschetti,1993,66.13,100,107.5,-115,107.5,107.5,5,D,Single-ply
M,66,Sub-Junior,Simone Boselli,2000,63.57,167.5,-175,-180.5,167.5,167.5,1,D,Single-ply
M,66,Open,Lorenzo Botteghelli,1994,65.76,190,-200,-200,190,190,8,D,Raw
M,105,Open,Francesco Bovina,1992,103.75,-250,250,270,270,270,2,D,Single-ply
M,83,Open,Matteo Bozza,1993,81.89,230,245,-267.5,245,245,5,D,Single-ply
F,57,Open,Maria Giovanna Brancati,1989,55.84,-95,95,105,105,105,7,D,Raw
M,93,Open,Nicola Luigi Branco,1988,91.48,210,222.5,232.5,232.5,232.5,16,D,Single-ply
M,120,Master I,Luigi Brivio,1976,113.41,240,255,265,265,265,1,D,Single-ply
F,57,Master I,Floriana Brozzetti,1973,56.07,110,115,120,120,120,2,D,Single-ply
M,74,Open,Federico Brunelli,1994,68.63,170,185,192.5,192.5,192.5,23,D,Raw
M,105,Open,Amerigo Brunetti,1988,99.13,255,265,275,275,275,4,D,Raw
M,120,Open,Stefano Bruno,1992,117.34,-280,-290,-290,,,DQ,D,Raw
M,83,Open,Andrea Buccoliero,1993,81.33,155,-165,-165,155,155,26,D,Raw
F,63,Open,Chiara Burchi,1981,62.13,132.5,142.5,150,150,150,3,D,Single-ply
F,63,Open,Cinzia Busato,1979,60.72,140,150,155,155,155,5,D,Raw
F,47,Open,Lisa Busellato,1983,46.28,115,-121.5,-123,115,115,2,D,Raw
M,83,Sub-Junior,Arturo Busetto,2000,76.76,200,212.5,-220,212.5,212.5,1,D,Raw
M,83,Junior,Gerardo Cafaro,1995,81.85,-185,192.5,202.5,202.5,202.5,9,D,Raw
M,93,Open,Carlo Calabrese,1993,90.19,280,-300.5,301.5,301.5,301.5,2,D,Raw
M,66,Sub-Junior,Mirko Calzetta,2000,61.11,-115,-120,120,120,120,2,D,Raw
M,105,Open,Stefano Campani,1989,96.1,185,197.5,-210,197.5,197.5,23,D,Raw
M,105,Open,Alessandro Camparsi,1988,104.76,222.5,235,-242.5,235,235,15,D,Raw
M,66,Junior,Francesco Camporeale,1995,65.77,185,-197.5,-197.5,185,185,8,D,Raw
F,52,Open,Monica Canelli,1993,49.55,105,115,120,120,120,1,D,Single-ply
M,105,Open,Nicolas Cannas,1994,100.43,260,270,280,280,280,3,D,Raw
M,66,Open,Stefano Cantalini,1988,63.49,160,170,180,180,180,10,D,Raw
M,93,Open,Pietro Carabelli,1994,90.91,220,227.5,235,235,235,15,D,Single-ply
M,83,Open,Filippo Cardinetti,1980,82.2,255,265,270,270,270,2,D,Single-ply
M,83,Junior,David Carer,1997,82.69,232.5,242.5,-250,242.5,242.5,3,D,Raw
M,93,Open,Gianluca Carletti,1986,83.98,185,195,-205,195,195,26,D,Raw
M,83,Junior,Simone Carotenuto,1995,80.37,-195,200,207.5,207.5,207.5,8,D,Raw
M,93,Junior,Simone Carpinelli,1997,89.94,-180,185,195,195,195,11,D,Raw
M,74,Open,Nico Carrara,1992,72.22,225,232.5,-237.5,232.5,232.5,5,D,Raw
M,66,Junior,Andrea Caruso,1995,65.63,-197.5,197.5,210,210,210,6,D,Raw
F,63,Sub-Junior,Federica Casagranda,2000,58.91,100,110,-120,110,110,3,D,Raw
M,93,Open,Simone Casarotti,1988,88.63,272.5,-282.5,-282.5,272.5,272.5,8,D,Single-ply
M,74,Open,Alex Caselli,1993,71.81,210,-220,-220,210,210,17,D,Raw
M,105,Open,Andrea Cassani,1987,96.37,300,312.5,-322,312.5,312.5,1,D,Single-ply
F,63,Open,Pierina Maria Castagnetti,1985,60.73,107.5,112.5,-117.5,112.5,112.5,14,D,Raw
M,93,Open,Andrea Castaldo,1987,88.46,190,200,-210,200,200,25,D,Raw
M,66,Junior,Andrea Castello,1995,64.63,221,230,235.5,235.5,235.5,1,D,Raw
F,72,Open,Valentina Catalano,1992,66.68,140,150,-155,150,150,3,D,Single-ply
F,72,Open,Valentina Catalano,1992,66,125,132.5,140,140,140,3,D,Raw
M,93,Open,Jacopo Cavanna,1994,89.62,210,220,-230,220,220,17,D,Raw
M,74,Open,Riccardo Cavazzoni,1993,71.6,200,-210,-210,200,200,21,D,Raw
M,93,Junior,Emanuele Cazzaniga,1995,90.94,235,242.5,245,245,245,4,D,Raw
F,47,Junior,Sara Celiberto,1996,46.05,100,105,-115,105,105,1,D,Raw
M,74,Open,Antimo Cembalo,1989,73.59,230,247.5,260.5,260.5,260.5,1,D,Raw
M,93,Open,Stefano Cerruti,1982,85.72,215,-230,242.5,242.5,242.5,13,D,Single-ply
M,120+,Open,Michele Chiapperino,1982,131.24,180,200,210,210,210,6,D,Raw
F,57,Open,Barbara Cicchinè,1987,56.22,115,122.5,125,125,125,2,D,Raw
F,57,Junior,Manuela Cinquatti,1995,53.99,-140,140,150,150,150,1,D,Single-ply
F,63,Sub-Junior,Drusilla Coan,2001,61.67,125,135,-150.5,135,135,2,D,Raw
F,72,Open,Maria Coda,1991,68.39,90,100,-107.5,100,100,10,D,Raw
M,83,Open,Romeo Cojocaru,1982,80.77,210,222.5,-227.5,222.5,222.5,11,D,Raw
M,83,Junior,Matteo Colafrancesco,1996,79.94,175,195,-205,195,195,10,D,Raw
M,83,Open,Andrea Colarusso,1988,79.54,195,207.5,220,220,220,12,D,Raw
M,74,Junior,Riccardo Compagni,1995,70.04,180,192.5,200,200,200,8,D,Raw
M,74,Master III,Noriano Coppari,1951,73.86,180,-190,,180,180,1,D,Single-ply
M,93,Junior,Gianmarco Corrà,1995,91.64,240,255,265,265,265,2,D,Raw
M,66,Master III,Lorenzo Costa,1954,62.12,172.5,180,-182.5,180,180,1,D,Single-ply
M,66,Master I,Stefano Costalunga,1974,63.88,180,-190,-195,180,180,1,D,Raw
M,120,Open,Federico Costantini,1994,112,220,235,-245,235,235,6,D,Raw
M,66,Open,Fabio Costantino,1994,64.84,200,-207.5,-210,200,200,4,D,Single-ply
M,83,Junior,Emilio Cotti Cometti,1995,81.51,250,260,265,265,265,1,D,Raw
M,120,Open,Mattia Cravedi,1994,113.69,242.5,255,-275,255,255,4,D,Raw
M,59,Junior,Edoardo Crippa,1999,57.85,155,-165,170,170,170,2,D,Raw
M,120,Open,Luca Crippa,1991,106.42,225,-240,-240,225,225,7,D,Raw
F,72,Open,Giulia Crispino,1986,70.58,112.5,117.5,120,120,120,7,D,Raw
M,74,Open,Alessandro Cuttini,1991,66.91,195,202.5,-210,202.5,202.5,8,D,Single-ply
M,83,Open,Filippo D'Albero,1990,81.26,225,-240,240,240,240,6,D,Raw
F,63,Junior,Gilda D'Alessio,1995,62.47,90,-100,-100,90,90,5,D,Raw
M,105,Master I,Nicola D'Ambrosio,1977,97.27,-235,240,-250,240,240,5,D,Raw
F,72,Open,Annunziata D'Angelo,1993,69.47,95,110,-117.5,110,110,9,D,Raw
M,93,Open,Gianluca D'Antonio,1991,91.66,220,235,250,250,250,9,D,Raw
F,47,Master I,Francesca De Benedictis,1977,46.28,-60,-60,70,70,70,3,D,Raw
M,83,Master III,Carlo DeCarli,1957,81.58,210.5,-220,220,220,220,1,D,Single-ply
M,74,Junior,Emanuele De Gasperis,1996,71.11,165,180,-195,180,180,11,D,Raw
M,93,Open,Domenico De Girolamo,1989,92.95,265,-275,-275,265,265,4,D,Raw
M,83,Junior,Fulvio De Marchi,1996,77.89,-175,175,-190,175,175,17,D,Raw
F,63,Open,Chiara De Marco,1986,60.15,-150,152.5,-157.5,152.5,152.5,6,D,Raw
M,105,Open,Michele De Mario,1987,99.85,225,-235,-235,225,225,19,D,Raw
F,84+,Open,Antonella De Mattia,1981,94.2,135,145,157.5,157.5,157.5,1,D,Raw
M,66,Junior,Stefano De Michelis,1999,65.61,200,210,-222.5,210,210,5,D,Raw
M,93,Master I,Michele Degiampietro,1969,88.83,215,235,250,250,250,2,D,Single-ply
M,74,Open,Luca Del Conte,1993,67.14,-210,-210,-210,,,DQ,D,Single-ply
F,63,Open,Ilaria Del Rio,1992,59.71,150,155,-160,155,155,4,D,Raw
M,74,Open,Jacopo Delizia,1989,73.39,-180,195,205,205,205,20,D,Raw
F,72,Junior,Valentina Dell'Aversana,1995,66.5,170,177.5,-185,177.5,177.5,1,D,Raw
M,93,Open,Daniele Della Rasa,1992,86.52,222.5,-235,-237.5,222.5,222.5,15,D,Raw
M,105,Open,Matteo Della Santa,1990,94.37,205,222.5,240,240,240,14,D,Raw
M,105,Open,Andrea Della Tomasa,1994,103.32,230,250,265,265,265,9,D,Raw
M,83,Open,Paride Detti,1985,78.31,-170,177.5,187.5,187.5,187.5,22,D,Raw
F,72,Open,Claudia Devall,1993,67.73,115,120,122.5,122.5,122.5,6,D,Raw
M,93,Open,Emanuele Di Bari,1989,85.23,190,-200,200,200,200,19,D,Single-ply
M,83,Open,Alessandro Di Chirico,1993,78.76,195,207.5,-215,207.5,207.5,16,D,Raw
M,120+,Open,Mattia Di Martino,1988,129.29,280,300,-328.5,300,300,1,D,Single-ply
M,93,Open,Alfredo Di Monte,1983,89.73,210,-217.5,222.5,222.5,222.5,18,D,Single-ply
M,120+,Open,Andrea DiPalma,1988,133.68,260,275,-285,275,275,2,D,Single-ply
M,120+,Open,Andrea DiPalma,1988,123.3,250,265,-272.5,265,265,3,D,Raw
M,105,Open,Costantino DiPaolonicola,1993,95.13,210,222.5,232.5,232.5,232.5,16,D,Raw
F,57,Open,Chiara Di Trani,1987,54.08,170,175,-180,175,175,1,D,Single-ply
F,72,Open,Caterina Dini,1987,69.66,115,125,-135,125,125,5,D,Raw
M,93,Open,Gianfranco Donateo,1993,91.15,225,-235,240,240,240,12,D,Raw
M,66,Junior,Andrea Drusin,1996,65.6,200.5,215,-222.5,215,215,3,D,Raw
F,72,Master I,Manuela Dursi,1977,70.94,140,145,150,150,150,1,D,Raw
M,83,Sub-Junior,Omar Fabris,2000,78.16,155,162.5,170,170,170,4,D,Raw
M,105,Open,Alberto Famiano,1986,94.3,212.5,217.5,-222.5,217.5,217.5,20,D,Raw
M,83,Junior,Simone Fasoli,1999,74.18,-180,180,190,190,190,11,D,Raw
M,93,Open,Umberto Fava,1992,89.39,240,252.5,265,265,265,3,D,Raw
M,74,Open,Michele Feltre,1992,72.88,225,235,-242.5,235,235,4,D,Single-ply
M,83,Open,Alessio Ferrante Corsini,1993,80.9,212.5,-222.5,-222.5,212.5,212.5,15,D,Raw
M,74,Open,Fabio Ferrarese,1992,71.09,155,165,175,175,175,27,D,Raw
M,83,Open,Federico Ferrari,1984,81.08,175,-185,185,185,185,23,D,Raw
F,52,Junior,Martina Ferrari,1997,51.71,97.5,105,112.5,112.5,112.5,2,D,Raw
M,83,Junior,Carlo Ferraris,1998,82,190,200,210,210,210,7,D,Raw
M,66,Open,Vongnoi Nitiphong Ferrero,1990,64.92,210,-225,225,225,225,2,D,Single-ply
M,93,Junior,Mattia Ferro,1997,90.89,190,200,210,210,210,9,D,Raw
M,74,Open,Manuel Filios,1999,70.38,140,150,160,160,160,29,D,Raw
M,59,Open,Giosuè Filippini,1996,58.09,-185,-195.5,-196,,,DQ,D,Raw
M,74,Sub-Junior,Lorenzo Finesso,2000,71.37,-190,-190,-190,,,DQ,D,Raw
F,63,Master I,Giada Flamini,1977,62.95,120,-130,130,130,130,2,D,Single-ply
M,93,Open,Riccardo Focchiatti,1988,86.14,200,212.5,220,220,220,16,D,Raw
M,83,Master IV,Giorgio Fontana,1942,75.99,180,195,200,200,200,1,D,Raw
M,105,Open,Davide Fornasari,1990,93.51,220,230,250,250,250,12,D,Raw
M,74,Open,Claudio Forti,1983,73.01,235,247.5,-260.5,247.5,247.5,3,D,Raw
M,120,Open,Federico Frasca,1990,108.65,240,-250,-250,240,240,5,D,Raw
M,59,Open,Carmelo Fratacci,1989,56.34,142.5,152.5,162.5,162.5,162.5,2,D,Single-ply
M,74,Open,Dario Frighieri,1985,67.31,155,170,-180,170,170,9,D,Single-ply
M,93,Master I,Fabiano Fulvi,1969,89.49,230,260,270,270,270,1,D,Single-ply
M,83,Junior,Marco Gabrielli,1996,78.34,170,190,-200,190,190,13,D,Raw
M,93,Open,Stefano Gaeta,1991,90.62,200,-215,215,215,215,18,D,Raw
M,120,Junior,Gianluca Galletto,1995,115.08,280,295.5,-310,295.5,295.5,1,D,Raw
M,83,Master I,Fabio Galli,1978,80.78,180,190,-200,190,190,3,D,Single-ply
M,74,Open,Daniele Gallina,1987,73.24,245,-257.5,-257.5,245,245,1,D,Single-ply
F,72,Open,Lorena Gambaretto,1985,71.11,150,157.5,165,165,165,2,D,Raw
M,93,Open,Gabriele Gangarossa,1980,89.32,255,-265,-265,255,255,12,D,Single-ply
M,66,Open,Michele Gangemi,1994,64.69,190,200,205,205,205,4,D,Raw
M,93,Open,Federico Gasparini,1992,89.22,250,-262.5,267.5,267.5,267.5,10,D,Single-ply
M,105,Junior,Antonio Pio Gervasi,1996,102.39,280,-300,-300.5,280,280,1,D,Single-ply
M,105,Junior,Antonio Pio Gervasi,1996,102.47,-270,-285,-285,,,DQ,D,Raw
F,52,Junior,Lidia Ghelli,1995,51.33,100,107.5,-112.5,107.5,107.5,3,D,Raw
M,93,Junior,Stefano Giacca,1995,86.83,-220,-220,-220,,,DQ,D,Single-ply
M,83,Junior,Francesco Giacomelli,1995,82.2,230,245,-260,245,245,1,D,Single-ply
F,57,Open,Giulia Giacone,1992,55.03,120,-127.5,-130,120,120,6,D,Single-ply
F,63,Open,Giada Giambi,1994,59.03,85,95,-100,95,95,16,D,Raw
M,74,Junior,Gabriele Giannelli,1996,73.58,220,230,-235,230,230,2,D,Raw
M,93,Junior,Francesco Ginesi,1997,87.39,230,245,-250,245,245,3,D,Raw
F,52,Master II,Marzia Girardi,1963,47.87,130,135,137.5,137.5,137.5,1,D,Raw
M,93,Open,Alessandro Girelli,1982,88.18,207.5,-220,-220,207.5,207.5,22,D,Raw
M,93,Open,Andrea Giuliani,1990,89.57,225,242.5,-255,242.5,242.5,10,D,Raw
M,59,Master III,Franco Giummarra,1950,57.59,140,150,155,155,155,1,D,Raw
F,84,Open,Silvia Gobbi,1992,76.83,142.5,150,155,155,155,2,D,Raw
M,83,Junior,Antonio Gorga,1995,81.03,250,260,-273.5,260,260,2,D,Raw
M,59,Open,Dario Gozzi,1994,57.48,190,195,200,200,200,2,D,Raw
M,93,Open,Gionata Grassi,1984,90.88,265,280,-295,280,280,6,D,Single-ply
M,83,Open,Alessio Greco,1985,80.22,185,195,-202.5,195,195,21,D,Raw
M,93,Open,Luca Grombone,1991,91.09,-190,200,210,210,210,21,D,Raw
M,74,Open,Riccardo Grotteria,1992,71.54,205,212.5,225,225,225,9,D,Raw
F,72,Open,Michela Gubernati,1981,68.24,170,172.5,-182.5,172.5,172.5,1,D,Single-ply
M,74,Open,Michele Guerra,1984,69.09,207.5,215,-230,215,215,15,D,Raw
M,66,Open,Andrea Guerreschi,1988,63.44,215,-222.5,-222.5,215,215,3,D,Raw
F,63,Open,Stefanie Hernandez,1994,60.44,90,102.5,112.5,112.5,112.5,13,D,Raw
M,74,Open,Mario Iannace,1996,72.24,150,160,-170,160,160,30,D,Raw
M,105,Open,Gaspare Impeduglia,1988,97.07,245,257.5,-265,257.5,257.5,10,D,Raw
F,63,Open,Francesca Kanzian,1994,61.51,130,137.5,-145,137.5,137.5,8,D,Raw
M,74,Junior,Tommaso Lambardi,1998,73.61,-190,200,-210,200,200,9,D,Raw
M,93,Open,Federico Lammoglia,1988,86.96,195,-200,-200,195,195,27,D,Raw
M,74,Open,Antonio Lattanzi,1986,71.45,-210,-210,-210,,,DQ,D,Raw
M,83,Open,Andrea Laurino,1994,81.46,-212.5,227.5,240,240,240,7,D,Raw
F,57,Open,Alessia Leugio,1990,55.16,150,160,165,165,165,1,D,Raw
M,120,Open,Gianluca Lise,1989,107.69,255,270,-287.5,270,270,3,D,Single-ply
M,93,Open,Antonio Litta,1991,87.84,-240,-240,-240,,,DQ,D,Raw
M,120,Open,Alessandro Lo Grieco,1986,108.36,280,295,-297.5,295,295,1,D,Raw
M,120+,Open,Nicola Lorusso,1992,136.41,290,305,-315,305,305,1,D,Raw
F,63,Sub-Junior,Aurora Longhi,2002,58.85,60,65,70,70,70,4,D,Raw
M,120,Junior,Raffaele Lotito,1995,118.29,291,-297.5,-297.5,291,291,2,D,Raw
M,105,Junior,Davide Lovison,1995,102.65,275,295,-305.5,295,295,1,D,Raw
M,83,Open,Pietro Lucera,1993,81.68,200,220,240,240,240,8,D,Raw
M,83,Open,George Lupas,1993,81.07,270,-280,287.5,287.5,287.5,2,D,Raw
M,105,Open,Matteo Lupinetti,1998,99.01,165,180,-195,180,180,24,D,Raw
M,83,Junior,Leonardo Maestrelli,1995,82.46,165,175,190,190,190,16,D,Raw
M,83,Open,Salvatore Magra,1987,82.11,-190,190,205,205,205,18,D,Raw
M,66,Junior,Andrea Maiolino,1998,65.16,190,200,-210,200,200,7,D,Raw
M,66,Open,Andrea Malorgio,1987,62.35,160,-175,-175,160,160,13,D,Raw
M,93,Open,Alessio Mancini,1988,91.99,240,260,265,265,265,11,D,Single-ply
M,93,Master II,Luca Mancini,1963,92.51,200,217.5,230,230,230,1,D,Raw
F,57,Open,Sabrina Mancini,1994,56.23,152.5,160,165,165,165,2,D,Single-ply
F,57,Junior,Anna Manenti,1995,56.95,138,146,150.5,150.5,150.5,1,D,Raw
M,105,Master I,Ruben Manenti,1976,97.39,275,290,300,300,300,1,D,Raw
M,93,Open,Stefano Mantovanelli,1988,85.05,190,202.5,-215,202.5,202.5,24,D,Raw
F,57,Open,Nunzia Manzari,1984,55.67,150,-160,-160,150,150,5,D,Single-ply
F,84+,Master I,Tamara Marabini,1978,114.28,140,150,160.5,160.5,160.5,2,D,Raw
M,105,Junior,Vincenzo Andrea Marchese,1997,98.52,190,200,-210,200,200,5,D,Raw
F,63,Open,Ilaria Marchionne,1986,62.89,120,-130,-130,120,120,12,D,Raw
M,93,Open,Salvatore Marigliano,1993,90.88,195,205,-215,205,205,23,D,Raw
F,72,Master I,Francesca Marina,1977,67.9,122.5,127.5,135,135,135,2,D,Raw
M,83,Sub-Junior,Pietro Marku,2000,81.75,205,-212.5,-212.5,205,205,2,D,Raw
F,84,Junior,Silvia Marostica,1995,80.56,190,-200,200,200,200,1,D,Single-ply
M,83,Master III,Rosario Marotta,1954,80.75,200,216,230,230,230,1,D,Raw
M,74,Open,Federico Martella,1990,72.09,215,230,-240,230,230,6,D,Raw
M,93,Open,Gianluca Martino,1991,88.9,282.5,292.5,297.5,297.5,297.5,3,D,Single-ply
M,93,Open,Gianluca Martino,1991,88.2,282.5,290,302,302,302,1,D,Raw
M,93,Open,Alessio Masala,1984,84.38,190,-200,-200,190,190,20,D,Single-ply
F,63,Open,Manuela Masci,1979,60.26,125,132.5,140,140,140,4,D,Single-ply
M,93,Sub-Junior,Matteo Masciarelli,2000,86.51,263,-275,-275,263,263,1,D,Raw
M,93,Open,Stefano Masiello,1989,84.67,225,235,-245,235,235,14,D,Single-ply
M,66,Junior,Alessandro Mastromattei,1998,63.95,201,210,-220,210,210,4,D,Raw
M,93,Junior,Alessandro Matrone,1995,89.59,210,225,240,240,240,5,D,Raw
F,72,Open,Sara Mazzantini,1990,70.18,185,195,200,200,200,1,D,Raw
F,63,Junior,Serena Mazzolini,1995,60.66,-100,100,-110,100,100,4,D,Raw
M,120,Open,Simone Melara,1992,118.33,-277.5,-282.5,-285,,,DQ,D,Raw
M,66,Open,Casimiro Meli,1987,61.67,-217.5,-217.5,-217.5,,,DQ,D,Raw
F,63,Open,Alessandra Menaglio,1992,60.89,105,115,125,125,125,11,D,Raw
M,120+,Open,Gabriele Menapace,1990,123.98,215,222.5,227.5,227.5,227.5,4,D,Raw
M,83,Master I,Gianluca Mereu,1977,77.35,225,237.5,-251,237.5,237.5,1,D,Raw
M,93,Open,Vitaliy Mesiani,1989,90.81,235,242.5,-250,242.5,242.5,11,D,Raw
M,74,Junior,Diego Milani,1996,72.96,255,265.5,270.5,270.5,270.5,1,D,Single-ply
M,66,Open,Dennis Milello,1993,65.27,220,230,-238.5,230,230,2,D,Raw
M,105,Master I,Gianluca Minghetti,1970,96.34,260,-270,-270,260,260,1,D,Single-ply
M,120,Open,Andrea Mirabelli,1988,105.5,270,-285,-285,270,270,2,D,Single-ply
M,66,Open,Francesco Moccia,1990,62.79,-175,-180,180,180,180,9,D,Raw
M,83,Junior,Andrea Antonio Mollicone,1996,82.38,227.5,-237.5,-237.5,227.5,227.5,4,D,Raw
M,93,Junior,Simone Monco,1995,87.55,200,212.5,-220,212.5,212.5,8,D,Raw
M,93,Sub-Junior,Loris Mongi,2002,90.22,175,190.5,200.5,200.5,200.5,2,D,Raw
M,105,Open,Manuel Moretti,1987,100.85,242.5,257.5,265,265,265,7,D,Raw
M,83,Open,Matteo Moretto,1988,80.73,225,235,250,250,250,5,D,Raw
M,74,Junior,Federico Moriconi,1996,67.81,180,190,200,200,200,7,D,Raw
M,66,Open,Michele Moriconi,1990,64.9,200,-207.5,-207.5,200,200,5,D,Raw
M,83,Junior,Andrea Moro,1995,78.43,185,190,-200,190,190,14,D,Raw
F,84,Master II,Maria Pia Moscianese,1963,81.5,140,150,175,175,175,1,D,Single-ply
M,83,Open,Giorgio Muccini,1989,80.56,195,205,-210,205,205,17,D,Raw
F,52,Open,Entela Mukja,1994,50.82,80,87.5,95,95,95,2,D,Single-ply
M,83,Junior,Luca Murachelli,1995,81.5,210,220,-225,220,220,2,D,Single-ply
M,66,Sub-Junior,Gabriele Musso,2000,63.02,-150,150,170,170,170,1,D,Raw
M,93,Open,Fabio Nadotti,1987,87.33,-240,,,,,DQ,D,Single-ply
M,93,Junior,Simone Nascivera,1998,86.55,205,215,-220,215,215,7,D,Raw
M,83,Junior,Luca Negroni,1995,81.89,215,225,-240,225,225,5,D,Raw
M,120,Junior,Leonardo Neri Barbieri,1997,105.39,-185,190,205,205,205,5,D,Raw
M,120,Open,Davide Nicolin,1988,113.17,255,-257.5,275,275,275,2,D,Raw
M,105,Junior,Mauro Oldani,1995,101.43,240,255,-270,255,255,4,D,Raw
M,59,Open,Valerio Oldani,1986,57.59,200,210,216,216,216,1,D,Single-ply
M,105,Open,Daniele Orfei,1981,96.53,210,222.5,232.5,232.5,232.5,4,D,Single-ply
M,83,Sub-Junior,Massimiiano Orlandi,2001,80.14,160,170,180,180,180,3,D,Raw
F,63,Open,Eugenia Orlando,1989,61.54,152.5,157.5,165,165,165,2,D,Raw
M,66,Open,Luca Orrù,1991,63.03,217.5,233,239,239,239,1,D,Raw
F,63,Open,Ersilia Palladino,1980,60.26,147.5,160,165.5,165.5,165.5,1,D,Raw
F,57,Master II,Teresa Palmisano,1967,55.67,127.5,132.5,-137.5,132.5,132.5,1,D,Single-ply
M,105,Open,Davide Palombi,1991,98.16,205,212.5,-220,212.5,212.5,21,D,Raw
M,93,Open,Stefano Paolucci,1991,88.38,-247.5,257.5,-270,257.5,257.5,6,D,Raw
M,105,Open,Marco Paoluzzi,1994,101.81,220,245,265,265,265,8,D,Raw
F,52,Master I,Sonia Parlanti,1973,50.14,110,115,-120,115,115,1,D,Raw
F,72,Open,Francesca Parrello,1994,71.73,160,170,-180,170,170,2,D,Single-ply
M,74,Open,Edoardo Pasqui,1993,73.84,215,227.5,235,235,235,5,D,Single-ply
M,105,Open,Andrea Pavan,1985,94.71,260,270,-275,270,270,5,D,Raw
F,84,Junior,Chiara Pelliconi,1995,77.44,130,137.5,143,143,143,1,D,Raw
M,120+,Open,Michele Peluso,1979,131,250,-270,,250,250,3,D,Single-ply
M,120+,Open,Michele Peluso,1979,136.98,255,270,-280,270,270,2,D,Raw
M,74,Open,Roberto Franco Penuti,1979,72.18,195,-207.5,-207.5,195,195,22,D,Raw
F,84,Open,Gabriella Pereyra,1985,80.63,120,-132.5,132.5,132.5,132.5,3,D,Raw
M,74,Junior,Gioele Perilla,1996,71.96,172.5,177.5,182.5,182.5,182.5,10,D,Raw
M,105,Open,Devin Perini,1992,99.28,235,250,-255,250,250,13,D,Raw
M,93,Master I,Valerio Perullo,1978,91.81,230,240,250,250,250,1,D,Raw
F,47,Master I,Barbara Peti,1976,46.5,125,132.5,-140.5,132.5,132.5,1,D,Single-ply
F,63,Master II,Susanna Petroni,1967,60.26,125,-131,-131,125,125,1,D,Raw
M,93,Open,Simon Piaia,1990,87.37,232.5,247.5,255,255,255,7,D,Raw
M,74,Open,Eder Piccinin,1993,72.75,200,-215,220,220,220,13,D,Raw
M,74,Open,Mattia Piccioli,1989,68.44,160,167.5,177.5,177.5,177.5,26,D,Raw
M,66,Open,Marco Piceni,1990,65.4,-197.5,197.5,-210,197.5,197.5,7,D,Raw
M,93,Open,Giorgio Pierotti,1990,89.87,195,-205,-205,195,195,28,D,Raw
M,74,Open,Simone Pinto,1986,72.8,192.5,205,-210,205,205,18,D,Raw
M,105,Open,Fabrizio Piras,1994,96.65,270,-292.5,-297.5,270,270,6,D,Raw
M,83,Master I,Roberto Pisana,1974,78.28,155,165,-175,165,165,4,D,Raw
M,83,Junior,Guido Pisani,1995,78.09,190,-210,-210,190,190,12,D,Raw
M,74,Junior,Marco Poda,1995,72.3,-222.5,222.5,-232.5,222.5,222.5,3,D,Raw
F,63,Open,Serena Polce,1984,58.27,125,132.5,-140,132.5,132.5,5,D,Single-ply
M,93,Open,Domingo Poliandri,1983,92.17,265,280,295,295,295,4,D,Single-ply
F,57,Junior,Hillary Pontalto,1996,55.33,100,110,122.5,122.5,122.5,3,D,Raw
M,74,Master I,Nicola Porcu,1973,70.6,240,250,-261,250,250,1,D,Raw
M,83,Junior,Tommaso Pratesi,1995,82.65,-220,225,-240,225,225,6,D,Raw
M,74,Junior,Massimo Primativo,1997,73.37,230,246,-260.5,246,246,1,D,Raw
M,83,Open,Carlo Princic,1981,82.36,265,283.5,288,288,288,1,D,Raw
F,47,Open,Silvia Priore,1991,46.43,115,122.5,125.5,125.5,125.5,1,D,Raw
F,57,Open,Silvia Prosperi,1992,55.19,150,157.5,-160,157.5,157.5,3,D,Single-ply
M,83,Open,Ennio Prudentino,1990,79.16,180,190,-200,190,190,7,D,Single-ply
M,93,Open,Alex Pugliese,1988,90.15,-270,270,-282.5,270,270,9,D,Single-ply
M,120+,Master I,Paolo Pupin,1977,124.7,190,197.5,-205.5,197.5,197.5,1,D,Raw
F,47,Open,Manuela Puzo,1984,44.49,65,72.5,85,85,85,2,D,Single-ply
F,63,Open,Alessandra Quaranta,1993,60.85,137.5,145,-157.5,145,145,7,D,Raw
M,74,Open,Federico Quercia,1996,72.6,-225,-225,-225,,,DQ,D,Raw
F,63,Master I,Erika Quintarelli,1975,60.51,115,122.5,130,130,130,1,D,Raw
M,74,Junior,Alessandro Raccagno,1995,73.63,210,-220,-220,210,210,5,D,Raw
M,74,Open,Bruno Raffa,1984,72.51,200,-215,220,220,220,12,D,Raw
M,105,Open,Luigi Raffaele,1991,96.6,235,250,-262.5,250,250,3,D,Single-ply
M,83,Open,Mattia Ragnoli,1998,80.37,-160,-160,160,160,160,25,D,Raw
M,93,Open,Danny Rainone,1983,84.45,265,275,-282.5,275,275,7,D,Single-ply
M,83,Open,Matteo Ramacciotti,1988,80.22,200,205,220,220,220,13,D,Raw
M,120,Master II,Fabio Ranuccini,1968,109.74,220,-235,-235,220,220,1,D,Raw
M,93,Open,Stefano Ratti,1992,88.88,180,190,-200,190,190,29,D,Raw
M,74,Open,Jonathan Ravalson,1993,70.95,200,202.5,217.5,217.5,217.5,14,D,Raw
M,105,Open,Matteo Recchia,1987,104.42,275,292.5,-302.5,292.5,292.5,2,D,Raw
M,59,Open,Moris Redini,1990,57.85,-211,-212.5,-212.5,,,DQ,D,Raw
M,105,Open,Davide Regina,1986,99.74,210,-225,-225,210,210,22,D,Raw
M,74,Open,Simone Rialto,1994,73.8,-155,162.5,172.5,172.5,172.5,28,D,Raw
F,72,Open,Silvia Ricciardi,1992,67.98,110,125,140,140,140,4,D,Single-ply
M,74,Junior,Diego Righi,1998,68.26,210,220,-230,220,220,4,D,Raw
M,74,Sub-Junior,Pasquale Rignanese,2001,72.23,150,-160,-170,150,150,2,D,Raw
F,63,Open,Laura Rizzi,1989,60.43,125,-135,135,135,135,9,D,Raw
M,59,Open,Andrea Rizzo,1984,57.31,-155,-155,-155,,,DQ,D,Raw
M,74,Open,Luca Rizzo,1985,72.86,185,197.5,205,205,205,19,D,Raw
M,83,Open,Stefano Robol,1990,82.39,272.5,290,-300,290,290,1,D,Single-ply
F,84+,Master I,Paola Roccuzzo,1973,86.75,150,160,165,165,165,1,D,Raw
F,63,Master I,Alessia Rodina,1975,62.51,160,170,-177.5,170,170,1,D,Single-ply
M,93,Open,Riccardo Rollo,1986,92.69,300,312.5,332.5,332.5,332.5,1,D,Single-ply
M,105,Master I,Antonio Romano,1978,97.41,230,245,-255,245,245,4,D,Raw
F,57,Master I,Roberta Romano,1978,55.56,120,127.5,-140,127.5,127.5,1,D,Single-ply
F,57,Open,Francesca Rosi,1992,54.26,105,112.5,-120,112.5,112.5,6,D,Raw
M,93,Master III,Sandro Rossi,1952,90.22,-245,260.5,-265,260.5,260.5,1,D,Single-ply
M,83,Open,Benito Rubano,1992,81.94,220,235,-245,235,235,9,D,Raw
M,83,Open,Andrea Russo #1,1986,80.73,-180,180,200,200,200,20,D,Raw
M,83,Master I,Giuseppe Sala,1978,81.04,260,-272.5,-272.5,260,260,2,D,Single-ply
M,83,Master I,Matteo Sandrini,1976,80.96,-225,-225,225,225,225,2,D,Raw
F,84+,Master I,Mary Santagiuliana,1972,84.61,115,125,130,130,130,3,D,Raw
M,59,Junior,Jacopo Santangelo,1996,59,185,-195,-196,185,185,1,D,Raw
M,83,Master I,Luca Santilli,1977,82.37,190,200,-210,200,200,3,D,Raw
F,57,Open,Denise Sartin,1994,55.69,115,-120,-120,115,115,5,D,Raw
M,105,Junior,Gabriele Schiavo,1998,102.11,250,265,-277.5,265,265,2,D,Raw
M,83,Open,Alberto Sciavilla,1992,81.49,195,207.5,217.5,217.5,217.5,14,D,Raw
M,105,Open,Luca Seardo,1988,94.4,-210,-220,-220,,,DQ,D,Raw
F,57,Junior,Laura Selita,1999,55.76,125,140,-150,140,140,2,D,Raw
M,83,Open,Luca Selmi,1991,79.67,175,187.5,200,200,200,19,D,Raw
M,83,Open,Stefano Semplici,1985,80.99,-245,245,-260,245,245,4,D,Single-ply
M,66,Master I,Ivan Seravalli,1974,64.88,-170,170,180,180,180,1,D,Single-ply
M,66,Open,D. Nima Shahrestani,1993,65.46,180,190,200,200,200,6,D,Raw
M,105,Open,Alessandro Sidiropoulos,1989,97.33,215,230,-245,230,230,18,D,Raw
M,74,Open,Nicola Signani,1981,70.23,232.5,237.5,-245,237.5,237.5,3,D,Single-ply
M,120,Junior,Andrea Spinelli,1997,111.06,185,200,207.5,207.5,207.5,4,D,Raw
M,83,Master III,Angelo Spinelli,1957,79.7,180,200.5,215,215,215,2,D,Raw
M,120,Open,Luca Spinelli,1993,115.23,185,200,-207.5,200,200,8,D,Raw
F,52,Master II,Anna Stenghel,1968,51.42,127.5,-135,135,135,135,1,D,Single-ply
M,74,Open,Filippo Stragliati,1991,68.36,105,115,125,125,125,32,D,Raw
M,93,Open,Matteo Stranges,1988,88.39,210,222.5,230,230,230,17,D,Single-ply
M,74,Open,Antonio Tarantino,1989,72.43,230,-250,-260.5,230,230,7,D,Raw
M,66,Open,Daniele Tarchi,1981,64.14,210,220,-225,220,220,3,D,Single-ply
F,57,Open,Manuela Tassone,1991,55.91,140,-152.5,152.5,152.5,152.5,4,D,Single-ply
M,74,Open,Nicola Todisco,1982,70.51,225,240,250,250,250,2,D,Raw
M,93,Open,Giacomo Tonelli,1991,91.54,250,260,-265,260,260,5,D,Raw
F,72,Open,Luisa Torrisi,1982,70.27,122.5,132.5,-142.5,132.5,132.5,4,D,Raw
M,74,Open,Alessandro Trentini,1983,71.62,215,230,-240,230,230,6,D,Single-ply
F,63,Open,Mariella Trento,1988,62.76,125,132.5,-140,132.5,132.5,10,D,Raw
M,74,Sub-Junior,Raffaello Trifiletti,2001,68.15,155,160,170,170,170,1,D,Raw
F,52,Junior,Eliana Tunno,1997,51.83,150,160,-171,160,160,1,D,Single-ply
F,52,Junior,Eliana Tunno,1997,51.23,140,-155,-155,140,140,1,D,Raw
M,105,Master I,Cristian Turco,1975,94.9,240,250,-260,250,250,3,D,Raw
M,74,Open,Giuseppe Turco,1989,72.65,215,225,-232.5,225,225,10,D,Raw
M,83,Open,Stefano Turnone,1990,80.11,250,-270,-275,250,250,4,D,Raw
F,57,Master I,Silvana Vacca,1974,54.49,135,143,150,150,150,1,D,Raw
M,74,Junior,Graziano Valentini,1996,72.93,200,205,-215,205,205,6,D,Raw
F,63,Open,Grazia Valentino,1994,59.07,-95,102.5,110,110,110,15,D,Raw
M,120+,Open,Riccardo Venturi,1998,123.99,210,-220,-220,210,210,5,D,Raw
F,63,Open,Valentina Carla Viganò,1990,61.21,160,-167.5,172.5,172.5,172.5,1,D,Single-ply
M,66,Junior,Francesco Vighi,1995,65.37,217.5,225,-233.5,225,225,2,D,Raw
M,93,Open,Simone Vignale,1990,90.16,280,-290,-290,280,280,5,D,Single-ply
F,63,Junior,Vivian Villarboito,1997,60.35,-127.5,127.5,-132.5,127.5,127.5,3,D,Raw
M,59,Open,Petero Vinetti,1991,55.11,125,137.5,147.5,147.5,147.5,3,D,Raw
F,84,Master I,Elena Vinzia,1974,73.5,122.5,130.5,-137.5,130.5,130.5,1,D,Raw
M,74,Junior,Ruggero Visintin,1997,73.29,170,180,-190,180,180,13,D,Raw
M,105,Open,Fabio Vitti,1985,97.21,-210,210,230,230,230,17,D,Raw
M,93,Open,Gabriele Volo,1992,86.38,210,220,230,230,230,13,D,Raw
M,66,Open,Andrea Zaino,1981,65.51,-242.5,242.5,-268,242.5,242.5,1,D,Single-ply
M,105,Master I,Domenico Zaino,1969,102.91,270,290,-297.5,290,290,2,D,Raw
F,63,Junior,Virginia Zamarra,1995,63,115,122.5,130,130,130,2,D,Raw
M,105,Open,Mauro Zampetti,1992,93.48,-250,255,-265,255,255,11,D,Raw
M,74,Junior,Massimo Zanatta,1997,72.83,160,170,180,180,180,12,D,Raw
F,63,Sub-Junior,Giulia Zandavali,2000,60.92,120,127.5,135,135,135,1,D,Raw
F,57,Open,Roberta Zanetti,1987,56.28,107.5,115,122.5,122.5,122.5,4,D,Raw
M,83,Master IV,Sergio Zanetti,1945,76.06,200,-205,-207.5,200,200,1,D,Single-ply
M,105,Open,Giuseppe Zangari,1982,98.57,230,-240,-240,230,230,5,D,Single-ply
M,83,Open,Cristiano Zanotelli,1989,82.82,-250,-252.5,252.5,252.5,252.5,3,D,Raw
M,83,Open,Mirko Zecchinati,1989,81.71,220,230,-242.5,230,230,10,D,Raw
M,74,Open,Alessio Zedda,1994,73.43,215,222.5,-227.5,222.5,222.5,7,D,Single-ply
F,63,Open,Martina Zellino,1993,62.52,155,170,-175,170,170,2,D,Single-ply
F,52,Open,Francesca Zeni,1994,51.03,105,115,-120,115,115,1,D,Raw
M,105,Master I,Flavio Zilio,1969,100.7,220,-240,-240,220,220,2,D,Single-ply
M,105,Open,Luigi Zincone,1990,97.89,210,-220,-225,210,210,6,D,Single-ply
F,84,Master IV,Loriana Zucchelli,1944,78.18,85,95,100,100,100,1,D,Raw
F,47,Open,Giulia Zulian,1984,46.17,105,-110,-112.5,105,105,1,D,Single-ply
