Division,WeightClassKg,Place,Name,Team,BodyweightKg,Best3SquatKg,Best3BenchKg,Best3DeadliftKg,TotalKg,Equipment,Event,Sex,BirthDate
Girls,44.23,1,Leanne Le,Alvin Shadow Creek,44.18,104.33,52.16,138.35,294.84,Single-ply,SBD,F,
Girls,44.23,2,Katrina Le,Beaumont West Brook,42.96,117.93,52.16,115.67,285.76,Single-ply,SBD,F,
Girls,44.23,3,Stephanie Ferrer,Alvin Shadow Creek,44.04,68.04,36.29,102.06,206.38,Single-ply,SBD,F,
Girls,44.23,4,Tory Fuller,Montgomery,43.32,74.84,40.82,83.91,199.58,Single-ply,SBD,F,
Girls,44.23,5,Rishawn Barnes,Beaumont West Brook,43,70.31,31.75,95.25,197.31,Single-ply,SBD,F,
Girls,44.23,6,Mychael Broussard,Alvin Shadow Creek,40.42,68.04,36.29,79.38,183.7,Single-ply,SBD,F,
Girls,44.23,7,Peyton Payne,Willis,42.59,58.97,31.75,81.65,172.37,Single-ply,SBD,F,
Girls,44.23,8,Jessica Hill #3,Manvel,43.82,63.5,31.75,72.57,167.83,Single-ply,SBD,F,
Girls,44.23,9,Lairscey Griffin,Montgomery,41.91,43.09,24.95,54.43,122.47,Single-ply,SBD,F,
Girls,44.23,DQ,Alanis Rivera,Texas City,44,,,,,Single-ply,SBD,F,
Girls,44.23,DQ,Alexa Formby,Conroe Grand Oaks,44,,,,,Single-ply,SBD,F,
Girls,44.23,DQ,Kissa Hussian,New Caney Porter,43.77,,,,,Single-ply,SBD,F,
Girls,44.23,DQ,Isabella Gonzales,Pearland,42.86,,,,,Single-ply,SBD,F,
Girls,47.85,1,Jessica Espinal,Conroe,47.22,129.27,77.11,133.81,340.19,Single-ply,SBD,F,
Girls,47.85,2,Amanda Barrera,Alvin,46.4,113.4,49.9,113.4,276.69,Single-ply,SBD,F,
Girls,47.85,3,Ariana Luna,Channelview,47.31,97.52,38.56,111.13,247.21,Single-ply,SBD,F,
Girls,47.85,4,Kelsey Hernandez,Nederland,47.58,102.06,40.82,97.52,240.4,Single-ply,SBD,F,
Girls,47.85,5,Aniya Mitchell,Port Arthur Memorial,47.63,81.65,45.36,102.06,229.06,Single-ply,SBD,F,
Girls,47.85,6,Kamryn Vasquez,Conroe,46.95,83.91,43.09,86.18,213.19,Single-ply,SBD,F,
Girls,47.85,DQ,Yitzel Sosa,New Caney Porter,47.63,,,,,Single-ply,SBD,F,
Girls,47.85,DQ,Leslie Torres,New Caney Porter,47.63,,,,,Single-ply,SBD,F,
Girls,47.85,DQ,Lainey McDonald,Willis,47.63,,,,,Single-ply,SBD,F,
Girls,47.85,DQ,Jackie Ruiz,Houston Northbrook,47.13,,,,,Single-ply,SBD,F,
Girls,51.94,1,Crystal Phan,Dickinson,51.03,124.74,63.5,120.2,308.44,Single-ply,SBD,F,
Girls,51.94,2,Andrea Recendez,Alvin,50.26,104.33,58.97,113.4,276.69,Single-ply,SBD,F,
Girls,51.94,3,Karli Kalischko,Alvin,51.3,104.33,52.16,104.33,260.82,Single-ply,SBD,F,
Girls,51.94,4,Keira Rodriguez,Santa Fe,50.17,97.52,54.43,97.52,249.48,Single-ply,SBD,F,
Girls,51.94,5,Ti'Kya Mitchell,Beaumont West Brook,50.85,90.72,54.43,99.79,244.94,Single-ply,SBD,F,
Girls,51.94,DQ,Isabela Recendez,Alvin,50.17,,,,,Single-ply,SBD,F,
Girls,51.94,DQ,Gracie Cervantes,Santa Fe,50.17,,,,,Single-ply,SBD,F,
Girls,51.94,DQ,Yahira Campuzano,Conroe,49.85,102.06,58.97,,,Single-ply,SBD,F,
Girls,51.94,DQ,Nikki Norris,Vidor,50.71,,,,,Single-ply,SBD,F,
Girls,51.94,DQ,Rylee Slaighter,Santa Fe,51.71,,,,,Single-ply,SBD,F,
Girls,51.94,DQ,Yitzi Sosa,New Caney Porter,51.71,,,,,Single-ply,SBD,F,
Girls,51.94,DQ,Brianna Steichen,New Caney Porter,51.71,,,,,Single-ply,SBD,F,
Girls,56.02,1,Hailey Zuniga,Clute Brazoswood,54.3,149.69,68.04,129.27,347,Single-ply,SBD,F,
Girls,56.02,2,Kalani Hayden,Montgomery,55.66,129.27,63.5,127.01,319.78,Single-ply,SBD,F,
Girls,56.02,3,Maddie Chappell,Montgomery,55.16,113.4,63.5,129.27,306.17,Single-ply,SBD,F,
Girls,56.02,4,Isabella Barragan,Nederland,55.2,120.2,56.7,124.74,301.64,Single-ply,SBD,F,
Girls,56.02,5,Nuhoang Phan,Dickinson,55.61,113.4,54.43,115.67,283.5,Single-ply,SBD,F,
Girls,56.02,DQ,Taylor Lewis,Beaumont West Brook,54.88,104.33,63.5,,,Single-ply,SBD,F,
Girls,56.02,DQ,Araceli Dale,Alvin,55.07,,,,,Single-ply,SBD,F,
Girls,56.02,DQ,Karina Recendez,Alvin,56.02,,,,,Single-ply,SBD,F,
Girls,56.02,DQ,Aaliyah Reyes,Manvel,55.11,,,,,Single-ply,SBD,F,
Girls,56.02,DQ,Meadow Housman,New Caney Porter,55.79,,,,,Single-ply,SBD,F,
Girls,56.02,DQ,Cameron Bloomfield,Santa Fe,55.57,,,,,Single-ply,SBD,F,
Girls,56.02,DQ,Chinyere Okonkwo,Alvin Shadow Creek,54.61,104.33,49.9,,,Single-ply,SBD,F,
Girls,60.1,1,Nancy Meza,Alvin,60.1,174.63,65.77,161.03,401.43,Single-ply,SBD,F,
Girls,60.1,2,Kylie Welch,Vidor,57.79,147.42,72.57,147.42,367.41,Single-ply,SBD,F,
Girls,60.1,3,Allie Moore,Dayton,59.56,117.93,77.11,151.95,347,Single-ply,SBD,F,
Girls,60.1,4,Jada Romero,Montgomery Lake Creek,58.11,122.47,65.77,151.95,340.19,Single-ply,SBD,F,
Girls,60.1,5,Hannah Casas,Alvin,58.51,136.08,63.5,115.67,315.25,Single-ply,SBD,F,
Girls,60.1,6,Jasmine Yanez,Channelview,59.56,131.54,58.97,115.67,306.17,Single-ply,SBD,F,
Girls,60.1,7,Dominique de la Rosa,Alvin,59.15,122.47,63.5,115.67,301.64,Single-ply,SBD,F,
Girls,60.1,8,Brooke Smalley,Montgomery,58.51,117.93,54.43,120.2,292.57,Single-ply,SBD,F,
Girls,60.1,9,Peyton Wood,Willis,59.78,102.06,56.7,117.93,276.69,Single-ply,SBD,F,
Girls,60.1,DQ,Makenna Mcguire,Santa Fe,59.92,,,,,Single-ply,SBD,F,
Girls,60.1,DQ,Emily Rubio,Dickinson,59.74,,,,,Single-ply,SBD,F,
Girls,60.1,DQ,Paris Williams,Beaumont West Brook,59.87,,,,,Single-ply,SBD,F,
Girls,60.1,DQ,Smanatha Rogers,New Caney Porter,59.65,,,,,Single-ply,SBD,F,
Girls,67.36,1,Emma Dycus,Vidor,65.5,138.35,79.38,140.61,358.34,Single-ply,SBD,F,
Girls,67.36,2,Camila Recendez,Alvin,63.64,149.69,61.23,145.15,356.07,Single-ply,SBD,F,
Girls,67.36,3,Ashton Rutland,Conroe Caney Creek,61.64,133.81,77.11,131.54,342.46,Single-ply,SBD,F,
Girls,67.36,4,Natalie Hasselmeier,Montgomery,64,136.08,77.11,129.27,342.46,Single-ply,SBD,F,
Girls,67.36,5,Madison Faith,Conroe Woodlands College Park,63.55,120.2,72.57,122.47,315.25,Single-ply,SBD,F,
Girls,67.36,6,Micaela Lowery,Montgomery,66.13,113.4,86.18,113.4,312.98,Single-ply,SBD,F,
Girls,67.36,DQ,Karissa Betancourt,Santa Fe,65.68,,,,,Single-ply,SBD,F,
Girls,67.36,DQ,Amaya Batiste,Manvel,64.68,,,,,Single-ply,SBD,F,
Girls,67.36,DQ,Kaitlin Chaffin,Willis,65.86,,,,,Single-ply,SBD,F,
Girls,67.36,DQ,Amanda Carden,Dayton,65.91,127.01,68.04,,,Single-ply,SBD,F,
Girls,67.36,DQ,Angelica Avalos,Alvin,66.86,,,,,Single-ply,SBD,F,
Girls,67.36,DQ,Kalee Rochinski,Montgomery Lake Creek,66.45,111.13,58.97,,,Single-ply,SBD,F,
Girls,75.07,1,Sage Grooms,Vidor,72.17,156.49,70.31,172.37,399.16,Single-ply,SBD,F,
Girls,75.07,2,Alyssa Redeaux,Beaumont West Brook,73.98,127.01,81.65,149.69,358.34,Single-ply,SBD,F,
Girls,75.07,3,Emma Hutson,Vidor,72.89,127.01,79.38,138.35,344.73,Single-ply,SBD,F,
Girls,75.07,4,Symantha Donaldson,Pearland,68.49,138.35,70.31,127.01,335.66,Single-ply,SBD,F,
Girls,75.07,5,Katheryn Padgett,Montgomery,71.94,122.47,72.57,129.27,324.32,Single-ply,SBD,F,
Girls,75.07,6,Celeste Salinas,Clute Brazoswood,72.12,136.08,70.31,115.67,322.05,Single-ply,SBD,F,
Girls,75.07,DQ,Karina Macias,Alvin,74.07,,,,,Single-ply,SBD,F,
Girls,75.07,DQ,Raeann Hernandez,Alvin,74.12,,,,,Single-ply,SBD,F,
Girls,75.07,DQ,Gabriella Bailey,Montgomery Lake Creek,74.39,145.15,68.04,,,Single-ply,SBD,F,
Girls,75.07,DQ,Madelyn Lopez,Montgomery Lake Creek,70.76,,,,,Single-ply,SBD,F,
Girls,75.07,DQ,Krissy Prier,Pearland Dawson,71.49,,,,,Single-ply,SBD,F,
Girls,75.07,DQ,Yesenia Morales,Conroe Caney Creek,72.17,136.08,,,,Single-ply,SBD,F,
Girls,82.33,1,Jase Bowman,Nederland,77.93,165.56,77.11,142.88,385.55,Single-ply,SBD,F,
Girls,82.33,2,Alainna Neal,Montgomery Lake Creek,81.6,163.29,74.84,142.88,381.02,Single-ply,SBD,F,
Girls,82.33,3,Jackie Leon,Conroe,78.34,136.08,70.31,149.69,356.07,Single-ply,SBD,F,
Girls,82.33,4,Haylie Burns,Dayton,78.61,131.54,70.31,145.15,347,Single-ply,SBD,F,
Girls,82.33,5,Kennedi Williams,Manvel,78.47,113.4,70.31,156.49,340.19,Single-ply,SBD,F,
Girls,82.33,6,Emily Barboza,Cleveland,77.93,129.27,77.11,131.54,337.93,Single-ply,SBD,F,
Girls,82.33,7,Stevie Goodman,Alvin,80.51,129.27,61.23,145.15,335.66,Single-ply,SBD,F,
Girls,82.33,8,Emma Pierce,Dayton,77.25,122.47,70.31,133.81,326.59,Single-ply,SBD,F,
Girls,82.33,9,Abby Ybarra,Dayton,81.56,120.2,72.57,122.47,315.25,Single-ply,SBD,F,
Girls,82.33,10,Briyonne Jacquette,Beaumont West Brook,81.42,113.4,58.97,133.81,306.17,Single-ply,SBD,F,
Girls,82.33,DQ,Katera Perkins,Beaumont West Brook,78.74,,,,,Single-ply,SBD,F,
Girls,82.33,DQ,Skyler Shanahan,Magnolia,80.24,,,,,Single-ply,SBD,F,
Girls,90.04,1,Dezari Stewart,New Caney Porter,89.49,167.83,90.72,165.56,424.11,Single-ply,SBD,F,
Girls,90.04,2,Ana Gonzalez,Conroe,85.82,154.22,74.84,165.56,394.63,Single-ply,SBD,F,
Girls,90.04,3,Sarah Green #2,Alvin,89.22,142.88,63.5,158.76,365.14,Single-ply,SBD,F,
Girls,90.04,4,Shelby Schexnayder,Nederland,87.59,154.22,65.77,136.08,356.07,Single-ply,SBD,F,
Girls,90.04,5,Gabrielle Castillo,Beaumont West Brook,89.22,129.27,90.72,127.01,347,Single-ply,SBD,F,
Girls,90.04,6,Kloee Wells,Dayton,87,115.67,70.31,136.08,322.05,Single-ply,SBD,F,
Girls,90.04,7,Iran Inzunza,Beaumont West Brook,85,127.01,65.77,122.47,315.25,Single-ply,SBD,F,
Girls,90.04,8,Kayla Gilbert,Clute Brazoswood,87.77,122.47,58.97,122.47,303.91,Single-ply,SBD,F,
Girls,90.04,DQ,Siara Benton,Beaumont West Brook,84.73,,,,,Single-ply,SBD,F,
Girls,90.04,DQ,Sequoria Raymond,Beaumont West Brook,87.45,,,,,Single-ply,SBD,F,
Girls,90.04,DQ,Alyna Mickens,Beaumont West Brook,89.4,,,,,Single-ply,SBD,F,
Girls,90.04,DQ,Trinity Lee,Pearland,82.87,104.33,61.23,,,Single-ply,SBD,F,
Girls,100.02,1,Trinity Ruiz,Alvin,98.38,201.85,86.18,170.1,458.13,Single-ply,SBD,F,
Girls,100.02,2,Ashlynn Tapia,Conroe Woodlands College Park,98.25,158.76,104.33,145.15,408.23,Single-ply,SBD,F,
Girls,100.02,3,Karen Nobles,Conroe,90.63,147.42,65.77,136.08,349.27,Single-ply,SBD,F,
Girls,100.02,4,Jennifer Galarza,New Caney Porter,96.89,127.01,70.31,138.35,335.66,Single-ply,SBD,F,
Girls,100.02,5,Kylie Allbritton,Pearland,98.52,133.81,56.7,138.35,328.85,Single-ply,SBD,F,
Girls,100.02,6,Brynleigh Curtis,Port Neches-Groves,93.8,136.08,70.31,120.2,326.59,Single-ply,SBD,F,
Girls,100.02,7,Vanessa Hughes,Nederland,97.7,108.86,65.77,131.54,306.17,Single-ply,SBD,F,
Girls,100.02,8,Savannah Haas,Texas City,97.89,102.06,45.36,117.93,265.35,Single-ply,SBD,F,
Girls,100.02,DQ,Savanah Hebert,Conroe Caney Creek,92.4,,,,,Single-ply,SBD,F,
Girls,100.02,DQ,Cydney Griffin,Beaumont West Brook,98.7,,,,,Single-ply,SBD,F,
Girls,100.02,DQ,Kaleigha Washington,Beaumont West Brook,92.17,136.08,86.18,,,Single-ply,SBD,F,
Girls,100.02,DQ,Jurnee Gooden,Beaumont West Brook,96.98,,,,,Single-ply,SBD,F,
Girls,117.71,1,Eryn Harris,Clute Brazoswood,105.69,170.1,90.72,147.42,408.23,Single-ply,SBD,F,
Girls,117.71,2,Maria Pena,Pasadena Memorial,104.69,163.29,72.57,158.76,394.63,Single-ply,SBD,F,
Girls,117.71,3,Dariah Jennings,Alvin Shadow Creek,116.12,149.69,63.5,172.37,385.55,Single-ply,SBD,F,
Girls,117.71,4,Eliana Hernandez,Alvin,109.13,158.76,65.77,156.49,381.02,Single-ply,SBD,F,
Girls,117.71,5,Katelyn Hayes,Pearland Dawson,100.61,129.27,65.77,124.74,319.78,Single-ply,SBD,F,
Girls,117.71,6,Tamia Ester,Conroe Woodlands College Park,106.78,131.54,61.23,104.33,297.1,Single-ply,SBD,F,
Girls,117.71,7,Anaja Morris,Beaumont West Brook,105.51,108.86,68.04,115.67,292.57,Single-ply,SBD,F,
Girls,117.71,8,Kirah Williams,Beaumont United,112.04,106.59,52.16,124.74,283.5,Single-ply,SBD,F,
Girls,117.71,DQ,Anina Miller,Beaumont West Brook,104.87,,,,,Single-ply,SBD,F,
Girls,117.71,DQ,Alyssa Moreno,New Caney Porter,112.31,170.1,83.91,,,Single-ply,SBD,F,
Girls,117.71+,1,Belen Almader,Alvin,132.36,204.12,97.52,149.69,451.32,Single-ply,SBD,F,
Girls,117.71+,2,Taryn Hopper,Nederland,119.75,158.76,97.52,136.08,392.36,Single-ply,SBD,F,
Girls,117.71+,3,Deaisha Boone,Dickinson,124.83,120.2,54.43,122.47,297.1,Single-ply,SBD,F,
Girls,117.71+,4,Briana Watson,Beaumont United,121.38,102.06,43.09,124.74,269.89,Single-ply,SBD,F,
Girls,117.71+,5,Mia Watler,Nederland,118.66,102.06,65.77,99.79,267.62,Single-ply,SBD,F,
Girls,117.71+,6,Shi'Ya Toson,Port Arthur Memorial,147.87,95.25,58.97,108.86,263.08,Single-ply,SBD,F,
Girls,117.71+,7,Princess Purdy,Beaumont United,126.92,88.45,40.82,127.01,256.28,Single-ply,SBD,F,
Girls,117.71+,8,Kaydence Martin,Beaumont West Brook,168.65,45.36,47.63,106.59,199.58,Single-ply,SBD,F,
Girls,117.71+,DQ,Laci Ruiz,Alvin,128.64,,,,,Single-ply,SBD,F,
Girls,117.71+,DQ,Rayia Calbert,Beaumont United,126.46,,,,,Single-ply,SBD,F,
Girls,117.71+,DQ,Jasmine Coker,Cleveland,129,,,,,Single-ply,SBD,F,
