Division,WeightClassKg,Place,Name,Team,BodyweightKg,Best3SquatKg,Best3BenchKg,Best3DeadliftKg,TotalKg,Equipment,Event,Sex
Boys,51.71,1,Valdemar Ramirez,Castleberry,49.62,104.33,77.11,136.08,317.51,Single-ply,SBD,M
Boys,51.71,2,Dalton Walker,Ranger,51.71,97.52,61.23,99.79,258.55,Single-ply,SBD,M
Boys,55.79,1,Jace Duncan,Mineral Wells,54.61,149.69,86.18,151.95,387.82,Single-ply,SBD,M
Boys,55.79,2,Carlos Villanueva,Strawn,55.34,147.42,63.5,124.74,335.66,Single-ply,SBD,M
Boys,55.79,3,Caleb Floyd,Gordon,55.79,102.06,54.43,127.01,283.5,Single-ply,SBD,M
Boys,55.79,DQ,Avalardo Lopez,Strawn,55.79,136.08,,,,Single-ply,SBD,M
Boys,59.87,1,Andrew Bseiso,Castleberry,58.06,117.93,83.91,140.61,342.46,Single-ply,SBD,M
Boys,59.87,2,Brian Jackson,Seymour,59.87,113.4,86.18,142.88,342.46,Single-ply,SBD,M
Boys,59.87,3,Stephen McNaught,Meridian,58.97,90.72,61.23,124.74,276.69,Single-ply,SBD,M
Boys,67.13,1,Devon Hall,Seymour,64.32,158.76,90.72,174.63,424.11,Single-ply,SBD,M
Boys,67.13,2,Casey Stevenson,Rio Vista,61.33,136.08,90.72,188.24,415.04,Single-ply,SBD,M
Boys,67.13,3,Isaiah Rodriguez,Bridgeport,65.41,156.49,83.91,165.56,405.97,Single-ply,SBD,M
Boys,67.13,4,Franklin Lopez,Millsap,61.96,167.83,79.38,156.49,403.7,Single-ply,SBD,M
Boys,67.13,5,Xavier Parker,Mineral Wells,61.6,158.76,83.91,154.22,396.89,Single-ply,SBD,M
Boys,67.13,6,Greg Norman,Grandview,64.14,158.76,74.84,163.29,396.89,Single-ply,SBD,M
Boys,67.13,7,Jose de la Cerda,Bridgeport,64.59,145.15,88.45,163.29,396.89,Single-ply,SBD,M
Boys,67.13,8,Jw Montgomery,Strawn,63.05,142.88,74.84,138.35,356.07,Single-ply,SBD,M
Boys,67.13,9,Raymond Pacheco,Millsap,62.96,120.2,65.77,149.69,335.66,Single-ply,SBD,M
Boys,67.13,10,Patyne Ruiz,Strawn,65.95,113.4,86.18,136.08,335.66,Single-ply,SBD,M
Boys,67.13,11,Thomas Arnold,Seymour,60.78,120.2,68.04,142.88,331.12,Single-ply,SBD,M
Boys,67.13,12,Jace Davis,Millsap,65.23,113.4,70.31,136.08,319.78,Single-ply,SBD,M
Boys,67.13,13,Matthew Thompson #4,Maypearl,65.86,97.52,70.31,142.88,310.71,Single-ply,SBD,M
Boys,67.13,14,Kannen Adams,Tolar,67.04,115.67,70.31,124.74,310.71,Single-ply,SBD,M
Boys,67.13,15,Charles Martinez,Bridgeport,62.96,106.59,61.23,127.01,294.84,Single-ply,SBD,M
Boys,67.13,16,Austin Elledge,Petrolia,63.05,,74.84,136.08,210.92,Single-ply,BD,M
Boys,67.13,DQ,Jett Bryan,Santo,66.5,,,,,Single-ply,SBD,M
Boys,74.84,1,Chris Williams #2,Rio Vista,73.03,199.58,97.52,204.12,501.22,Single-ply,SBD,M
Boys,74.84,2,Christian Hand,Bridgeport,74.39,181.44,124.74,192.78,498.95,Single-ply,SBD,M
Boys,74.84,3,Jonah Maston,Santo,72.21,192.78,104.33,183.7,480.81,Single-ply,SBD,M
Boys,74.84,4,Jared Singleton,Mineral Wells,72.21,195.04,102.06,165.56,462.66,Single-ply,SBD,M
Boys,74.84,5,Ivan Ruiz,Strawn,74.3,158.76,102.06,163.29,424.11,Single-ply,SBD,M
Boys,74.84,6,Kyle Gault,Strawn,73.03,170.1,77.11,165.56,412.77,Single-ply,SBD,M
Boys,74.84,7,Tony Tijerina,Bridgeport,74.3,145.15,92.99,167.83,405.97,Single-ply,SBD,M
Boys,74.84,8,Miguel Garcia,Strawn,72.21,142.88,79.38,158.76,381.02,Single-ply,SBD,M
Boys,74.84,9,Tommy Allen,Seymour,74.84,151.95,77.11,151.95,381.02,Single-ply,SBD,M
Boys,74.84,10,Bailey Barrett,Strawn,74.84,149.69,79.38,149.69,378.75,Single-ply,SBD,M
Boys,74.84,11,Anthony Perez,Bridgeport,68.58,136.08,97.52,142.88,376.48,Single-ply,SBD,M
Boys,74.84,12,Brock Barron,Millsap,68.76,136.08,74.84,149.69,360.61,Single-ply,SBD,M
Boys,74.84,13,Brendene Rumus,Castleberry,74.03,124.74,88.45,145.15,358.34,Single-ply,SBD,M
Boys,74.84,14,Scott Lowrey,Rio Vista,74.84,136.08,81.65,136.08,353.8,Single-ply,SBD,M
Boys,74.84,15,Chance Garriott,Meridian,70.4,124.74,72.57,136.08,333.39,Single-ply,SBD,M
Boys,74.84,DQ,Isidro Salazar,Castleberry,74.84,156.49,117.93,,,Single-ply,SBD,M
Boys,82.1,1,Destin Montelongo,Santo,81.19,217.72,129.27,226.8,573.79,Single-ply,SBD,M
Boys,82.1,2,Seth Alston,Santo,80.83,231.33,108.86,192.78,532.97,Single-ply,SBD,M
Boys,82.1,3,Noah Maston,Santo,79.38,215.46,122.47,192.78,530.7,Single-ply,SBD,M
Boys,82.1,4,Tanner Hodgkins,Strawn,79.83,192.78,95.25,192.78,480.81,Single-ply,SBD,M
Boys,82.1,5,James Henderson #3,Tolar,77.11,201.85,92.99,158.76,453.59,Single-ply,SBD,M
Boys,82.1,6,Logan Randall,Rio Vista,82.01,156.49,102.06,195.04,453.59,Single-ply,SBD,M
Boys,82.1,7,Rickey Bottorff,Millsap,80.74,170.1,104.33,172.37,446.79,Single-ply,SBD,M
Boys,82.1,8,Gavin Duncan,Strawn,82.1,167.83,86.18,181.44,435.45,Single-ply,SBD,M
Boys,82.1,9,Keaton Robinson,Bridgeport,82.1,161.03,90.72,158.76,410.5,Single-ply,SBD,M
Boys,82.1,10,Colby White,Bridgeport,77.7,140.61,83.91,181.44,405.97,Single-ply,SBD,M
Boys,82.1,11,Chase Crider,Gordon,79.47,142.88,106.59,156.49,405.97,Single-ply,SBD,M
Boys,82.1,12,Dustin Greeson,Maypearl,78.47,122.47,72.57,147.42,342.46,Single-ply,SBD,M
Boys,82.1,DQ,Brayden Benson,Santo,80.29,,,,,Single-ply,SBD,M
Boys,82.1,DQ,Ryan Goodwin,Mineral Wells,80.1,199.58,,,,Single-ply,SBD,M
Boys,89.81,1,Johnny Morales,Mineral Wells,89.54,272.16,163.29,244.94,680.39,Single-ply,SBD,M
Boys,89.81,2,Eric Rosson,Grandview,89.81,240.4,120.2,204.12,564.72,Single-ply,SBD,M
Boys,89.81,3,Damian Dominguez,Grandview,86.64,208.65,113.4,190.51,512.56,Single-ply,SBD,M
Boys,89.81,4,Jason Wiggin,Rio Vista,83.91,201.85,102.06,197.31,501.22,Single-ply,SBD,M
Boys,89.81,5,Brian Chapa,Castleberry,85.46,181.44,102.06,197.31,480.81,Single-ply,SBD,M
Boys,89.81,6,Preston Guerra,Seymour,85.73,188.24,102.06,188.24,478.54,Single-ply,SBD,M
Boys,89.81,7,Matthew Rankin,Bridgeport,89.81,167.83,97.52,188.24,453.59,Single-ply,SBD,M
Boys,89.81,8,Bobby Thompson,Millsap,89.81,170.1,92.99,170.1,433.18,Single-ply,SBD,M
Boys,89.81,9,Brent Batch,Rio Vista,83.91,127.01,70.31,151.95,349.27,Single-ply,SBD,M
Boys,89.81,10,Blaine Goen,Gordon,88.18,102.06,58.97,117.93,278.96,Single-ply,SBD,M
Boys,89.81,DQ,Mason Smith,Santo,89.36,136.08,70.31,,,Single-ply,SBD,M
Boys,89.81,DQ,Dylan Moore,Grandview,88.04,183.7,,,,Single-ply,SBD,M
Boys,89.81,DQ,Anthony Castillo,Castleberry,89.81,,,,,Single-ply,SBD,M
Boys,89.81,DQ,Justin Charles,Maypearl,88.27,106.59,,,,Single-ply,SBD,M
Boys,99.79,1,Edgar Rodea,Gordon,92.9,204.12,129.27,185.97,519.36,Single-ply,SBD,M
Boys,99.79,2,Isaiah Baeza,Mineral Wells,95.71,204.12,124.74,181.44,510.29,Single-ply,SBD,M
Boys,99.79,3,Jacob Slimp,Bridgeport,96.62,195.04,117.93,188.24,501.22,Single-ply,SBD,M
Boys,99.79,4,Demetri Hendrick,Bridgeport,98.16,183.7,111.13,195.04,489.88,Single-ply,SBD,M
Boys,99.79,5,Noble Stevens,Millsap,93.12,181.44,108.86,188.24,478.54,Single-ply,SBD,M
Boys,99.79,6,Ismael Banda,Castleberry,99.79,158.76,122.47,172.37,453.59,Single-ply,SBD,M
Boys,99.79,7,Arturo Guerrero,Millsap,93.98,158.76,88.45,172.37,419.57,Single-ply,SBD,M
Boys,99.79,8,Ethan Cooper,Tolar,91.63,149.69,113.4,149.69,412.77,Single-ply,SBD,M
Boys,99.79,9,Taylor Morris,Petrolia,93.8,136.08,95.25,131.54,362.87,Single-ply,SBD,M
Boys,99.79,10,Nicholas Dunn,Bridgeport,99.79,113.4,68.04,131.54,312.98,Single-ply,SBD,M
Boys,109.77,1,Gonsalo Ibarra,Bridgeport,105.78,208.65,145.15,215.46,569.26,Single-ply,SBD,M
Boys,109.77,2,Hunter Coleman,Bridgeport,108.77,197.31,133.81,197.31,528.44,Single-ply,SBD,M
Boys,109.77,3,Taylor Colley,Petrolia,104.6,210.92,127.01,181.44,519.36,Single-ply,SBD,M
Boys,109.77,4,Anthony Coker,Santo,100.7,199.58,115.67,201.85,517.1,Single-ply,SBD,M
Boys,109.77,5,Jorge Saldara,Grandview,102.97,217.72,117.93,158.76,494.42,Single-ply,SBD,M
Boys,109.77,6,Fabian Alvarez,Rio Vista,104.87,195.04,106.59,181.44,483.08,Single-ply,SBD,M
Boys,109.77,7,Brandon Rutzki,Maypearl,109.5,174.63,108.86,197.31,480.81,Single-ply,SBD,M
Boys,109.77,8,Jacob Flores,Strawn,109.77,192.78,92.99,192.78,478.54,Single-ply,SBD,M
Boys,109.77,9,Daniel Aguilar,Millsap,101.6,181.44,106.59,181.44,469.47,Single-ply,SBD,M
Boys,109.77,10,Sawyer Barron,Ranger,105.23,176.9,104.33,167.83,449.06,Single-ply,SBD,M
Boys,124.74,1,Austin Coker,Santo,111.58,265.35,151.95,226.8,644.1,Single-ply,SBD,M
Boys,124.74,2,Miguel Guevara,Tolar,114.4,233.6,133.81,244.94,612.35,Single-ply,SBD,M
Boys,124.74,3,Bradley Aaron,Mineral Wells,117.03,233.6,149.69,215.46,598.74,Single-ply,SBD,M
Boys,124.74,4,Eric Stonechek,Bridgeport,124.74,213.19,163.29,217.72,594.21,Single-ply,SBD,M
Boys,124.74,5,Nick Bourdelais,Millsap,121.38,226.8,108.86,181.44,517.1,Single-ply,SBD,M
Boys,124.74,6,Jonthan Goodner,Seymour,116.57,183.7,102.06,170.1,455.86,Single-ply,SBD,M
Boys,124.74,7,Hayden Keeney,Grandview,110.68,170.1,74.84,136.08,381.02,Single-ply,SBD,M
Boys,124.74,8,Braden Anderson,Tolar,116.75,149.69,79.38,136.08,365.14,Single-ply,SBD,M
Boys,124.74,DQ,Ricardo Martinez #5,Rio Vista,115.03,188.24,,,,Single-ply,SBD,M
Boys,124.74+,1,Caleb Jennings,Bridgeport,138.71,249.48,176.9,235.87,662.24,Single-ply,SBD,M
Boys,124.74+,2,Tyler Yzaguirre,Bridgeport,130.91,213.19,151.95,183.7,548.85,Single-ply,SBD,M
Boys,124.74+,3,Bryce Smith,Petrolia,129.73,176.9,108.86,158.76,444.52,Single-ply,SBD,M
