Division,WeightClassKg,Place,Name,Team,BodyweightKg,Best3SquatKg,Best3BenchKg,Best3DeadliftKg,TotalKg,Equipment,Event,Sex,BirthDate
Boys,51.71,2,Cameron Coots,Elkhart,48.63,83.91,43.09,99.79,226.8,Single-ply,SBD,M,
Boys,55.79,1,Alfonso Davis,Elkhart,51.8,99.79,47.63,99.79,247.21,Single-ply,SBD,M,
Boys,55.79,1,Eli Norcross,Wortham,52.98,111.13,65.77,136.08,312.98,Single-ply,SBD,M,
Boys,55.79,2,Tyler Albitier-Black,Mexia,55.25,113.4,61.23,127.01,301.64,Single-ply,SBD,M,
Boys,55.79,3,Francisco Saldania,Buffalo,53.98,102.06,56.7,136.08,294.84,Single-ply,SBD,M,
Boys,55.79,4,Joseph Guzman,Buffalo,55.34,102.06,70.31,113.4,285.76,Single-ply,SBD,M,
Boys,55.79,5,Tyler Case,Dawson,54.79,92.99,52.16,136.08,281.23,Single-ply,SBD,M,
Boys,55.79,6,Kaleb Gage,Grapeland,55.47,113.4,52.16,111.13,276.69,Single-ply,SBD,M,
Boys,55.79,DQ,Jacob Brown,Livingston,54.11,90.72,,,,Single-ply,SBD,M,
Boys,59.87,1,Logan Heller,Mexia,59.19,163.29,86.18,176.9,426.38,Single-ply,SBD,M,
Boys,59.87,2,Hayden Isbell,Teague,57.83,161.03,95.25,161.03,417.3,Single-ply,SBD,M,
Boys,59.87,4,Kyle Wright,Livingston,59.87,117.93,65.77,136.08,319.78,Single-ply,SBD,M,
Boys,59.87,5,Preston Batts,Wortham,59.33,117.93,63.5,136.08,317.51,Single-ply,SBD,M,
Boys,59.87,6,Henry Suggs,Frankston,56.38,111.13,70.31,127.01,308.44,Single-ply,SBD,M,
Boys,59.87,7,Chris Bradley,Mexia,55.93,104.33,56.7,122.47,283.5,Single-ply,SBD,M,
Boys,59.87,8,Xander Cheek,Buffalo,58.65,88.45,56.7,90.72,235.87,Single-ply,SBD,M,
Boys,67.13,1,Justin Legg,Livingston,66.81,199.58,133.81,217.72,551.11,Single-ply,SBD,M,
Boys,67.13,2,JJ Beckfield,Frankston,66.45,158.76,115.67,174.63,449.06,Single-ply,SBD,M,
Boys,67.13,3,Tyler Hunt,Palestine,62.37,158.76,124.74,158.76,442.25,Single-ply,SBD,M,
Boys,67.13,3,Avery Starr,Elkhart,60.01,136.08,68.04,136.08,340.19,Single-ply,SBD,M,
Boys,67.13,4,Jalil Wright,Mexia,63.5,156.49,92.99,188.24,437.72,Single-ply,SBD,M,
Boys,67.13,5,Justin Villatoro,Palestine,64.77,147.42,97.52,167.83,412.77,Single-ply,SBD,M,
Boys,67.13,6,Kennon Ross,Palestine,60.55,151.95,77.11,149.69,378.75,Single-ply,SBD,M,
Boys,67.13,7,Brealon Fagan,Hallsville,65.54,138.35,74.84,163.29,376.48,Single-ply,SBD,M,
Boys,67.13,8,Brandon Renteria,Buffalo,60.01,131.54,83.91,158.76,374.21,Single-ply,SBD,M,
Boys,67.13,9,Christian Marines,Pollok Central,64.41,142.88,83.91,147.42,374.21,Single-ply,SBD,M,
Boys,67.13,10,Carson Sifford,Teague,61.01,145.15,68.04,142.88,356.07,Single-ply,SBD,M,
Boys,67.13,11,Daniel Villareal,Centerville,63.96,136.08,90.72,127.01,353.8,Single-ply,SBD,M,
Boys,67.13,12,Landon Thomas,Elkhart,61.28,151.95,68.04,131.54,351.53,Single-ply,SBD,M,
Boys,67.13,13,John Davis #11,Elkhart,64.77,117.93,61.23,158.76,337.93,Single-ply,SBD,M,
Boys,67.13,14,James Webb,Centerville,62.73,113.4,77.11,142.88,333.39,Single-ply,SBD,M,
Boys,67.13,15,Sye Lytle,Centerville,62.82,127.01,70.31,136.08,333.39,Single-ply,SBD,M,
Boys,67.13,16,Jakob Janksoski,Dawson,62.05,122.47,68.04,136.08,326.59,Single-ply,SBD,M,
Boys,67.13,17,Isiah Brown,Palestine,66.68,111.13,77.11,138.35,326.59,Single-ply,SBD,M,
Boys,67.13,18,Abraham Saldana,Wortham,64.27,102.06,52.16,138.35,292.57,Single-ply,SBD,M,
Boys,67.13,19,Oscar Najera,Elkhart,61.64,106.59,56.7,124.74,288.03,Single-ply,SBD,M,
Boys,67.13,NS,Troy Ludwig,Normangee,,,,,,Single-ply,SBD,M,
Boys,74.84,1,Max Lara,Elkhart,70.85,163.29,74.84,158.76,396.89,Single-ply,SBD,M,
Boys,74.84,2,Catch Thompson,Buffalo,73.71,151.95,102.06,142.88,396.89,Single-ply,SBD,M,
Boys,74.84,3,Austin Massingill,Pollok Central,72.94,140.61,83.91,154.22,378.75,Single-ply,SBD,M,
Boys,74.84,4,Cameron Pate,Centerville,70.22,142.88,79.38,120.2,342.46,Single-ply,SBD,M,
Boys,74.84,5,Wyatt Comer,Hallsville,69.63,,54.43,117.93,172.37,Single-ply,BD,M,
Boys,74.84,NS,Pane Leathers,Centerville,,,,,,Single-ply,SBD,M,
Boys,74.84,NS,Michael Locke,Centerville,,,,,,Single-ply,SBD,M,
Boys,74.84,NS,Justin Birch,Frankston,,,,,,Single-ply,SBD,M,
Boys,82.1,1,Da'Maryiea Hamilton,Dawson,77.02,183.7,115.67,204.12,503.49,Single-ply,SBD,M,
Boys,82.1,2,Fabian Marquez,Elkhart,80.51,197.31,106.59,197.31,501.22,Single-ply,SBD,M,
Boys,82.1,3,Sean Rogers,Rusk,81.78,183.7,108.86,204.12,496.68,Single-ply,SBD,M,
Boys,82.1,4,Jarrell Wiley,Mexia,80.06,190.51,113.4,181.44,485.34,Single-ply,SBD,M,
Boys,82.1,5,Levi Elkins,Dawson,77.25,188.24,108.86,183.7,480.81,Single-ply,SBD,M,
Boys,82.1,6,Gage Gosse,Frankston,81.56,170.1,111.13,188.24,469.47,Single-ply,SBD,M,
Boys,82.1,7,Keshawn Nenette,Palestine,81.65,158.76,113.4,172.37,444.52,Single-ply,SBD,M,
Boys,82.1,8,Grant Foster,Frankston,78.24,165.56,111.13,165.56,442.25,Single-ply,SBD,M,
Boys,82.1,9,Dj Huggins,Hallsville,80.51,149.69,97.52,163.29,410.5,Single-ply,SBD,M,
Boys,82.1,10,Landon Bailey,Frankston,81.56,158.76,92.99,156.49,408.23,Single-ply,SBD,M,
Boys,82.1,11,Eddie Guerra,Dawson,82.1,149.69,88.45,170.1,408.23,Single-ply,SBD,M,
Boys,82.1,12,Rory William,Livingston,77.11,136.08,92.99,172.37,401.43,Single-ply,SBD,M,
Boys,82.1,13,Jared Cook,Frankston,80.2,158.76,97.52,142.88,399.16,Single-ply,SBD,M,
Boys,82.1,14,Dacota Walker,Elkhart,81.87,142.88,79.38,165.56,387.82,Single-ply,SBD,M,
Boys,82.1,15,Peyton McCormick,Dawson,74.98,147.42,79.38,154.22,381.02,Single-ply,SBD,M,
Boys,82.1,16,Oscar Garcia,Buffalo,75.21,102.06,65.77,127.01,294.84,Single-ply,SBD,M,
Boys,82.1,17,Jackson Hilliard,Hallsville,75.98,113.4,,,113.4,Single-ply,S,M,
Boys,82.1,NS,Cameron Williams,Hallsville,,,,,,Single-ply,SBD,M,
Boys,89.81,1,Alex Marston,Malakoff Cross Roads,85.5,233.6,111.13,215.46,560.19,Single-ply,SBD,M,
Boys,89.81,2,Xavier Minniola,Livingston,87.45,170.1,113.4,174.63,458.13,Single-ply,SBD,M,
Boys,89.81,3,Koleton Latham,Buffalo,88.22,174.63,86.18,158.76,419.57,Single-ply,SBD,M,
Boys,89.81,4,Caleb Whimsey,Hallsville,87.32,142.88,90.72,172.37,405.97,Single-ply,SBD,M,
Boys,89.81,5,Adrian Gongora,Buffalo,89.36,136.08,83.91,183.7,403.7,Single-ply,SBD,M,
Boys,89.81,6,Eden Mayhall,Palestine,86.18,142.88,97.52,158.76,399.16,Single-ply,SBD,M,
Boys,89.81,7,Tyler Fridinger,Frankston,85.5,147.42,79.38,165.56,392.36,Single-ply,SBD,M,
Boys,89.81,8,Dontarious Daniels,Mexia,83.23,129.27,70.31,190.51,390.09,Single-ply,SBD,M,
Boys,89.81,9,Johnathan Merryman,Hallsville,86.41,165.56,70.31,151.95,387.82,Single-ply,SBD,M,
Boys,89.81,10,Jose Alcantara,Dawson,89.45,158.76,74.84,149.69,383.29,Single-ply,SBD,M,
Boys,89.81,11,Kyle Coleman,Pollok Central,84.59,136.08,74.84,145.15,356.07,Single-ply,SBD,M,
Boys,89.81,12,Bj Latham,Buffalo,86.86,113.4,65.77,158.76,337.93,Single-ply,SBD,M,
Boys,89.81,NS,Brian Rutledge,Centerville,,,,,,Single-ply,SBD,M,
Boys,99.79,1,Juan Perez,Frankston,94.12,217.72,136.08,240.4,594.21,Single-ply,SBD,M,
Boys,99.79,2,Dre'Vaun Cooper,Mexia,92.9,244.94,108.86,217.72,571.53,Single-ply,SBD,M,
Boys,99.79,3,Bryson Crowley,Centerville,97.52,215.46,124.74,204.12,544.31,Single-ply,SBD,M,
Boys,99.79,4,Abel Salazar,Buffalo,96.84,197.31,104.33,181.44,483.08,Single-ply,SBD,M,
Boys,99.79,5,Camron Spurlock,Palestine,90.04,181.44,111.13,172.37,464.93,Single-ply,SBD,M,
Boys,99.79,6,Aj Molina,Wortham,95.62,192.78,90.72,181.44,464.93,Single-ply,SBD,M,
Boys,99.79,7,Hunter Warford,Hallsville,90.26,161.03,99.79,165.56,426.38,Single-ply,SBD,M,
Boys,99.79,8,Carson Smith,Pollok Central,92.31,142.88,79.38,167.83,390.09,Single-ply,SBD,M,
Boys,99.79,9,Michael Chasteen,Wortham,92.08,142.88,61.23,131.54,335.66,Single-ply,SBD,M,
Boys,99.79,10,Marcus Zamora,Teague,96.62,115.67,70.31,142.88,328.85,Single-ply,SBD,M,
Boys,109.77,1,Nick Acker,Rusk,105.14,244.94,136.08,215.46,596.47,Single-ply,SBD,M,
Boys,109.77,2,Zane Guerra,Dawson,106.14,219.99,138.35,226.8,585.13,Single-ply,SBD,M,
Boys,109.77,3,Cj Hicks,Palestine,103.65,226.8,147.42,204.12,578.33,Single-ply,SBD,M,
Boys,109.77,4,James Nehk,Hallsville,105.01,219.99,117.93,235.87,573.79,Single-ply,SBD,M,
Boys,109.77,5,Jacob Nugent,Elkhart,108,210.92,117.93,208.65,537.51,Single-ply,SBD,M,
Boys,109.77,6,Lane Gilchrest,Rusk,104.1,192.78,102.06,192.78,487.61,Single-ply,SBD,M,
Boys,109.77,7,Cameron Spain,Dawson,104.24,183.7,106.59,195.04,485.34,Single-ply,SBD,M,
Boys,109.77,8,Reese Boyd,Buffalo,101.97,145.15,86.18,142.88,374.21,Single-ply,SBD,M,
Boys,109.77,9,Rodrigo Carrillo,Buffalo,102.06,142.88,74.84,142.88,360.61,Single-ply,SBD,M,
Boys,109.77,NS,Jackson Norton,Hallsville,,,,,,Single-ply,SBD,M,
Boys,109.77,DQ,Brayan Luna,Mexia,102.74,226.8,,210.92,,Single-ply,SBD,M,
Boys,124.74,1,Arik Medlock,Mexia,119.52,233.6,124.74,240.4,598.74,Single-ply,SBD,M,
Boys,124.74,2,Asa Henson,Buffalo,118.98,226.8,133.81,235.87,596.47,Single-ply,SBD,M,
Boys,124.74,3,Bj Kelly,Centerville,112.4,197.31,124.74,188.24,510.29,Single-ply,SBD,M,
Boys,124.74,4,Alex Pagralta,Hallsville,111.27,190.51,115.67,190.51,496.68,Single-ply,SBD,M,
Boys,124.74,5,Dillian Brent,Centerville,111.95,165.56,133.81,190.51,489.88,Single-ply,SBD,M,
Boys,124.74,6,Kyle Bridges,Pollok Central,121.7,199.58,99.79,183.7,483.08,Single-ply,SBD,M,
Boys,124.74,7,Tanner Ross,Pollok Central,116.94,195.04,111.13,172.37,478.54,Single-ply,SBD,M,
Boys,124.74,8,Raul Cazares,Elkhart,114.12,158.76,102.06,183.7,444.52,Single-ply,SBD,M,
Boys,124.74,9,Jaden Ridgeway,Hallsville,111.72,147.42,72.57,149.69,369.68,Single-ply,SBD,M,
Boys,124.74+,1,Josh Encinia,Dawson,141.97,231.33,136.08,190.51,557.92,Single-ply,SBD,M,
Boys,124.74+,2,Jamyrian Black,Palestine,130.63,199.58,142.88,210.92,553.38,Single-ply,SBD,M,
Boys,124.74+,3,Terry Reel,Teague,127.01,215.46,124.74,197.31,537.51,Single-ply,SBD,M,
Boys,124.74+,4,Quamaine Robinson,Dawson,140.16,231.33,113.4,188.24,532.97,Single-ply,SBD,M,
Boys,124.74+,5,Jason DeCluette,Grapeland,136.53,204.12,111.13,181.44,496.68,Single-ply,SBD,M,
Boys,124.74+,6,Jaimie Escobedo,Mexia,125.33,199.58,113.4,172.37,485.34,Single-ply,SBD,M,
Boys,124.74+,7,Jacob Adams,Mexia,125.33,156.49,111.13,188.24,455.86,Single-ply,SBD,M,
Boys,124.74+,8,Chriss Stiff,Palestine,134.17,188.24,102.06,142.88,433.18,Single-ply,SBD,M,
Boys,124.74+,9,Jeremiah M,Palestine,157.85,142.88,72.57,154.22,369.68,Single-ply,SBD,M,
Boys,124.74+,NS,Jake McCllelan,Wortham,,,,,,Single-ply,SBD,M,
Boys,,NS,Cody Carpenter,Elkhart,,81.65,,,,Single-ply,SBD,M,
