Division,WeightClassKg,Place,Name,Team,BodyweightKg,Best3SquatKg,Best3BenchKg,Best3DeadliftKg,TotalKg,Equipment,Event,Sex,BirthDate
Girls,44.23,1,Michelle Paredes,Carrizo Springs,44.09,97.52,52.16,99.79,249.48,Single-ply,SBD,F,
Girls,44.23,2,Natalie Garza,Dilley,42.18,90.72,43.09,113.4,247.21,Single-ply,SBD,F,
Girls,44.23,3,Alicia Rios,Crystal City,41.73,90.72,43.09,90.72,224.53,Single-ply,SBD,F,
Girls,44.23,4,Ariana Reyes,Uvalde,42.55,88.45,43.09,92.99,224.53,Single-ply,SBD,F,
Girls,44.23,5,Joshlyn Cardenas,Uvalde,44,77.11,40.82,92.99,210.92,Single-ply,SBD,F,
Girls,44.23,6,Davira Gonzalez,Cotulla,43.73,68.04,38.56,90.72,197.31,Single-ply,SBD,F,
Girls,44.23,7,Katherine Alvarez,La Pryor,44.18,61.23,34.02,102.06,197.31,Single-ply,SBD,F,
Girls,44.23,8,Sol Seivera,Pearsall,43,77.11,40.82,72.57,190.51,Single-ply,SBD,F,
Girls,47.85,1,Alamar Garcia,Pearsall,47.08,136.08,68.04,124.74,328.85,Single-ply,SBD,F,
Girls,47.85,2,Ana Granados,Crystal City,47.17,127.01,70.31,115.67,312.98,Single-ply,SBD,F,
Girls,47.85,3,Devany Reyna,Pearsall,46.08,120.2,58.97,117.93,297.1,Single-ply,SBD,F,
Girls,47.85,4,Leandra Gandara,Pearsall,47.26,111.13,56.7,120.2,288.03,Single-ply,SBD,F,
Girls,47.85,5,Gabby Riojas,Carrizo Springs,46.27,113.4,40.82,120.2,274.42,Single-ply,SBD,F,
Girls,47.85,6,Johnelli Gutierrez,Crystal City,47.63,111.13,54.43,92.99,258.55,Single-ply,SBD,F,
Girls,47.85,7,Alyson Lombrana,Crystal City,47.76,104.33,47.63,104.33,256.28,Single-ply,SBD,F,
Girls,47.85,8,Lori Mendez,Carrizo Springs,46.9,102.06,49.9,102.06,254.01,Single-ply,SBD,F,
Girls,47.85,9,Sofia Torres,Uvalde,45.45,92.99,43.09,108.86,244.94,Single-ply,SBD,F,
Girls,47.85,10,Brianna Avila,Carrizo Springs,47.81,95.25,40.82,102.06,238.14,Single-ply,SBD,F,
Girls,47.85,11,Lauren Salazar,Carrizo Springs,47.81,77.11,38.56,99.79,215.46,Single-ply,SBD,F,
Girls,47.85,12,Mia Martinez,Uvalde,45.81,72.57,40.82,81.65,195.04,Single-ply,SBD,F,
Girls,47.85,13,Arianna Sanchez,Uvalde,47.45,52.16,27.22,72.57,151.95,Single-ply,SBD,F,
Girls,51.94,1,Amanda Aguilar,Uvalde,50.53,120.2,56.7,124.74,301.64,Single-ply,SBD,F,
Girls,51.94,2,Alina Estrada,Crystal City,51.89,124.74,52.16,115.67,292.57,Single-ply,SBD,F,
Girls,51.94,3,Veronica Martinez,Crystal City,47.9,99.79,52.16,111.13,263.08,Single-ply,SBD,F,
Girls,51.94,4,Blanca Muniz,Dilley,51.8,106.59,45.36,111.13,263.08,Single-ply,SBD,F,
Girls,51.94,5,Stephanie Flores,Dilley,51.89,97.52,45.36,115.67,258.55,Single-ply,SBD,F,
Girls,51.94,6,Ivanna Olivarez,Crystal City,50.8,113.4,47.63,90.72,251.74,Single-ply,SBD,F,
Girls,51.94,7,Jaslyn Ochoa,Dilley,50.53,92.99,47.63,106.59,247.21,Single-ply,SBD,F,
Girls,51.94,8,Alexis Garcia,La Pryor,48.9,83.91,34.02,102.06,219.99,Single-ply,SBD,F,
Girls,51.94,9,Hanna Marin,Somerset,50.17,72.57,36.29,72.57,181.44,Single-ply,SBD,F,
Girls,56.02,1,America Fernandez,Somerset,55.97,190.51,124.74,138.35,453.59,Single-ply,SBD,F,
Girls,56.02,2,Kristal Rodriguez,Dilley,55.52,129.27,88.45,136.08,353.8,Single-ply,SBD,F,
Girls,56.02,3,Gabby Moncada,Crystal City,53.52,138.35,70.31,129.27,337.93,Single-ply,SBD,F,
Girls,56.02,4,Kaylee Longoria,Carrizo Springs,55.25,129.27,58.97,129.27,317.51,Single-ply,SBD,F,
Girls,56.02,5,Amber Gonzales,Uvalde,54.34,97.52,56.7,104.33,258.55,Single-ply,SBD,F,
Girls,56.02,6,Morgan Smith,La Pryor,55.88,92.99,47.63,104.33,244.94,Single-ply,SBD,F,
Girls,56.02,7,Angelica Lopez,Crystal City,55.79,90.72,43.09,63.5,197.31,Single-ply,SBD,F,
Girls,56.02,8,Melfina Romas,Somerset,54.43,68.04,29.48,83.91,181.44,Single-ply,SBD,F,
Girls,56.02,DQ,Jayce Ortiz,Pearsall,55.16,97.52,,,,Single-ply,SBD,F,
Girls,60.1,1,Jennifer Benavidez,Cotulla,60.06,142.88,72.57,145.15,360.61,Single-ply,SBD,F,
Girls,60.1,2,Rosie Martinez,Crystal City,59.96,145.15,61.23,127.01,333.39,Single-ply,SBD,F,
Girls,60.1,3,Reyna Martel,Dilley,56.88,129.27,61.23,136.08,326.59,Single-ply,SBD,F,
Girls,60.1,4,Madalyn Armendariz,Crystal City,58.42,115.67,79.38,124.74,319.78,Single-ply,SBD,F,
Girls,60.1,5,Anamarie Rodriguez,Dilley,59.15,129.27,58.97,129.27,317.51,Single-ply,SBD,F,
Girls,60.1,6,Klarissa Sonora,Uvalde,57.06,115.67,61.23,122.47,299.37,Single-ply,SBD,F,
Girls,60.1,7,Hailey Medrano,Pearsall,56.97,92.99,52.16,108.86,254.01,Single-ply,SBD,F,
Girls,60.1,8,Emily Valle,Pearsall,59.6,99.79,47.63,104.33,251.74,Single-ply,SBD,F,
Girls,60.1,9,Kyrsten Ruiz,Dilley,56.61,102.06,52.16,92.99,247.21,Single-ply,SBD,F,
Girls,60.1,10,Johscelynn Garcia,Crystal City,59.42,106.59,38.56,92.99,238.14,Single-ply,SBD,F,
Girls,67.36,1,Stephanie Benavidez,Cotulla,64.95,167.83,83.91,142.88,394.63,Single-ply,SBD,F,
Girls,67.36,2,Stormi Balderas,Carrizo Springs,66.04,133.81,65.77,124.74,324.32,Single-ply,SBD,F,
Girls,67.36,3,Priscilla Alvarez,Uvalde,66.41,127.01,72.57,124.74,324.32,Single-ply,SBD,F,
Girls,67.36,4,Jodycee Truijillo,Carrizo Springs,66.13,131.54,61.23,129.27,322.05,Single-ply,SBD,F,
Girls,67.36,5,Bianca Cordova,Cotulla,64.95,136.08,61.23,122.47,319.78,Single-ply,SBD,F,
Girls,67.36,6,Iressa Perez,Crystal City,67.13,122.47,68.04,117.93,308.44,Single-ply,SBD,F,
Girls,67.36,7,Zenestina Perez,Dilley,61.14,115.67,49.9,138.35,303.91,Single-ply,SBD,F,
Girls,67.36,8,Samara Gandara,Pearsall,67.13,117.93,61.23,124.74,303.91,Single-ply,SBD,F,
Girls,67.36,9,Kristina Munoz,Carrizo Springs,66.86,117.93,56.7,122.47,297.1,Single-ply,SBD,F,
Girls,67.36,10,Oceana Cooper,Crystal City,66.68,108.86,58.97,122.47,290.3,Single-ply,SBD,F,
Girls,67.36,11,Brendela Avalos,Carrizo Springs,66.68,133.81,52.16,102.06,288.03,Single-ply,SBD,F,
Girls,67.36,12,Alexandra Castro,La Pryor,64.86,97.52,43.09,102.06,242.67,Single-ply,SBD,F,
Girls,67.36,13,JoAnn Navarro,Uvalde,65.32,90.72,38.56,108.86,238.14,Single-ply,SBD,F,
Girls,67.36,DQ,Haley Gallegos,La Pryor,63.5,79.38,,,,Single-ply,SBD,F,
Girls,67.36,DQ,Alyssa Lombrana,Crystal City,66.68,145.15,,,,Single-ply,SBD,F,
Girls,75.07,1,Giana Rios,Crystal City,75.07,181.44,81.65,149.69,412.77,Single-ply,SBD,F,
Girls,75.07,2,Elizabeth Camacho,Hondo,72.12,151.95,72.57,149.69,374.21,Single-ply,SBD,F,
Girls,75.07,3,Lyna Castorena,Crystal City,70.31,161.03,70.31,127.01,358.34,Single-ply,SBD,F,
Girls,75.07,4,Isanelle Escamilla,Crystal City,71.67,158.76,74.84,106.59,340.19,Single-ply,SBD,F,
Girls,75.07,5,Marissa Ramirez,Crystal City,71.21,136.08,68.04,124.74,328.85,Single-ply,SBD,F,
Girls,75.07,6,Makayla Jasso,Pearsall,71.03,120.2,74.84,104.33,299.37,Single-ply,SBD,F,
Girls,75.07,7,Viviana Rodriguez,Uvalde,70.85,115.67,61.23,108.86,285.76,Single-ply,SBD,F,
Girls,75.07,8,Alma Garza,La Pryor,69.31,104.33,43.09,122.47,269.89,Single-ply,SBD,F,
Girls,75.07,9,Caeliegh Muennink,Hondo,72.39,92.99,49.9,102.06,244.94,Single-ply,SBD,F,
Girls,75.07,10,Guadalupe Juantos,La Pryor,69.49,72.57,43.09,86.18,201.85,Single-ply,SBD,F,
Girls,75.07,DQ,Iliana Ramirez,Crystal City,72.57,,,,,Single-ply,SBD,F,
Girls,75.07,DQ,Leah Martinez,Pearsall,74.3,108.86,,,,Single-ply,SBD,F,
Girls,82.33,1,Alizah Rodriguez,Crystal City,82.19,167.83,74.84,136.08,378.75,Single-ply,SBD,F,
Girls,82.33,2,Janel Garcia,Uvalde,82.19,158.76,65.77,149.69,374.21,Single-ply,SBD,F,
Girls,82.33,3,Lexi Ramirez,Dilley,75.93,142.88,68.04,120.2,331.12,Single-ply,SBD,F,
Girls,82.33,4,Marisela Lopez,Crystal City,81.19,124.74,68.04,131.54,324.32,Single-ply,SBD,F,
Girls,82.33,5,Kelsey Eguia,Dilley,75.48,136.08,47.63,131.54,315.25,Single-ply,SBD,F,
Girls,82.33,6,Aaliya Pena,Crystal City,78.02,106.59,43.09,106.59,256.28,Single-ply,SBD,F,
Girls,82.33,DQ,Angelina Alvizo,Hondo,81.92,142.88,52.16,,,Single-ply,SBD,F,
Girls,82.33,DQ,Viviana Torres,Crystal City,77.11,,,,,Single-ply,SBD,F,
Girls,90.04,1,Maria Rodriguez,Crystal City,83.46,229.06,136.08,185.97,551.11,Single-ply,SBD,F,
Girls,90.04,2,Alex Soto,Crystal City,90.04,174.63,83.91,149.69,408.23,Single-ply,SBD,F,
Girls,90.04,3,Regina Seidel,Cotulla,88.09,174.63,79.38,151.95,405.97,Single-ply,SBD,F,
Girls,90.04,4,Ailyne Puente,Crystal City,85.28,124.74,49.9,131.54,306.17,Single-ply,SBD,F,
Girls,90.04,5,Lea Perez,Crystal City,84.82,113.4,49.9,102.06,265.35,Single-ply,SBD,F,
Girls,100.02,1,Brittany Briseno,Pearsall,91.72,161.03,86.18,163.29,410.5,Single-ply,SBD,F,
Girls,100.02,2,Lillian Gonzalez,Cotulla,98.61,167.83,83.91,136.08,387.82,Single-ply,SBD,F,
Girls,100.02,3,Jenivae Rodriguez,Cotulla,92.71,151.95,74.84,136.08,362.87,Single-ply,SBD,F,
Girls,117.71,1,Bethanie Rodriguez,Crystal City,101.6,238.14,142.88,174.63,555.65,Single-ply,SBD,F,
Girls,117.71,2,Ashlyn Wiekle,Somerset,107.32,181.44,124.74,165.56,471.74,Single-ply,SBD,F,
Girls,117.71,3,Ariel Rangel,Somerset,116.12,192.78,111.13,145.15,449.06,Single-ply,SBD,F,
Girls,117.71,4,Cerina Smith,Carrizo Springs,110.77,195.04,70.31,142.88,408.23,Single-ply,SBD,F,
Girls,117.71,5,Andriah Trevino,Uvalde,106.59,167.83,72.57,165.56,405.97,Single-ply,SBD,F,
Girls,117.71,6,Saylene Torres,Dilley,114.12,165.56,61.23,149.69,376.48,Single-ply,SBD,F,
Girls,117.71,7,Sydney Ybarra,Dilley,103.24,120.2,45.36,106.59,272.16,Single-ply,SBD,F,
Girls,117.71,DQ,Samantha Quiroz,Uvalde,111.77,117.93,,,,Single-ply,SBD,F,
Girls,117.71+,1,Clarissa Ramirez,Crystal City,127.46,122.47,81.65,113.4,317.51,Single-ply,SBD,F,
Girls,,NS,Ileana Ramirez,Crystal City,,,,,,Single-ply,SBD,F,
Girls,,NS,Aubree Ferrin,Hondo,,,,,,Single-ply,SBD,F,
