Division,WeightClassKg,Place,Name,Team,BodyweightKg,Best3SquatKg,Best3BenchKg,Best3DeadliftKg,TotalKg,Equipment,Event,Sex
Boys,51.71,1,Ricky Guerra,Poteet,50.08,127.01,90.72,142.88,360.61,Single-ply,SBD,M
Boys,51.71,2,Josh Nowlin,San Antonio East Central,50.08,131.54,77.11,138.35,347,Single-ply,SBD,M
Boys,51.71,3,Paul Arocha,Devine,51.53,131.54,83.91,127.01,342.46,Single-ply,SBD,M
Boys,51.71,4,Max Obregon,Dilley,50.08,133.81,68.04,136.08,337.93,Single-ply,SBD,M
Boys,51.71,5,Jeremiah Jimenez,Lytle,50.08,127.01,63.5,142.88,333.39,Single-ply,SBD,M
Boys,51.71,6,Sid Alcoser,Somerset,51.44,131.54,58.97,142.88,333.39,Single-ply,SBD,M
Boys,55.79,7,Josh Ramirez,Kyle Lehman,51.8,117.93,77.11,136.08,331.12,Single-ply,SBD,M
Boys,51.71,8,Joel Rodriguez,Castroville Medina Valley,51.17,102.06,77.11,142.88,322.05,Single-ply,SBD,M
Boys,51.71,9,Daniel Rodriquez,Poteet,51.26,120.2,61.23,133.81,315.25,Single-ply,SBD,M
Boys,51.71,10,Jesus Gomez,Somerset,51.17,97.52,68.04,131.54,297.1,Single-ply,SBD,M
Boys,55.79,1,John Guillen,Lytle,55.34,161.03,102.06,165.56,428.64,Single-ply,SBD,M
Boys,55.79,2,Sawyer Yandell,Devine,55.34,161.03,74.84,138.35,374.21,Single-ply,SBD,M
Boys,59.87,3,Felix Gutierrez,Crystal City,55.97,131.54,92.99,140.61,365.14,Single-ply,SBD,M
Boys,55.79,4,John Dominguez,Somerset,53.61,131.54,63.5,142.88,337.93,Single-ply,SBD,M
Boys,55.79,5,Alan Espinosa,Dilley,55.34,129.27,70.31,136.08,335.66,Single-ply,SBD,M
Boys,59.87,6,Hector Gonzalez,Comfort,55.97,120.2,63.5,124.74,308.44,Single-ply,SBD,M
Boys,59.87,1,Leonard Garza,Poteet,58.42,188.24,111.13,170.1,469.47,Single-ply,SBD,M
Boys,59.87,2,Caleb Gale,Somerset,58.33,181.44,95.25,188.24,464.93,Single-ply,SBD,M
Boys,59.87,3,Josh Lomas,Crystal City,56.25,165.56,92.99,170.1,428.64,Single-ply,SBD,M
Boys,59.87,4,Ronald Sanchez,Poteet,59.69,165.56,77.11,165.56,408.23,Single-ply,SBD,M
Boys,59.87,5,Steven Garza,Crystal City,59.24,154.22,79.38,163.29,396.89,Single-ply,SBD,M
Boys,59.87,6,Elvis Benitez,San Antonio East Central,59.6,142.88,108.86,142.88,394.63,Single-ply,SBD,M
Boys,59.87,7,Luis Flores,Poteet,59.15,149.69,70.31,151.95,371.95,Single-ply,SBD,M
Boys,67.13,8,Allan Patty,San Antonio East Central,60.06,138.35,61.23,136.08,335.66,Single-ply,SBD,M
Boys,59.87,9,Mark Salinas,Castroville Medina Valley,59.06,133.81,65.77,133.81,333.39,Single-ply,SBD,M
Boys,67.13,10,Angel Gonzales,Uvalde,60.06,113.4,70.31,136.08,319.78,Single-ply,SBD,M
Boys,67.13,11,Ezekiel Cortez,Castroville Medina Valley,60.06,106.59,68.04,136.08,310.71,Single-ply,SBD,M
Boys,59.87,DQ,Logan Adair,Barksdale Nueces Canyon,57.42,,,,,Single-ply,SBD,M
Boys,59.87,DQ,Jacob Tomlinson,Medina,59.87,136.08,68.04,,,Single-ply,SBD,M
Boys,67.13,1,Robert Carrasco,Pleasanton,66.13,244.94,99.79,204.12,548.85,Single-ply,SBD,M
Boys,74.84,2,Ozzy Varela,Somerset,67.31,183.7,117.93,204.12,505.76,Single-ply,SBD,M
Boys,67.13,DQ,Brandon Alford,Kyle Lehman,63.41,,,,,Single-ply,SBD,M
Boys,67.13,4,Thomas Garza,San Antonio East Central,65.05,176.9,115.67,161.03,453.59,Single-ply,SBD,M
Boys,67.13,5,Jacob Rodriguez,Crystal City,65.59,165.56,95.25,181.44,442.25,Single-ply,SBD,M
Boys,67.13,6,Chris Marachi,Universal City Randolph,67.04,156.49,108.86,158.76,424.11,Single-ply,SBD,M
Boys,67.13,7,Andy Rivera,Universal City Randolph,66.32,142.88,95.25,172.37,410.5,Single-ply,SBD,M
Boys,67.13,8,Mason Lindner,Comfort,67.04,158.76,106.59,142.88,408.23,Single-ply,SBD,M
Boys,67.13,9,Alfredo Ramon,Uvalde,66.41,149.69,90.72,158.76,399.16,Single-ply,SBD,M
Boys,67.13,10,Trever Horvath,Castroville Medina Valley,64.23,142.88,99.79,147.42,390.09,Single-ply,SBD,M
Boys,67.13,11,Ozzy Gonzalez,Somerset,63.96,163.29,74.84,149.69,387.82,Single-ply,SBD,M
Boys,67.13,12,Michael Davis #1,San Antonio East Central,64.68,154.22,77.11,156.49,387.82,Single-ply,SBD,M
Boys,67.13,13,Rey Martinez,Pearsall,65.77,142.88,88.45,147.42,378.75,Single-ply,SBD,M
Boys,67.13,14,Hans Torres,Bandera,66.77,131.54,92.99,154.22,378.75,Single-ply,SBD,M
Boys,67.13,15,Liam Brennan,Boerne Champion,66.86,142.88,90.72,145.15,378.75,Single-ply,SBD,M
Boys,67.13,16,Taylor Carrillo,Lytle,66.86,136.08,88.45,151.95,376.48,Single-ply,SBD,M
Boys,67.13,17,Miguel Cano,Pleasanton,66.41,136.08,81.65,154.22,371.95,Single-ply,SBD,M
Boys,67.13,18,Mario Cano,Pleasanton,61.78,124.74,70.31,149.69,344.73,Single-ply,SBD,M
Boys,74.84,19,Jim Partida,Pleasanton,67.31,136.08,83.91,117.93,337.93,Single-ply,SBD,M
Boys,67.13,20,Jacob Rivera,Uvalde,63.5,136.08,63.5,113.4,312.98,Single-ply,SBD,M
Boys,67.13,21,Felipe Samora,Rocksprings,61.6,92.99,79.38,115.67,288.03,Single-ply,SBD,M
Boys,67.13,22,Zach Burdosky,Uvalde,62.96,102.06,56.7,124.74,283.5,Single-ply,SBD,M
Boys,67.13,23,Francisco Martinez,Poteet,62.87,95.25,72.57,108.86,276.69,Single-ply,SBD,M
Boys,67.13,24,Victor Chintun,Pearsall,60.69,133.81,77.11,,210.92,Single-ply,SB,M
Boys,67.13,25,Drake Le Sturgeon,Medina,63.23,102.06,72.57,,174.63,Single-ply,SB,M
Boys,67.13,DQ,Joseph Rios,San Antonio Kennedy,64.68,,,,,Single-ply,SB,M
Boys,67.13,DQ,Austin Gonzales,San Antonio Southside,64.77,124.74,,,,Single-ply,SB,M
Boys,67.13,DQ,Andrew Mainini,Boerne Champion,65.59,142.88,83.91,,,Single-ply,SB,M
Boys,74.84,1,Jon Frasier,Kyle Lehman,73.48,247.21,163.29,229.06,639.57,Single-ply,SBD,M
Boys,74.84,2,Arturo Cervantez,Crystal City,73.3,231.33,138.35,235.87,605.55,Single-ply,SBD,M
Boys,74.84,3,Pedro Molina,Somerset,73.94,226.8,122.47,240.4,589.67,Single-ply,SBD,M
Boys,82.1,4,Mark Trevino,Kyle Lehman,75.02,195.04,124.74,197.31,517.1,Single-ply,SBD,M
Boys,74.84,5,Jason Jungman,Castroville Medina Valley,74.84,192.78,113.4,188.24,494.42,Single-ply,SBD,M
Boys,74.84,6,Zack Bosquez,Comfort,74.66,165.56,108.86,204.12,478.54,Single-ply,SBD,M
Boys,74.84,7,Will Perrin,Universal City Randolph,72.67,183.7,81.65,201.85,467.2,Single-ply,SBD,M
Boys,74.84,8,Israel Pacheco,Somerset,72.39,142.88,86.18,204.12,433.18,Single-ply,SBD,M
Boys,74.84,9,Jon Ventura,Pearsall,73.66,145.15,102.06,183.7,430.91,Single-ply,SBD,M
Boys,82.1,10,Daniel Ramirez,San Antonio Kennedy,74.93,156.49,97.52,156.49,410.5,Single-ply,SBD,M
Boys,74.84,11,Chris Guzman,Poteet,68.22,142.88,83.91,176.9,403.7,Single-ply,SBD,M
Boys,74.84,12,Cody Kruse,Pleasanton,72.67,124.74,79.38,158.76,362.87,Single-ply,SBD,M
Boys,74.84,13,Christian Salas,Rocksprings,70.22,136.08,79.38,145.15,360.61,Single-ply,SBD,M
Boys,74.84,14,Corey Spencer,Comfort,72.03,131.54,70.31,158.76,360.61,Single-ply,SBD,M
Boys,74.84,15,Eric Luke,Comfort,74.3,131.54,74.84,145.15,351.53,Single-ply,SBD,M
Boys,74.84,16,Christopher Vinton,Pearsall,72.03,124.74,77.11,140.61,342.46,Single-ply,SBD,M
Boys,74.84,17,Chris Taylor,Comfort,68.76,115.67,65.77,142.88,324.32,Single-ply,SBD,M
Boys,74.84,18,Josh Valderama,Boerne Champion,74.57,61.23,95.25,151.95,308.44,Single-ply,SBD,M
Boys,82.1,1,Alex Elizondo,Pearsall,81.92,254.01,147.42,229.06,630.49,Single-ply,SBD,M
Boys,82.1,2,Joey Perez,Crystal City,80.56,229.06,149.69,195.04,573.79,Single-ply,SBD,M
Boys,82.1,3,Jacob Ritch,San Antonio East Central,75.75,213.19,145.15,199.58,557.92,Single-ply,SBD,M
Boys,82.1,4,Jj Elias,Somerset,81.56,215.46,115.67,215.46,546.58,Single-ply,SBD,M
Boys,82.1,5,Justin Quesada,Somerset,80.83,206.38,129.27,204.12,539.77,Single-ply,SBD,M
Boys,82.1,6,Rueben Hinojosa,Lytle,79.65,192.78,104.33,231.33,528.44,Single-ply,SBD,M
Boys,82.1,7,Guy Garcia,Dilley,77.47,181.44,136.08,204.12,521.63,Single-ply,SBD,M
Boys,82.1,8,Nate Cantrell,Comfort,76.02,195.04,129.27,188.24,512.56,Single-ply,SBD,M
Boys,82.1,9,Jacob Gonzales,San Antonio East Central,78.2,206.38,106.59,185.97,498.95,Single-ply,SBD,M
Boys,82.1,10,Dillian Bushway,Crystal City,82.1,185.97,102.06,208.65,496.68,Single-ply,SBD,M
Boys,82.1,11,Shaq Henry,Universal City Randolph,80.38,185.97,104.33,185.97,476.27,Single-ply,SBD,M
Boys,82.1,12,Michael Bustamante,Somerset,78.83,156.49,97.52,158.76,412.77,Single-ply,SBD,M
Boys,82.1,13,Rigo Bueno,Uvalde,77.47,163.29,95.25,151.95,410.5,Single-ply,SBD,M
Boys,82.1,14,Hector Martinez,San Antonio Kennedy,80.2,136.08,95.25,167.83,399.16,Single-ply,SBD,M
Boys,82.1,15,EJ Flores,Boerne Champion,81.47,147.42,97.52,147.42,392.36,Single-ply,SBD,M
Boys,82.1,16,Thomas Trevino,Pleasanton,81.65,158.76,88.45,142.88,390.09,Single-ply,SBD,M
Boys,82.1,17,Dillon Forbes,Boerne Champion,79.92,129.27,90.72,142.88,362.87,Single-ply,SBD,M
Boys,82.1,18,Ryan Schulmeier,San Antonio Southside,75.21,113.4,61.23,136.08,310.71,Single-ply,SBD,M
Boys,82.1,DQ,Alec Connaly,Bandera,80.65,201.85,127.01,,,Single-ply,SBD,M
Boys,82.1,DQ,Joseph Sadler,Devine,78.11,,,,,Single-ply,SBD,M
Boys,82.1,DQ,Bailey Walker,Comfort,78.38,,,,,Single-ply,SBD,M
Boys,82.1,DQ,Taylor Mosley,Medina,76.2,97.52,65.77,,,Single-ply,SBD,M
Boys,82.1,DQ,Ryan Mason,Medina,77.75,136.08,95.25,,,Single-ply,SBD,M
Boys,82.1,DQ,Alex Flores,Medina,77.75,117.93,77.11,,,Single-ply,SBD,M
Boys,82.1,DQ,Jake Martinez,Lytle,75.48,156.49,97.52,,,Single-ply,SBD,M
Boys,89.81,1,Harvest Trammell,Kyle Lehman,89.54,219.99,124.74,233.6,578.33,Single-ply,SBD,M
Boys,89.81,2,Cole Thompson,Universal City Randolph,84.1,204.12,117.93,213.19,535.24,Single-ply,SBD,M
Boys,89.81,3,Esteban Ferdin,Lytle,87.54,219.99,113.4,192.78,526.17,Single-ply,SBD,M
Boys,89.81,4,Ethan Martin,Kyle Lehman,86,190.51,102.06,226.8,519.36,Single-ply,SBD,M
Boys,89.81,5,Logan Garza,Castroville Medina Valley,88.9,208.65,113.4,188.24,510.29,Single-ply,SBD,M
Boys,89.81,6,Josh Falcon,San Antonio East Central,84.37,197.31,111.13,195.04,503.49,Single-ply,SBD,M
Boys,89.81,7,Carlos Carrillo,Lytle,88.72,190.51,115.67,188.24,494.42,Single-ply,SBD,M
Boys,89.81,8,Jacob Rivera,San Antonio Southside,89.27,181.44,81.65,183.7,446.79,Single-ply,SBD,M
Boys,89.81,9,Sam Osborne,Universal City Randolph,84.1,158.76,95.25,163.29,417.3,Single-ply,SBD,M
Boys,89.81,10,Jeremy Del Toro,San Antonio Kennedy,89.72,161.03,86.18,170.1,417.3,Single-ply,SBD,M
Boys,89.81,11,Emilio Valadez,San Antonio Kennedy,83.73,142.88,74.84,181.44,399.16,Single-ply,SBD,M
Boys,89.81,12,David Bernal,Pleasanton,82.55,154.22,81.65,161.03,396.89,Single-ply,SBD,M
Boys,89.81,13,Kyle Wehe,Castroville Medina Valley,85,154.22,86.18,149.69,390.09,Single-ply,SBD,M
Boys,89.81,14,Hunter Prince,Bandera,84.64,136.08,81.65,163.29,381.02,Single-ply,SBD,M
Boys,89.81,15,Lucas Taulli,Bandera,89.36,131.54,88.45,145.15,365.14,Single-ply,SBD,M
Boys,89.81,16,Rueben Valospire,Bandera,87,122.47,77.11,136.08,335.66,Single-ply,SBD,M
Boys,89.81,17,Jonathan Castillo,San Antonio Kennedy,83.55,111.13,88.45,131.54,331.12,Single-ply,SBD,M
Boys,89.81,18,Paulino Bosquez,San Antonio Kennedy,89.45,70.31,43.09,95.25,208.65,Single-ply,SBD,M
Boys,89.81,DQ,Matt Gamez,Poteet,86.82,185.97,,,,Single-ply,SBD,M
Boys,99.79,1,Isaiah Vasquez,Pearsall,97.7,247.21,133.81,256.28,637.3,Single-ply,SBD,M
Boys,99.79,2,Brandon Fuentes,Pleasanton,92.35,240.4,147.42,213.19,601.01,Single-ply,SBD,M
Boys,99.79,3,Zane Sanchez,Devine,98.52,229.06,140.61,222.26,591.94,Single-ply,SBD,M
Boys,99.79,4,Justin Lomas,Crystal City,92.9,226.8,113.4,208.65,548.85,Single-ply,SBD,M
Boys,99.79,5,Mark Cerda,Somerset,93.44,192.78,104.33,199.58,496.68,Single-ply,SBD,M
Boys,99.79,6,Ian Coleman,Universal City Randolph,97.89,208.65,117.93,163.29,489.88,Single-ply,SBD,M
Boys,99.79,7,Jack Richison,Comfort,97.52,165.56,117.93,204.12,487.61,Single-ply,SBD,M
Boys,99.79,8,Jason Van Epps,Pleasanton,99.79,190.51,92.99,185.97,469.47,Single-ply,SBD,M
Boys,99.79,9,Tyler Farris,Universal City Randolph,97.25,170.1,99.79,190.51,460.4,Single-ply,SBD,M
Boys,99.79,10,Kolby Janek,Poth,92.9,174.63,108.86,170.1,453.59,Single-ply,SBD,M
Boys,99.79,11,Juan Landa,Castroville Medina Valley,95.62,172.37,90.72,154.22,417.3,Single-ply,SBD,M
Boys,99.79,12,Liam Murphy,Universal City Randolph,97.98,161.03,92.99,158.76,412.77,Single-ply,SBD,M
Boys,99.79,13,Isreal Olivares,Bandera,94.44,154.22,99.79,154.22,408.23,Single-ply,SBD,M
Boys,99.79,14,Henry Garzes,Poteet,98.61,172.37,83.91,142.88,399.16,Single-ply,SBD,M
Boys,99.79,15,Walker McCumber,Boerne Champion,91.44,145.15,68.04,154.22,367.41,Single-ply,SBD,M
Boys,99.79,16,Fabian Huerta,Crystal City,91.81,131.54,79.38,142.88,353.8,Single-ply,SBD,M
Boys,99.79,17,Cristobal Martinez,Pearsall,98.34,120.2,68.04,133.81,322.05,Single-ply,SBD,M
Boys,99.79,DQ,Zach Hawkins,Medina,93.98,111.13,74.84,,,Single-ply,SBD,M
Boys,99.79,DQ,Bryce Sandoval,Poteet,92.62,136.08,88.45,,,Single-ply,SBD,M
Boys,109.77,1,Taylor Hearn,Pleasanton,105.32,249.48,138.35,233.6,621.42,Single-ply,SBD,M
Boys,109.77,2,Eddie Lopez,San Antonio East Central,106.78,256.28,142.88,219.99,619.15,Single-ply,SBD,M
Boys,109.77,3,Ben Neuman,Hondo,107.23,249.48,147.42,217.72,614.62,Single-ply,SBD,M
Boys,109.77,4,Kevin Garcia,Poteet,107.41,260.82,127.01,224.53,612.35,Single-ply,SBD,M
Boys,109.77,5,Patrick Rodriguez,Devine,107.32,235.87,151.95,208.65,596.47,Single-ply,SBD,M
Boys,109.77,6,Price MacNeal,San Antonio East Central,101.79,235.87,122.47,217.72,576.06,Single-ply,SBD,M
Boys,109.77,7,Gus Palacios,San Antonio Kennedy,108.5,188.24,131.54,238.14,557.92,Single-ply,SBD,M
Boys,109.77,8,Cole Callaway,Universal City Randolph,106.87,195.04,151.95,190.51,537.51,Single-ply,SBD,M
Boys,109.77,9,Alejandro Maldonado #1,Uvalde,103.51,217.72,113.4,195.04,526.17,Single-ply,SBD,M
Boys,109.77,10,Kevin Ibanez,Kyle Lehman,101.06,204.12,129.27,188.24,521.63,Single-ply,SBD,M
Boys,124.74,11,Clay Carey,Boerne Champion,109.95,190.51,113.4,183.7,487.61,Single-ply,SBD,M
Boys,109.77,12,Frank Hernandez,Pleasanton,102.97,174.63,115.67,174.63,464.93,Single-ply,SBD,M
Boys,109.77,13,Alex Trevino,San Antonio Southside,108.86,183.7,97.52,181.44,462.66,Single-ply,SBD,M
Boys,109.77,14,James Carte,Boerne Champion,103.51,161.03,115.67,151.95,428.64,Single-ply,SBD,M
Boys,109.77,15,Bj Frieda,Somerset,105.32,161.03,88.45,149.69,399.16,Single-ply,SBD,M
Boys,109.77,16,Duke Aguirre,San Antonio Kennedy,106.96,122.47,97.52,158.76,378.75,Single-ply,SBD,M
Boys,109.77,17,Gilbert Garza,San Antonio Southside,100.52,142.88,88.45,142.88,374.21,Single-ply,SBD,M
Boys,109.77,18,David Nieto,Pearsall,101.06,138.35,72.57,140.61,351.53,Single-ply,SBD,M
Boys,109.77,19,Cameron Biedeger,Castroville Medina Valley,106.05,138.35,81.65,122.47,342.46,Single-ply,SBD,M
Boys,109.77,20,Lance Huerta,Natalia,100.15,124.74,70.31,142.88,337.93,Single-ply,SBD,M
Boys,109.77,21,Cruz Banda,Kyle Lehman,102.42,208.65,129.27,,337.93,Single-ply,SB,M
Boys,109.77,DQ,Joe Cantu,Lytle,105.32,222.26,102.06,,,Single-ply,SB,M
Boys,109.77,DQ,Salvador Marines,Somerset,108.05,272.16,,,,Single-ply,SB,M
Boys,124.74,1,Stevie Balderrama,Devine,124.01,249.48,140.61,233.6,623.69,Single-ply,SBD,M
Boys,124.74,2,John Smith #11,Bandera,112.13,254.01,115.67,219.99,589.67,Single-ply,SBD,M
Boys,124.74,3,Joe Aguero,Somerset,121.56,272.16,120.2,174.63,566.99,Single-ply,SBD,M
Boys,124.74,4,Juan Chavez,San Antonio East Central,111.86,235.87,136.08,174.63,546.58,Single-ply,SBD,M
Boys,124.74,5,Zach Brooks,Pleasanton,112.4,213.19,115.67,213.19,542.04,Single-ply,SBD,M
Boys,124.74,6,Jonathan Macat,Lytle,117.57,204.12,120.2,208.65,532.97,Single-ply,SBD,M
Boys,124.74,7,Raul Loza,Natalia,119.11,235.87,111.13,185.97,532.97,Single-ply,SBD,M
Boys,124.74,8,Gabriel Garza,Somerset,121.02,204.12,140.61,185.97,530.7,Single-ply,SBD,M
Boys,124.74,9,Robert Ramos,San Antonio Southside,119.93,181.44,127.01,201.85,510.29,Single-ply,SBD,M
Boys,124.74,10,Colton Bragg,Lytle,117.57,167.83,122.47,210.92,501.22,Single-ply,SBD,M
Boys,124.74,11,Xavier Spurlock,Rocksprings,117.84,190.51,117.93,192.78,501.22,Single-ply,SBD,M
Boys,124.74,12,Lucio Ronnie,Poteet,117.48,226.8,88.45,170.1,485.34,Single-ply,SBD,M
Boys,124.74,13,José Castillo #1,Somerset,119.57,176.9,113.4,167.83,458.13,Single-ply,SBD,M
Boys,124.74,14,Zach Zulaica,Pleasanton,110.68,167.83,81.65,181.44,430.91,Single-ply,SBD,M
Boys,124.74,15,Noah Ramirez,Comfort,121.56,172.37,81.65,167.83,421.84,Single-ply,SBD,M
Boys,124.74+,1,Nune Perez,Crystal City,139.98,294.84,161.03,272.16,728.02,Single-ply,SBD,M
Boys,124.74+,DQ,Kenny Higgins,Kyle Lehman,126.19,,,,,Single-ply,SBD,M
Boys,124.74+,3,Guy LaRue,San Antonio Kennedy,153.77,242.67,127.01,244.94,614.62,Single-ply,SBD,M
Boys,124.74+,4,Dj Carrlson,Devine,127.1,265.35,133.81,204.12,603.28,Single-ply,SBD,M
Boys,124.74+,5,Johnny Limon,Kyle Lehman,125.1,208.65,122.47,226.8,557.92,Single-ply,SBD,M
Boys,124.74+,6,Joel Corona,Lytle,144.88,217.72,108.86,231.33,557.92,Single-ply,SBD,M
Boys,124.74+,7,Emmitt Spurlock,Rocksprings,126.37,204.12,145.15,204.12,553.38,Single-ply,SBD,M
Boys,124.74+,8,Nick O'Bryant,Castroville Medina Valley,127.64,231.33,122.47,192.78,546.58,Single-ply,SBD,M
Boys,124.74+,9,Bobby Limon,Kyle Lehman,128.37,181.44,127.01,206.38,514.83,Single-ply,SBD,M
Boys,124.74+,DQ,Javi Flores,Boerne Champion,140.98,,,,,Single-ply,SBD,M
Boys,124.74+,DQ,Matt Tschirhart,Castroville Medina Valley,136.08,170.1,,,,Single-ply,SBD,M
Boys,124.74+,DQ,Tyler Seiler,Pearsall,149.32,247.21,,,,Single-ply,SBD,M
Boys,,NS,Anthony Medrano,Pearsall,,,,,,Single-ply,SBD,M
Boys,,NS,Dylan Neal,Pearsall,,,,,,Single-ply,SBD,M
Boys,,NS,Brian Leal,Pearsall,,,,,,Single-ply,SBD,M
Boys,,NS,Gus Hammer,Boerne Champion,,,,,,Single-ply,SBD,M
Boys,,NS,Travis Whitefield,Bandera,,,,,,Single-ply,SBD,M
Boys,,NS,Ricardo Snell,Boerne Champion,,,,,,Single-ply,SBD,M
Boys,,NS,Price Pyburn,Barksdale Nueces Canyon,,,,,,Single-ply,SBD,M
Boys,,NS,Justin Wills,Barksdale Nueces Canyon,,,,,,Single-ply,SBD,M
Boys,,NS,Jacob Nelson,Barksdale Nueces Canyon,,,,,,Single-ply,SBD,M
Boys,,NS,Lawson Allen,Bandera,,,,,,Single-ply,SBD,M
Boys,,NS,Michael Dobson,Bandera,,,,,,Single-ply,SBD,M
Boys,,NS,Josh Young,Bandera,,,,,,Single-ply,SBD,M
Boys,,NS,Matt Marrs,Bandera,,,,,,Single-ply,SBD,M
Boys,,NS,Johnny Alvarado,Crystal City,,,,,,Single-ply,SBD,M
Boys,,NS,Jose Florez,San Antonio Kennedy,,,,,,Single-ply,SBD,M
Boys,,NS,Micah Jones,Universal City Randolph,,,,,,Single-ply,SBD,M
