Place,Name,CyrillicName,BirthYear,BodyweightKg,Bench1Kg,Bench2Kg,Bench3Kg,Best3BenchKg,WeightClassKg,Event,Equipment,Division,Sex,TotalKg,BirthDate
1,Aigul Sitdikova,Айгуль Ситдикова,1989,46.5,95,102.5,105,105,47,B,Single-ply,Open,F,105,
2,Karina Simonyants,Карина Симонянц,1977,46.75,100,-105,105,105,47,B,Single-ply,Open,F,105,
3,Evgeniya Saveleva,Евгения Савельева,1987,46.4,95,102.5,-105,102.5,47,B,Single-ply,Open,F,102.5,
1,Olga Golubeva,Ольга Голубева,1970,51.7,120,-125,130,130,52,B,Single-ply,Open,F,130,
2,Yana Zadorina,Яна Задорина,1982,51.2,-125,125,127.5,127.5,52,B,Single-ply,Open,F,127.5,
3,Vladlena Chursina,Владлена Чурсина,1998,51.6,67.5,72.5,-77.5,72.5,52,B,Single-ply,Open,F,72.5,
1,Anastasia Petrova,Анастасия Петрова,1985,55.85,137.5,145,152.5,152.5,57,B,Single-ply,Open,F,152.5,
2,Larisa Kotkova,Лариса Коткова,1974,55.9,140,145,152.5,152.5,57,B,Single-ply,Open,F,152.5,
3,Anna Birzhevaya,Анна Биржевая,1992,56.15,125,135,140,140,57,B,Single-ply,Open,F,140,
1,Oksana Pochinkina-Sokovnina,Оксана Починкина-Соковнина,1986,57.9,135,142.5,145,145,63,B,Single-ply,Open,F,145,
2,Daniela Kolesnik,Даниела Колесник,1999,57.35,-130,-130,142.5,142.5,63,B,Single-ply,Open,F,142.5,
3,Ekaterina Nikolaeva,Екатерина Николаева,1984,60.95,-130,130,-132.5,130,63,B,Single-ply,Open,F,130,
4,Tatyana Gabidulina,Татьяна Габидулина,1992,63,117.5,122.5,127.5,127.5,63,B,Single-ply,Open,F,127.5,
5,Elena Smirnova,Елена Смирнова,1992,61.1,67.5,-72.5,72.5,72.5,63,B,Single-ply,Open,F,72.5,
1,Yulia Chistiakova,Юлия Чистякова,1989,71.6,157.5,162.5,-170,162.5,72,B,Single-ply,Open,F,162.5,
2,Yulia Medvedeva,Юлия Медведева,1986,66.05,-160,160,-172.5,160,72,B,Single-ply,Open,F,160,
3,Anastasiya Shamonova,Анастасия Шамонова,1998,71,-95,95,105,105,72,B,Single-ply,Open,F,105,
1,Lyudmila Protchenko,Людмила Протченко,1986,83.95,185,-192.5,-192.5,185,84,B,Single-ply,Open,F,185,
2,Natalya Bobkova,Наталья Бобкова,1983,79.1,130,-137.5,-137.5,130,84,B,Single-ply,Open,F,130,
3,Aleksandra Medvezhskaya,Александра Медвежская,1998,72.5,75,82.5,-87.5,82.5,84,B,Single-ply,Open,F,82.5,
1,Kirill Krut,Кирилл Круть,1991,56.2,142.5,147.5,152.5,152.5,59,B,Single-ply,Open,M,152.5,
2,Rashad Mamedov,Рашад Мамедов,1993,54.8,-115,115,130,130,59,B,Single-ply,Open,M,130,
1,Yan Urusov,Ян Урусов,1989,65.6,220,230,235,235,66,B,Single-ply,Open,M,235,
2,Nikolay Pochinkin,Николай Починкин,1985,65.65,175,185,195,195,66,B,Single-ply,Open,M,195,
3,Vadim Tsvetkov,Вадим Цветков,1991,65.6,162.5,167.5,170,170,66,B,Single-ply,Open,M,170,
DQ,Aleksey Larionov,Алексей Ларионов,1981,63,-160,-160,-165,,66,B,Single-ply,Open,M,,
1,Arthur Mashinskiy,Артур Машинский,1987,73.3,-232.5,232.5,235,235,74,B,Single-ply,Open,M,235,
2,Stanislav Urusov,Станислав Урусов,1991,71.35,222.5,-227.5,232.5,232.5,74,B,Single-ply,Open,M,232.5,
3,Almaz Mansurov,Алмаз Мансуров,1993,73.4,210,220,-225,220,74,B,Single-ply,Open,M,220,
4,Dmitriy Promyshlennikov,Дмитрий Промышленников,1974,72.85,130,-135,140,140,74,B,Single-ply,Open,M,140,
1,Sergey Knyazev,Сергей Князев,1976,80.7,-300,300,307.5,307.5,83,B,Single-ply,Open,M,307.5,
2,Maksim Beloborodov,Максим Белобородов,1983,82.4,-275,275,-287.5,275,83,B,Single-ply,Open,M,275,
3,Ruslan Gareev,Руслан Гареев,1986,80.75,-245,250,,250,83,B,Single-ply,Open,M,250,
4,Evgeniy Nishchik,Евгений Нищик,1985,78.4,-230,230,235,235,83,B,Single-ply,Open,M,235,
5,Aleksey Polovov,Алексей Половов,1994,81.3,200,-207.5,-212.5,200,83,B,Single-ply,Open,M,200,
6,Andrey Gusarov,Андрей Гусаров,1982,80,210,-222.5,-222.5,210,83,B,Single-ply,Open,M,210,
DQ,Stanislav Butsin,Станислав Буцин,1990,82.25,-275,-285,-290,,83,B,Single-ply,Open,M,,
1,Eduard Tebenkov,Эдуард Тебеньков,1990,92.6,300,315,-332,315,93,B,Single-ply,Open,M,315,
2,Oleg Tarkhov,Олег Тархов,1985,89.45,250,-260,260,260,93,B,Single-ply,Open,M,260,
3,Salavat Masyagutov,Салават Масягутов,1991,84.5,235,-242.5,245,245,93,B,Single-ply,Open,M,245,
4,Sergey Shekurov,Сергей Шекуров,1981,87.8,240,245,-250,245,93,B,Single-ply,Open,M,245,
5,Igor Orlov,Игорь Орлов,1992,89.95,-235,242.5,-252.5,242.5,93,B,Single-ply,Open,M,242.5,
6,Kirill Kataev,Кирилл Катаев,1991,86.8,-170,170,182.5,182.5,93,B,Single-ply,Open,M,182.5,
7,Aleksandr Potapenko,Александр Потапенко,1988,92.1,170,182.5,-190,182.5,93,B,Single-ply,Open,M,182.5,
1,Vladimir Grishaev,Владимир Гришаев,1981,103.25,300,310,330,330,105,B,Single-ply,Open,M,330,
2,Konstantin Kuznetsov,Константин Кузнецов,1972,104.85,260,-275,280,280,105,B,Single-ply,Open,M,280,
3,Sergey Degtyaryov,Сергей Дегтярёв,1992,103.05,260,267.5,-277.5,267.5,105,B,Single-ply,Open,M,267.5,
4,Igor Konovnitsyn,Игорь Коновницын,1971,102.3,170,180,-187.5,180,105,B,Single-ply,Open,M,180,
DQ,Andrey Myagkov,Андрей Мягков,1990,99.35,-255,-255,-260,,105,B,Single-ply,Open,M,,
1,Sergey Selezen,Сергей Селезень,1980,119.8,310,325,335,335,120,B,Single-ply,Open,M,335,
2,Ruslan Pavlikov,Руслан Павликов,1978,117.4,315,330,-335,330,120,B,Single-ply,Open,M,330,
3,Andrey Chuba,Андрей Чуба,1978,105.1,-230,-230,230,230,120,B,Single-ply,Open,M,230,
4,Oleg Chursin,Олег Чурсин,1964,111.6,-215,215,222.5,222.5,120,B,Single-ply,Open,M,222.5,
5,Igor Podelko,Игорь Поделко,1964,106.05,215,-225,-225,215,120,B,Single-ply,Open,M,215,
1,Evgeniy Okhlyuev,Евгений Охлюев,1980,125.65,282.5,292.5,300,300,120+,B,Single-ply,Open,M,300,
2,Ilya Nalimov,Илья Налимов,1988,131.9,275,290,-302.5,290,120+,B,Single-ply,Open,M,290,
3,Aleksandr Krasilnikov,Александр Красильников,1979,129.6,265,280,-290,280,120+,B,Single-ply,Open,M,280,
