Division,WeightClassKg,Place,Name,Team,BodyweightKg,Best3SquatKg,Best3BenchKg,Best3DeadliftKg,TotalKg,Equipment,Event,Sex
Boys,55.79,1,Echo Jones,Strawn,51.89,142.88,68.04,181.44,392.36,Single-ply,SBD,M
Boys,51.71,2,Cesar Montano,Stephenville,49.44,97.52,70.31,104.33,272.16,Single-ply,SBD,M
Boys,51.71,3,Trey Strickland,Archer City,40.55,83.91,45.36,90.72,219.99,Single-ply,SBD,M
Boys,55.79,1,Jordan Whiteside,Peaster,55.52,140.61,108.86,158.76,408.23,Single-ply,SBD,M
Boys,55.79,2,Daniel Pafford,Godley,53.52,151.95,74.84,140.61,367.41,Single-ply,SBD,M
Boys,59.87,3,Jaime Padron,Millsap,55.88,122.47,83.91,145.15,351.53,Single-ply,SBD,M
Boys,55.79,4,Grayson Parker,Godley,52.25,129.27,77.11,120.2,326.59,Single-ply,SBD,M
Boys,55.79,5,Jace Duncan,Mineral Wells,53.71,111.13,72.57,111.13,294.84,Single-ply,SBD,M
Boys,59.87,6,Brysan Garrard,Vernon,56.02,127.01,58.97,102.06,288.03,Single-ply,SBD,M
Boys,55.79,7,Michael Ducharme,Nocona Prairie Valley,55.25,104.33,68.04,108.86,281.23,Single-ply,SBD,M
Boys,55.79,8,Alex Simmons,Rio Vista,54.61,102.06,61.23,113.4,276.69,Single-ply,SBD,M
Boys,55.79,DQ,Avery Sweet,Stephenville,54.16,104.33,,131.54,,Single-ply,SBD,M
Boys,67.13,1,David Watson #4,Seymour,60.1,149.69,90.72,181.44,421.84,Single-ply,SBD,M
Boys,59.87,2,Lucas Diaz,Santa Anna,56.34,145.15,81.65,176.9,403.7,Single-ply,SBD,M
Boys,59.87,3,Keith Ray,Stephenville,58.79,136.08,72.57,145.15,353.8,Single-ply,SBD,M
Boys,67.13,4,James Henderson #3,Santo,59.96,151.95,70.31,127.01,349.27,Single-ply,SBD,M
Boys,59.87,5,Devon Hall,Seymour,59.78,127.01,70.31,147.42,344.73,Single-ply,SBD,M
Boys,59.87,6,Chris Meredith,Mineral Wells,58.97,124.74,74.84,133.81,333.39,Single-ply,SBD,M
Boys,59.87,7,Victor Narvaez,Santo,58.15,129.27,65.77,133.81,328.85,Single-ply,SBD,M
Boys,59.87,8,Kylar Mercer,Early,59.69,113.4,70.31,124.74,308.44,Single-ply,SBD,M
Boys,59.87,9,Chad Thomas,Vernon,59.42,97.52,58.97,108.86,265.35,Single-ply,SBD,M
Boys,59.87,10,Robert Clark,Early,56.34,97.52,52.16,104.33,254.01,Single-ply,SBD,M
Boys,67.13,11,Julian Gonzalez,Castleberry,60.1,83.91,45.36,108.86,238.14,Single-ply,SBD,M
Boys,67.13,1,Oscar Orozco,Castleberry,67.13,174.63,99.79,219.99,494.42,Single-ply,SBD,M
Boys,67.13,2,Jayton Trammell,Santo,66.32,188.24,90.72,165.56,444.52,Single-ply,SBD,M
Boys,67.13,3,Jacob Jackson,Vernon,63.5,163.29,102.06,172.37,437.72,Single-ply,SBD,M
Boys,67.13,4,Ryan Martinez,Early,66.5,158.76,108.86,170.1,437.72,Single-ply,SBD,M
Boys,67.13,5,Destin Montelongo,Santo,67.04,149.69,83.91,151.95,385.55,Single-ply,SBD,M
Boys,67.13,6,Adrian Astello,Santo,66.86,151.95,74.84,156.49,383.29,Single-ply,SBD,M
Boys,67.13,7,Colin Miller,Brock,64.86,129.27,77.11,154.22,360.61,Single-ply,SBD,M
Boys,67.13,8,Nathan Briley,Gordon,61.78,136.08,70.31,145.15,351.53,Single-ply,SBD,M
Boys,67.13,9,Casey Riggs,Bridgeport,62.6,133.81,70.31,147.42,351.53,Single-ply,SBD,M
Boys,67.13,10,Avery Rangel,Castleberry,64.95,117.93,77.11,140.61,335.66,Single-ply,SBD,M
Boys,74.84,11,Nakoda Mastin,Bridgeport,67.22,113.4,72.57,149.69,335.66,Single-ply,SBD,M
Boys,67.13,12,Brayden Kennington,Peaster,61.23,117.93,79.38,127.01,324.32,Single-ply,SBD,M
Boys,74.84,13,Regi Lane,Bridgeport,67.22,113.4,63.5,145.15,322.05,Single-ply,SBD,M
Boys,67.13,14,Brian Munn,Bridgeport,62.41,97.52,74.84,136.08,308.44,Single-ply,SBD,M
Boys,67.13,15,Aj Hilbers,Seymour,65.23,115.67,70.31,113.4,299.37,Single-ply,SBD,M
Boys,67.13,16,Nick Cedillo,Mineral Wells,66.22,92.99,79.38,124.74,297.1,Single-ply,SBD,M
Boys,67.13,17,Justin Schlegel,Nocona Prairie Valley,64.59,102.06,56.7,122.47,281.23,Single-ply,SBD,M
Boys,67.13,18,Jett Reynolds,Bridgeport,61.6,83.91,54.43,120.2,258.55,Single-ply,SBD,M
Boys,74.84,1,Bryan Ortiz,Castleberry,72.21,176.9,102.06,188.24,467.2,Single-ply,SBD,M
Boys,74.84,2,Dillon McAlister,Bridgeport,73.03,167.83,90.72,208.65,467.2,Single-ply,SBD,M
Boys,74.84,3,Roger Mastin,Bridgeport,71.94,158.76,97.52,190.51,446.79,Single-ply,SBD,M
Boys,74.84,4,John Leija,Vernon,67.86,161.03,104.33,176.9,442.25,Single-ply,SBD,M
Boys,74.84,5,Tucker Birk,Santo,74.03,183.7,92.99,165.56,442.25,Single-ply,SBD,M
Boys,74.84,6,Bodi Gilbert,Electra,74.21,176.9,115.67,147.42,439.98,Single-ply,SBD,M
Boys,74.84,7,Brent McCallon,Vernon,74.21,149.69,90.72,176.9,417.3,Single-ply,SBD,M
Boys,74.84,8,Broox Powell,Brock,72.67,151.95,92.99,167.83,412.77,Single-ply,SBD,M
Boys,74.84,9,Cameron Blackburn,Seymour,69.76,154.22,70.31,156.49,381.02,Single-ply,SBD,M
Boys,74.84,10,Noah Maston,Santo,71.12,142.88,83.91,154.22,381.02,Single-ply,SBD,M
Boys,74.84,11,Hayden Turner,Early,68.04,140.61,86.18,136.08,362.87,Single-ply,SBD,M
Boys,82.1,12,Josh Ealom,Vernon,74.93,122.47,88.45,147.42,358.34,Single-ply,SBD,M
Boys,74.84,13,Lane Morrow,Bridgeport,70.03,131.54,72.57,149.69,353.8,Single-ply,SBD,M
Boys,74.84,14,Trace Humphreys,Brock,73.84,127.01,68.04,147.42,342.46,Single-ply,SBD,M
Boys,74.84,15,Nick Anderson,Bridgeport,74.48,120.2,61.23,140.61,322.05,Single-ply,SBD,M
Boys,74.84,16,Michael Box,Seymour,72.85,97.52,56.7,142.88,297.1,Single-ply,SBD,M
Boys,82.1,17,Matthew Suarez,Nocona Prairie Valley,75.07,111.13,63.5,120.2,294.84,Single-ply,SBD,M
Boys,74.84,18,Adam Lawson,Stephenville,74.75,61.23,52.16,97.52,210.92,Single-ply,SBD,M
Boys,74.84,DQ,Andrew Tovar,Bridgeport,70.58,106.59,,,,Single-ply,SBD,M
Boys,74.84,DQ,Jeffrey Parsons,Lake Worth,73.03,142.88,,,,Single-ply,SBD,M
Boys,82.1,1,Kolby Youngblood,Burkburnett,81.19,199.58,127.01,208.65,535.24,Single-ply,SBD,M
Boys,82.1,2,Chase Mackey,Gordon,79.11,197.31,108.86,222.26,528.44,Single-ply,SBD,M
Boys,82.1,3,Grant Peters,Mineral Wells,75.93,192.78,115.67,192.78,501.22,Single-ply,SBD,M
Boys,82.1,4,Chase Coffman,Gordon,81.56,188.24,113.4,192.78,494.42,Single-ply,SBD,M
Boys,82.1,5,Manuel Fierro,Lake Worth,80.65,188.24,122.47,174.63,485.34,Single-ply,SBD,M
Boys,82.1,6,Logan Thomas,Early,76.29,172.37,108.86,195.04,476.27,Single-ply,SBD,M
Boys,82.1,7,Griffin Balthrop,Castleberry,78.56,174.63,111.13,188.24,474,Single-ply,SBD,M
Boys,82.1,8,Kody Wages,Millsap,81.74,174.63,99.79,188.24,462.66,Single-ply,SBD,M
Boys,82.1,9,Tim Dorris,Strawn,82.01,188.24,102.06,172.37,462.66,Single-ply,SBD,M
Boys,82.1,10,Jason Wissin,Rio Vista,77.84,170.1,90.72,163.29,424.11,Single-ply,SBD,M
Boys,82.1,11,Evan Molini,Archer City,80.01,170.1,83.91,158.76,412.77,Single-ply,SBD,M
Boys,82.1,12,Tim Landers,Castleberry,79.74,147.42,81.65,181.44,410.5,Single-ply,SBD,M
Boys,82.1,13,Jared Stone,Mineral Wells,78.2,145.15,86.18,170.1,401.43,Single-ply,SBD,M
Boys,82.1,14,Caleb Bubenik,Santo,79.92,161.03,83.91,156.49,401.43,Single-ply,SBD,M
Boys,82.1,15,Logan Huffman,Brock,79.02,136.08,90.72,158.76,385.55,Single-ply,SBD,M
Boys,82.1,16,Carson Langen,Brock,77.02,127.01,86.18,158.76,371.95,Single-ply,SBD,M
Boys,82.1,17,Jacob Slimp,Bridgeport,81.83,122.47,86.18,158.76,367.41,Single-ply,SBD,M
Boys,82.1,18,Trey Graham,Santo,79.02,133.81,74.84,147.42,356.07,Single-ply,SBD,M
Boys,82.1,19,Hunter Whaley,Stephenville,76.57,104.33,83.91,124.74,312.98,Single-ply,SBD,M
Boys,82.1,20,Tyler Carter,Nocona Prairie Valley,79.2,113.4,70.31,117.93,301.64,Single-ply,SBD,M
Boys,82.1,DQ,Brandon Guilkey,Peaster,77.2,102.06,,,,Single-ply,SBD,M
Boys,89.81,DQ,Dathan Harding,Early,82.28,183.7,,,,Single-ply,SBD,M
Boys,82.1,DQ,Daniel Castro,Burkburnett,81.28,188.24,,,,Single-ply,SBD,M
Boys,89.81,1,Eric Maldonado,Castleberry,89.72,235.87,151.95,258.55,646.37,Single-ply,SBD,M
Boys,99.79,2,Kolby Parks,Mineral Wells,90.04,192.78,124.74,190.51,508.02,Single-ply,SBD,M
Boys,89.81,3,Miguel Elizondo,Early,86.55,201.85,106.59,195.04,503.49,Single-ply,SBD,M
Boys,89.81,4,Abel Barboza,Castleberry,87,201.85,108.86,185.97,496.68,Single-ply,SBD,M
Boys,89.81,5,Landon Bale,Burkburnett,83.46,167.83,113.4,204.12,485.34,Single-ply,SBD,M
Boys,89.81,6,Mason Chapa,Castleberry,89.09,163.29,99.79,185.97,449.06,Single-ply,SBD,M
Boys,89.81,7,Josue Olvera,Stephenville,89.45,165.56,102.06,158.76,426.38,Single-ply,SBD,M
Boys,89.81,8,Mickey Gentry,Seymour,88.63,156.49,86.18,163.29,405.97,Single-ply,SBD,M
Boys,89.81,9,Rieken Douglas,Stephenville,88.63,142.88,83.91,156.49,383.29,Single-ply,SBD,M
Boys,89.81,10,Fabian Alvarez,Rio Vista,89.09,147.42,74.84,158.76,381.02,Single-ply,SBD,M
Boys,99.79,11,Tre Rose,Brock,89.9,154.22,81.65,131.54,367.41,Single-ply,SBD,M
Boys,89.81,12,Michael Ivy,Santo,84.37,142.88,70.31,142.88,356.07,Single-ply,SBD,M
Boys,89.81,13,Nick Denton,Archer City,85.73,129.27,56.7,124.74,310.71,Single-ply,SBD,M
Boys,99.79,1,Jai Shepard,Electra,94.53,226.8,124.74,215.46,566.99,Single-ply,SBD,M
Boys,99.79,2,Conner Warmerdam,Stephenville,98.34,172.37,127.01,172.37,471.74,Single-ply,SBD,M
Boys,99.79,3,David Garcia,Mineral Wells,95.53,188.24,90.72,181.44,460.4,Single-ply,SBD,M
Boys,99.79,4,Anthony Castillo,Castleberry,99.79,183.7,102.06,170.1,455.86,Single-ply,SBD,M
Boys,99.79,5,James Dorris,Santo,98.88,161.03,90.72,195.04,446.79,Single-ply,SBD,M
Boys,99.79,6,Sage Bolemen,Brock,91.35,158.76,88.45,167.83,415.04,Single-ply,SBD,M
Boys,99.79,7,Seth Alston,Santo,96.62,170.1,88.45,156.49,415.04,Single-ply,SBD,M
Boys,99.79,8,Ashton Lynch,Castleberry,90.9,147.42,77.11,161.03,385.55,Single-ply,SBD,M
Boys,99.79,9,Alex Winter,Bridgeport,91.44,140.61,70.31,158.76,369.68,Single-ply,SBD,M
Boys,109.77,10,Angelo Gomez,Nocona Prairie Valley,99.88,127.01,83.91,127.01,337.93,Single-ply,SBD,M
Boys,99.79,11,Michael Robinson,Millsap,94.26,92.99,63.5,122.47,278.96,Single-ply,SBD,M
Boys,99.79,DQ,Austin Davenport,Archer City,94.17,127.01,,,,Single-ply,SBD,M
Boys,109.77,1,Diamond Cardona,Godley,106.59,238.14,138.35,238.14,614.62,Single-ply,SBD,M
Boys,109.77,2,Austin Coker,Santo,103.24,244.94,136.08,204.12,585.13,Single-ply,SBD,M
Boys,109.77,3,Jacob Boyd,Mineral Wells,107.5,204.12,161.03,208.65,573.79,Single-ply,SBD,M
Boys,109.77,4,Tyler Jennings,Bridgeport,105.14,204.12,156.49,204.12,564.72,Single-ply,SBD,M
Boys,109.77,5,Chance Pierce,Bridgeport,103.15,179.17,136.08,224.53,539.77,Single-ply,SBD,M
Boys,109.77,6,Jacob Martin,Stephenville,105.23,195.04,127.01,195.04,517.1,Single-ply,SBD,M
Boys,109.77,7,Trevor Methvin,Vernon,102.97,185.97,99.79,229.06,514.83,Single-ply,SBD,M
Boys,109.77,8,Federico Arvizu,Castleberry,101.15,208.65,111.13,190.51,510.29,Single-ply,SBD,M
Boys,109.77,9,Trace Coe,Mineral Wells,102.06,188.24,113.4,161.03,462.66,Single-ply,SBD,M
Boys,109.77,10,Preston Newman,Vernon,102.51,163.29,92.99,183.7,439.98,Single-ply,SBD,M
Boys,109.77,11,Blake Boyd,Bridgeport,108.86,170.1,102.06,165.56,437.72,Single-ply,SBD,M
Boys,109.77,12,Tristan Urquizo,Vernon,104.33,170.1,102.06,161.03,433.18,Single-ply,SBD,M
Boys,109.77,13,Haden Snodgrass,Bridgeport,108.41,142.88,97.52,188.24,428.64,Single-ply,SBD,M
Boys,109.77,14,Jayden Workman,Electra,107.95,156.49,99.79,136.08,392.36,Single-ply,SBD,M
Boys,109.77,15,Alex Jimenez,Lake Worth,107.95,142.88,90.72,147.42,381.02,Single-ply,SBD,M
Boys,109.77,16,Hunter Coleman,Bridgeport,108.86,124.74,81.65,136.08,342.46,Single-ply,SBD,M
Boys,109.77,DQ,Conner Bales,Burkburnett,101.7,185.97,,,,Single-ply,SBD,M
Boys,109.77,DQ,Marcus Lopez,Strawn,109.32,226.8,140.61,,,Single-ply,SBD,M
Boys,124.74,1,Max Driscoll,Godley,124.28,256.28,192.78,204.12,653.17,Single-ply,SBD,M
Boys,124.74,2,Austin Northcutt,Stephenville,117.03,235.87,151.95,240.4,628.23,Single-ply,SBD,M
Boys,124.74,3,Jacob Boswell,Burkburnett,118.12,215.46,120.2,199.58,535.24,Single-ply,SBD,M
Boys,124.74,4,Trace Boyd,Strawn,117.03,192.78,136.08,192.78,521.63,Single-ply,SBD,M
Boys,124.74,5,Joseph Lindley,Mineral Wells,117.03,181.44,120.2,156.49,458.13,Single-ply,SBD,M
Boys,124.74,6,Nate Ramirez,Bridgeport,111.13,165.56,97.52,174.63,437.72,Single-ply,SBD,M
Boys,124.74,7,Eric Stonecheck,Bridgeport,121.56,131.54,95.25,174.63,401.43,Single-ply,SBD,M
Boys,124.74,8,Ricardo Martinez #5,Rio Vista,114.31,156.49,86.18,156.49,399.16,Single-ply,SBD,M
Boys,124.74,9,Cameron Uoteaga,Stephenville,120.66,151.95,83.91,138.35,374.21,Single-ply,SBD,M
Boys,124.74,DQ,Marc Brock,Seymour,114.76,,90.72,,,Single-ply,SBD,M
Boys,124.74,DQ,Bronson Burks,Bridgeport,122.47,,,,,Single-ply,SBD,M
Boys,124.74+,1,Weldon Edwards,Early,159.66,249.48,149.69,226.8,625.96,Single-ply,SBD,M
Boys,124.74+,2,Jacob Lopez,Stephenville,140.16,192.78,113.4,201.85,508.02,Single-ply,SBD,M
Boys,124.74+,3,Keaton Vawter,Bridgeport,127.91,176.9,124.74,190.51,492.15,Single-ply,SBD,M
Boys,124.74+,4,Beau Harrell,Brock,125.19,188.24,117.93,170.1,476.27,Single-ply,SBD,M
Boys,124.74+,5,Connor Murphy,Early,135.17,158.76,127.01,136.08,421.84,Single-ply,SBD,M
Boys,124.74+,6,Riley Russell,Millsap,128.82,151.95,111.13,147.42,410.5,Single-ply,SBD,M
Boys,124.74+,7,Caleb Jennings,Bridgeport,136.98,145.15,95.25,149.69,390.09,Single-ply,SBD,M
