Division,WeightClassKg,Place,Name,Team,BodyweightKg,Best3SquatKg,Best3BenchKg,Best3DeadliftKg,TotalKg,Equipment,Event,Sex
Junior Varsity,51.71,1,Chris Castaneda,Port Lavaca Calhoun,50.89,111.13,68.04,122.47,301.64,Single-ply,SBD,M
Junior Varsity,55.79,2,Amit Patel,Three Rivers,51.89,113.4,61.23,113.4,288.03,Single-ply,SBD,M
Junior Varsity,51.71,3,Jacob Salinas,Runge,46.9,68.04,43.09,79.38,190.51,Single-ply,SBD,M
Junior Varsity,55.79,1,Jacob Hinojosa,Kenedy,53.8,97.52,68.04,122.47,288.03,Single-ply,SBD,M
Junior Varsity,55.79,2,Victor Monsevias,Kenedy,54.16,92.99,58.97,127.01,278.96,Single-ply,SBD,M
Junior Varsity,55.79,3,Tj Riddell,Ingleside,54.7,88.45,54.43,120.2,263.08,Single-ply,SBD,M
Junior Varsity,55.79,4,Jadran Ramirez,Kenedy,55.16,92.99,58.97,111.13,263.08,Single-ply,SBD,M
Junior Varsity,55.79,5,Ryan Bird,Runge,55.79,83.91,52.16,113.4,249.48,Single-ply,SBD,M
Junior Varsity,59.87,1,Dylan Torres,Runge,59.69,147.42,79.38,161.03,387.82,Single-ply,SBD,M
Junior Varsity,59.87,2,Mario Cano,Pleasanton,59.33,131.54,74.84,151.95,358.34,Single-ply,SBD,M
Junior Varsity,67.13,3,Tristan Ruiz,Corpus Christi Calallen,59.96,131.54,77.11,149.69,358.34,Single-ply,SBD,M
Junior Varsity,67.13,4,John French,Skidmore-Tynan,60.06,117.93,77.11,161.03,356.07,Single-ply,SBD,M
Junior Varsity,59.87,5,David Gutierrez,Alice,59.6,136.08,70.31,147.42,353.8,Single-ply,SBD,M
Junior Varsity,59.87,6,Brandon Clark,Ingleside,56.79,131.54,70.31,127.01,328.85,Single-ply,SBD,M
Junior Varsity,59.87,7,Alex Rodriguez,Corpus Christi Calallen,59.51,113.4,61.23,129.27,303.91,Single-ply,SBD,M
Junior Varsity,74.84,1,Randall Saenz,Three Rivers,67.22,181.44,95.25,183.7,460.4,Single-ply,SBD,M
Junior Varsity,67.13,2,Colton Hughes,Corpus Christi Tuloso-Midway,65.95,145.15,86.18,181.44,412.77,Single-ply,SBD,M
Junior Varsity,74.84,3,Zenon Sanchez,Three Rivers,67.31,158.76,86.18,158.76,403.7,Single-ply,SBD,M
Junior Varsity,67.13,4,Christian Salazar,Corpus Christi Tuloso-Midway,62.23,147.42,90.72,163.29,401.43,Single-ply,SBD,M
Junior Varsity,67.13,5,Quinton Moreno,Gregory-Portland,63.59,138.35,88.45,154.22,381.02,Single-ply,SBD,M
Junior Varsity,67.13,6,JD Rodriguez,Ingleside,62.41,151.95,83.91,142.88,378.75,Single-ply,SBD,M
Junior Varsity,67.13,7,Colton Hahn,Port Lavaca Calhoun,61.51,140.61,74.84,145.15,360.61,Single-ply,SBD,M
Junior Varsity,67.13,8,Daniel Naj,Port Lavaca Calhoun,64.32,127.01,90.72,131.54,349.27,Single-ply,SBD,M
Junior Varsity,67.13,9,Mark Alaniz,Alice,67.13,113.4,88.45,145.15,347,Single-ply,SBD,M
Junior Varsity,67.13,10,Damien Cisneros,Gregory-Portland,66.04,124.74,72.57,147.42,344.73,Single-ply,SBD,M
Junior Varsity,67.13,11,Charlie Johnston,Three Rivers,66.41,108.86,79.38,147.42,335.66,Single-ply,SBD,M
Junior Varsity,67.13,12,Cameron McIver,George West,65.14,102.06,90.72,136.08,328.85,Single-ply,SBD,M
Junior Varsity,67.13,13,Jonathon Soto,Ingleside,63.96,102.06,81.65,136.08,319.78,Single-ply,SBD,M
Junior Varsity,67.13,14,Miguel Vasquez,Corpus Christi Calallen,62.78,122.47,63.5,122.47,308.44,Single-ply,SBD,M
Junior Varsity,67.13,15,Eric Gutierrez,Runge,65.41,97.52,72.57,124.74,294.84,Single-ply,SBD,M
Junior Varsity,67.13,16,Daniel Perez,Gregory-Portland,63.87,90.72,63.5,127.01,281.23,Single-ply,SBD,M
Junior Varsity,67.13,17,Simon Perez,Skidmore-Tynan,64.68,90.72,63.5,115.67,269.89,Single-ply,SBD,M
Junior Varsity,74.84,1,Victor Ta,Port Lavaca Calhoun,73.03,188.24,90.72,181.44,460.4,Single-ply,SBD,M
Junior Varsity,74.84,2,Justin Sobczak,Corpus Christi Tuloso-Midway,70.85,154.22,86.18,170.1,410.5,Single-ply,SBD,M
Junior Varsity,74.84,3,Tristan Favor,Corpus Christi Calallen,71.3,154.22,81.65,158.76,394.63,Single-ply,SBD,M
Junior Varsity,82.1,4,Marco Hernandez,Three Rivers,75.02,147.42,83.91,161.03,392.36,Single-ply,SBD,M
Junior Varsity,74.84,5,Byron Davidson,Corpus Christi Calallen,68.58,136.08,79.38,158.76,374.21,Single-ply,SBD,M
Junior Varsity,74.84,6,Aaron Martinez,Corpus Christi Calallen,69.67,145.15,83.91,142.88,371.95,Single-ply,SBD,M
Junior Varsity,74.84,7,Joe Ryan Rea,Alice,67.86,113.4,81.65,174.63,369.68,Single-ply,SBD,M
Junior Varsity,74.84,8,Armando Sanchez,Alice,68.49,113.4,102.06,149.69,365.14,Single-ply,SBD,M
Junior Varsity,74.84,9,Noe Gomez,Alice,70.31,124.74,88.45,136.08,349.27,Single-ply,SBD,M
Junior Varsity,74.84,10,Devyn Schultz,Kenedy,72.39,117.93,83.91,147.42,349.27,Single-ply,SBD,M
Junior Varsity,74.84,11,Zack Soliz,Alice,69.22,113.4,83.91,145.15,342.46,Single-ply,SBD,M
Junior Varsity,82.1,12,Kohen Scott,Gregory-Portland,75.02,140.61,72.57,127.01,340.19,Single-ply,SBD,M
Junior Varsity,74.84,13,Nolan Ladewig,Ingleside,72.21,133.81,74.84,127.01,335.66,Single-ply,SBD,M
Junior Varsity,74.84,14,Daniel Green,Gregory-Portland,68.31,113.4,79.38,136.08,328.85,Single-ply,SBD,M
Junior Varsity,74.84,15,Steven Salas,Runge,71.76,92.99,52.16,151.95,297.1,Single-ply,SBD,M
Junior Varsity,74.84,16,Robert Ramos,Alice,73.75,90.72,61.23,142.88,294.84,Single-ply,SBD,M
Junior Varsity,82.1,1,Lorenzo Landin,Gregory-Portland,77.2,185.97,108.86,199.58,494.42,Single-ply,SBD,M
Junior Varsity,82.1,2,Steve Garza,Ingleside,80.65,188.24,122.47,172.37,483.08,Single-ply,SBD,M
Junior Varsity,89.81,3,Justin Mask,Gregory-Portland,82.19,183.7,104.33,195.04,483.08,Single-ply,SBD,M
Junior Varsity,82.1,4,Pablo Garza,Gregory-Portland,78.29,172.37,106.59,176.9,455.86,Single-ply,SBD,M
Junior Varsity,89.81,5,Aaron Meineke,Three Rivers,82.28,158.76,88.45,183.7,430.91,Single-ply,SBD,M
Junior Varsity,82.1,6,Mario Rodriguez #4,Corpus Christi Calallen,76.38,163.29,90.72,154.22,408.23,Single-ply,SBD,M
Junior Varsity,89.81,7,Hagan Johnston,Three Rivers,82.19,154.22,74.84,156.49,385.55,Single-ply,SBD,M
Junior Varsity,82.1,8,Jd Ortiz,Alice,79.2,129.27,97.52,149.69,376.48,Single-ply,SBD,M
Junior Varsity,82.1,9,Albert Guerrero,Gregory-Portland,78.47,108.86,70.31,129.27,308.44,Single-ply,SBD,M
Junior Varsity,89.81,1,Riley Richardson,Gregory-Portland,89.54,181.44,115.67,192.78,489.88,Single-ply,SBD,M
Junior Varsity,89.81,2,Thomas Trevino,Pleasanton,84.55,192.78,104.33,185.97,483.08,Single-ply,SBD,M
Junior Varsity,89.81,3,Matthew Dickson,Corpus Christi Tuloso-Midway,87.09,170.1,115.67,192.78,478.54,Single-ply,SBD,M
Junior Varsity,89.81,4,Mateo Lopez,Alice,89.36,165.56,120.2,192.78,478.54,Single-ply,SBD,M
Junior Varsity,89.81,5,Billy Vance,Ingleside,88.81,174.63,120.2,136.08,430.91,Single-ply,SBD,M
Junior Varsity,89.81,6,Adriel A,Port Lavaca Calhoun,86.82,156.49,95.25,158.76,410.5,Single-ply,SBD,M
Junior Varsity,89.81,7,Harold Rios,Runge,85.37,145.15,65.77,170.1,381.02,Single-ply,SBD,M
Junior Varsity,89.81,8,Aaron Lanier,Skidmore-Tynan,88.18,142.88,79.38,158.76,381.02,Single-ply,SBD,M
Junior Varsity,89.81,9,Eddie Villareal,Kenedy,83.1,124.74,86.18,136.08,347,Single-ply,SBD,M
Junior Varsity,99.79,1,Nathaniel Alvarez,Kenedy,90.26,147.42,106.59,181.44,435.45,Single-ply,SBD,M
Junior Varsity,99.79,2,Bobby Salinas,Ingleside,92.08,163.29,102.06,170.1,435.45,Single-ply,SBD,M
Junior Varsity,99.79,3,Roger Alvasco,Runge,94.26,140.61,108.86,181.44,430.91,Single-ply,SBD,M
Junior Varsity,99.79,4,Tristen Schmidt,Gregory-Portland,98.97,149.69,104.33,154.22,408.23,Single-ply,SBD,M
Junior Varsity,109.77,5,Jordan Hines,Three Rivers,99.97,147.42,81.65,163.29,392.36,Single-ply,SBD,M
Junior Varsity,109.77,1,Jose Solis,Ingleside,101.51,136.08,106.59,136.08,378.75,Single-ply,SBD,M
Junior Varsity,124.74,1,Nathan Hernandez,Kenedy,121.65,183.7,104.33,172.37,460.4,Single-ply,SBD,M
Junior Varsity,124.74,2,Dylan Duff,Corpus Christi Calallen,110.95,165.56,122.47,158.76,446.79,Single-ply,SBD,M
Junior Varsity,124.74,3,Bobo Garcia,Alice,116.03,183.7,113.4,142.88,439.98,Single-ply,SBD,M
Junior Varsity,124.74,4,Arturo Romero,Port Lavaca Calhoun,116.66,167.83,97.52,142.88,408.23,Single-ply,SBD,M
Junior Varsity,124.74,5,Tim Solas,Kenedy,115.21,108.86,77.11,108.86,294.84,Single-ply,SBD,M
Junior Varsity,124.74+,1,Jesus Angel,Pleasanton,135.44,204.12,120.2,208.65,532.97,Single-ply,SBD,M
Junior Varsity,124.74+,2,Lake Watson,Port Lavaca Calhoun,147.42,204.12,113.4,154.22,471.74,Single-ply,SBD,M
Junior Varsity,124.74+,3,Robby Gutierrez,Kenedy,128.09,142.88,79.38,149.69,371.95,Single-ply,SBD,M
Varsity,51.71,1,Thomas Soto,Corpus Christi Calallen,51.62,181.44,88.45,204.12,474,Single-ply,SBD,M
Varsity,51.71,2,Max Obregon,Dilley,51.53,158.76,81.65,149.69,390.09,Single-ply,SBD,M
Varsity,51.71,3,Bobby Bourlon,Banquete,51.71,136.08,77.11,122.47,335.66,Single-ply,SBD,M
Varsity,51.71,4,Joe Castillo,Gregory-Portland,51.53,129.27,65.77,131.54,326.59,Single-ply,SBD,M
Varsity,55.79,5,Chris Lopez,Three Rivers,51.89,113.4,52.16,136.08,301.64,Single-ply,SBD,M
Varsity,51.71,6,Patrick Ayala,Banquete,50.26,90.72,61.23,131.54,283.5,Single-ply,SBD,M
Varsity,55.79,1,Michael Casarez,Three Rivers,55.43,172.37,92.99,190.51,455.86,Single-ply,SBD,M
Varsity,55.79,2,Robert Chapa,Gregory-Portland,54.88,165.56,97.52,172.37,435.45,Single-ply,SBD,M
Varsity,59.87,3,John Starks,Banquete,55.97,151.95,111.13,172.37,435.45,Single-ply,SBD,M
Varsity,55.79,4,Mauro Garcia,Port Lavaca Calhoun,54.61,147.42,81.65,161.03,390.09,Single-ply,SBD,M
Varsity,55.79,5,Rj Hinojosa,Banquete,54.43,149.69,86.18,142.88,378.75,Single-ply,SBD,M
Varsity,55.79,6,Jacob de la Paz,Corpus Christi Calallen,55.52,147.42,68.04,149.69,365.14,Single-ply,SBD,M
Varsity,55.79,7,Jared Medina,Banquete,54.79,127.01,79.38,145.15,351.53,Single-ply,SBD,M
Varsity,55.79,8,Garret Wildeman,Banquete,55.34,127.01,61.23,140.61,328.85,Single-ply,SBD,M
Varsity,55.79,9,Robert Ramos,Corpus Christi Tuloso-Midway,52.07,127.01,58.97,136.08,322.05,Single-ply,SBD,M
Varsity,55.79,10,Albert Alvarez,Jourdanton,52.62,79.38,68.04,92.99,240.4,Single-ply,SBD,M
Varsity,59.87,1,Daniel Chapa,Gregory-Portland,57.24,190.51,108.86,199.58,498.95,Single-ply,SBD,M
Varsity,67.13,2,Jeff Kearns,Gregory-Portland,60.06,188.24,108.86,181.44,478.54,Single-ply,SBD,M
Varsity,59.87,3,Alan Espinosa,Dilley,56.7,151.95,74.84,167.83,394.63,Single-ply,SBD,M
Varsity,59.87,4,Alex Jiminian,Agua Dulce,59.6,138.35,90.72,165.56,394.63,Single-ply,SBD,M
Varsity,59.87,5,Robert Seward,Corpus Christi Calallen,57.42,140.61,70.31,158.76,369.68,Single-ply,SBD,M
Varsity,59.87,6,Ben Heard,Corpus Christi Calallen,59.15,133.81,81.65,154.22,369.68,Single-ply,SBD,M
Varsity,59.87,7,John Renninger,Gregory-Portland,57.42,108.86,81.65,158.76,349.27,Single-ply,SBD,M
Varsity,59.87,8,Thomas Aranda,Refugio,57.24,113.4,63.5,133.81,310.71,Single-ply,SBD,M
Varsity,59.87,9,Buster Dodge,Refugio,56.79,113.4,65.77,124.74,303.91,Single-ply,SBD,M
Varsity,74.84,1,JJ Gonzalez,Gregory-Portland,67.36,242.67,158.76,240.4,641.83,Single-ply,SBD,M
Varsity,67.13,2,Marquis Barrolle,Ingleside,63.87,204.12,124.74,188.24,517.1,Single-ply,SBD,M
Varsity,67.13,3,Miguel Salazar,Corpus Christi Tuloso-Midway,65.5,195.04,108.86,167.83,471.74,Single-ply,SBD,M
Varsity,67.13,4,Elijah Velasquez,Port Lavaca Calhoun,62.6,174.63,106.59,165.56,446.79,Single-ply,SBD,M
Varsity,67.13,5,Andrew Gaulin,Skidmore-Tynan,60.42,151.95,99.79,179.17,430.91,Single-ply,SBD,M
Varsity,67.13,6,Josue Gonzales,Corpus Christi Calallen,66.68,158.76,97.52,170.1,426.38,Single-ply,SBD,M
Varsity,67.13,7,Jimmy Gonzales,Port Lavaca Calhoun,64.86,151.95,79.38,181.44,412.77,Single-ply,SBD,M
Varsity,67.13,8,Xaivian Stewart,Banquete,67.04,129.27,90.72,170.1,390.09,Single-ply,SBD,M
Varsity,67.13,9,Kevin Lopez,Skidmore-Tynan,60.87,127.01,70.31,147.42,344.73,Single-ply,SBD,M
Varsity,67.13,10,Chris Centeno,Skidmore-Tynan,63.05,104.33,74.84,133.81,312.98,Single-ply,SBD,M
Varsity,74.84,11,Collin Lyberger,Karnes City,67.36,92.99,56.7,136.08,285.76,Single-ply,SBD,M
Varsity,74.84,1,Tristan Pelitire,Beeville Jones,73.3,199.58,129.27,204.12,532.97,Single-ply,SBD,M
Varsity,74.84,2,Dillion Torres,Beeville Jones,71.76,188.24,129.27,195.04,512.56,Single-ply,SBD,M
Varsity,74.84,3,Jarred Garcia,Corpus Christi Calallen,72.57,167.83,117.93,210.92,496.68,Single-ply,SBD,M
Varsity,74.84,4,Nathan Sanchez #3,Corpus Christi Calallen,72.12,190.51,102.06,201.85,494.42,Single-ply,SBD,M
Varsity,74.84,5,Chris McGlaun,Ingleside,71.58,179.17,97.52,192.78,469.47,Single-ply,SBD,M
Varsity,74.84,6,Eddie Garza,San Diego,74.39,181.44,102.06,183.7,467.2,Single-ply,SBD,M
Varsity,74.84,7,Jose Gonzales,Alice,74.3,176.9,88.45,199.58,464.93,Single-ply,SBD,M
Varsity,74.84,8,Joe Caldera,Port Lavaca Calhoun,73.03,167.83,113.4,181.44,462.66,Single-ply,SBD,M
Varsity,74.84,9,Austin Castillo,Corpus Christi Calallen,74.03,163.29,97.52,192.78,453.59,Single-ply,SBD,M
Varsity,74.84,10,Michael Garcia,Alice,71.3,165.56,90.72,192.78,449.06,Single-ply,SBD,M
Varsity,74.84,11,Antonio Washington,Skidmore-Tynan,74.75,136.08,97.52,179.17,412.77,Single-ply,SBD,M
Varsity,74.84,12,Miguel Cano,Pleasanton,72.48,149.69,90.72,158.76,399.16,Single-ply,SBD,M
Varsity,74.84,13,Dominic Cruz,Jourdanton,73.94,136.08,77.11,154.22,367.41,Single-ply,SBD,M
Varsity,74.84,14,Zeke Cantu,Banquete,68.76,113.4,81.65,140.61,335.66,Single-ply,SBD,M
Varsity,82.1,1,Ryan Torres,Gregory-Portland,80.56,254.01,156.49,258.55,669.05,Single-ply,SBD,M
Varsity,82.1,2,Andy Mohl,Corpus Christi Tuloso-Midway,80.74,244.94,161.03,240.4,646.37,Single-ply,SBD,M
Varsity,82.1,3,Joe Estrada,Jourdanton,78.93,233.6,156.49,208.65,598.74,Single-ply,SBD,M
Varsity,89.81,4,Jacob Flores,Beeville Jones,82.28,210.92,113.4,204.12,528.44,Single-ply,SBD,M
Varsity,82.1,5,Chris Hernandez,Gregory-Portland,80.47,188.24,113.4,195.04,496.68,Single-ply,SBD,M
Varsity,82.1,6,Drew Ortiz,Port Lavaca Calhoun,79.02,185.97,108.86,195.04,489.88,Single-ply,SBD,M
Varsity,82.1,7,Michael McGlaun,Ingleside,81.19,179.17,111.13,197.31,487.61,Single-ply,SBD,M
Varsity,82.1,8,Joe Hernandez,Alice,81.56,183.7,113.4,183.7,480.81,Single-ply,SBD,M
Varsity,82.1,9,Lawrence Carrasco,Karnes City,80.2,149.69,120.2,206.38,476.27,Single-ply,SBD,M
Varsity,82.1,10,Nick Quintanilla,Karnes City,79.83,158.76,97.52,181.44,437.72,Single-ply,SBD,M
Varsity,82.1,11,Diego Leal,Banquete,82.1,163.29,102.06,167.83,433.18,Single-ply,SBD,M
Varsity,82.1,12,Damian Garza,Agua Dulce,76.75,154.22,104.33,163.29,421.84,Single-ply,SBD,M
Varsity,89.81,1,Ryan de la Cruz,San Diego,88.81,274.42,113.4,258.55,646.37,Single-ply,SBD,M
Varsity,89.81,2,Kameron Handy,Corpus Christi Tuloso-Midway,85,254.01,151.95,238.14,644.1,Single-ply,SBD,M
Varsity,89.81,3,Leo Adams,Alice,88.63,204.12,156.49,199.58,560.19,Single-ply,SBD,M
Varsity,89.81,4,Danny Snodgrass,Ingleside,86.09,210.92,154.22,192.78,557.92,Single-ply,SBD,M
Varsity,89.81,5,Tony Ledesma,Riviera Kaufer,87,215.46,117.93,215.46,548.85,Single-ply,SBD,M
Varsity,89.81,6,Mark Bocanegra,Jourdanton,88.45,208.65,124.74,190.51,523.9,Single-ply,SBD,M
Varsity,89.81,7,Quinton Baria,Corpus Christi Tuloso-Midway,83.73,204.12,129.27,188.24,521.63,Single-ply,SBD,M
Varsity,89.81,8,Vincent Rodriguez,Corpus Christi Tuloso-Midway,85.37,188.24,147.42,174.63,510.29,Single-ply,SBD,M
Varsity,99.79,9,Kalli Escamilla,Three Rivers,89.99,188.24,97.52,215.46,501.22,Single-ply,SBD,M
Varsity,89.81,10,Robert Duenes,Karnes City,88.63,183.7,104.33,204.12,492.15,Single-ply,SBD,M
Varsity,89.81,11,Gabriel Casarez,Port Lavaca Calhoun,83.55,192.78,115.67,181.44,489.88,Single-ply,SBD,M
Varsity,89.81,12,Alex Valdez,Refugio,89.18,165.56,124.74,190.51,480.81,Single-ply,SBD,M
Varsity,89.81,13,Jesus Carrasco,Alice,86.18,174.63,102.06,190.51,467.2,Single-ply,SBD,M
Varsity,89.81,14,Trey Sauceda,Karnes City,89.54,163.29,108.86,165.56,437.72,Single-ply,SBD,M
Varsity,89.81,15,Blade Pool,Gregory-Portland,88.9,133.81,99.79,176.9,410.5,Single-ply,SBD,M
Varsity,99.79,1,Alex Tanguma,Corpus Christi Calallen,95.89,249.48,158.76,249.48,657.71,Single-ply,SBD,M
Varsity,99.79,2,Reno Perez,San Diego,91.44,249.48,124.74,242.67,616.89,Single-ply,SBD,M
Varsity,109.77,3,Jonathon Chavana,Port Lavaca Calhoun,99.88,244.94,149.69,208.65,603.28,Single-ply,SBD,M
Varsity,99.79,4,Britt Reynolds,Riviera Kaufer,93.98,219.99,156.49,222.26,598.74,Single-ply,SBD,M
Varsity,99.79,5,Nathan Morin,George West,90.63,240.4,129.27,213.19,582.87,Single-ply,SBD,M
Varsity,109.77,6,Daniel Diaz,Three Rivers,99.97,226.8,140.61,206.38,573.79,Single-ply,SBD,M
Varsity,99.79,7,Weston Block,Karnes City,93.08,213.19,124.74,208.65,546.58,Single-ply,SBD,M
Varsity,99.79,8,Brendon Breland,Banquete,95.98,208.65,124.74,206.38,539.77,Single-ply,SBD,M
Varsity,99.79,9,Austin Block,Karnes City,91.99,210.92,117.93,192.78,521.63,Single-ply,SBD,M
Varsity,99.79,10,Jacob Longoria,Riviera Kaufer,91.81,181.44,117.93,195.04,494.42,Single-ply,SBD,M
Varsity,99.79,11,Jody Stratman,Port Lavaca Calhoun,97.43,183.7,113.4,181.44,478.54,Single-ply,SBD,M
Varsity,99.79,12,Jason Van Epps,Pleasanton,99.7,190.51,92.99,174.63,458.13,Single-ply,SBD,M
Varsity,99.79,13,David Garcia,Riviera Kaufer,96.71,172.37,99.79,172.37,444.52,Single-ply,SBD,M
Varsity,99.79,14,Trey Mann,Agua Dulce,94.26,167.83,113.4,158.76,439.98,Single-ply,SBD,M
Varsity,99.79,15,Aaron Lopez,Karnes City,95.35,151.95,92.99,158.76,403.7,Single-ply,SBD,M
Varsity,99.79,16,Joseph Perez,Refugio,99.34,113.4,92.99,145.15,351.53,Single-ply,SBD,M
Varsity,109.77,1,Enrique Lugo,Jourdanton,106.41,244.94,165.56,240.4,650.91,Single-ply,SBD,M
Varsity,109.77,2,Tk Nolte,Gregory-Portland,109.77,235.87,131.54,226.8,594.21,Single-ply,SBD,M
Varsity,109.77,3,Israel Aguero,Jourdanton,106.59,224.53,124.74,222.26,571.53,Single-ply,SBD,M
Varsity,109.77,4,Blade Bronstadt,Corpus Christi Calallen,104.24,231.33,120.2,215.46,566.99,Single-ply,SBD,M
Varsity,109.77,5,Bryan Chesser,George West,106.32,238.14,127.01,190.51,555.65,Single-ply,SBD,M
Varsity,109.77,6,Tony Barrera,Corpus Christi Tuloso-Midway,102.24,201.85,124.74,190.51,517.1,Single-ply,SBD,M
Varsity,109.77,7,Sylver Carrizales,Corpus Christi Tuloso-Midway,108.41,188.24,104.33,190.51,483.08,Single-ply,SBD,M
Varsity,109.77,8,Santana Aguilar,Dilley,105.69,197.31,90.72,158.76,446.79,Single-ply,SBD,M
Varsity,109.77,9,Nick Guzman,Karnes City,105.23,156.49,108.86,174.63,439.98,Single-ply,SBD,M
Varsity,124.74,1,Harley Vickers,Alice,112.67,276.69,172.37,231.33,680.39,Single-ply,SBD,M
Varsity,124.74,2,John Mendoza,Karnes City,112.4,240.4,142.88,249.48,632.76,Single-ply,SBD,M
Varsity,124.74,3,Branden Michaels,Gregory-Portland,122.02,240.4,111.13,215.46,566.99,Single-ply,SBD,M
Varsity,124.74,4,Warren Oats,Alice,111.31,201.85,136.08,224.53,562.45,Single-ply,SBD,M
Varsity,124.74,5,Cameron Ellerbee,Beeville Jones,122.2,215.46,122.47,224.53,562.45,Single-ply,SBD,M
Varsity,124.74,6,JR Perez,Port Lavaca Calhoun,123.1,219.99,136.08,190.51,546.58,Single-ply,SBD,M
Varsity,124.74,7,Jeramiah Reyes,Corpus Christi Calallen,114.76,192.78,145.15,188.24,526.17,Single-ply,SBD,M
Varsity,124.74,8,Lucas Janysek,Karnes City,119.48,154.22,108.86,195.04,458.13,Single-ply,SBD,M
Varsity,124.74,9,Dalton Brown,Refugio,112.58,163.29,90.72,124.74,378.75,Single-ply,SBD,M
Varsity,124.74+,1,Manuel Tijerina,Jourdanton,128.73,288.03,158.76,272.16,718.94,Single-ply,SBD,M
Varsity,124.74+,2,Adam Aleman,Beeville Jones,154.67,308.44,151.95,256.28,716.68,Single-ply,SBD,M
Varsity,124.74+,3,Ruben Ortiz,Refugio,150.59,235.87,111.13,181.44,528.44,Single-ply,SBD,M
Varsity,124.74+,4,Jaeren Smith,Refugio,136.08,208.65,129.27,161.03,498.95,Single-ply,SBD,M
Freshmen,51.71,1,William Hinojosa,Beeville Jones,51.53,102.06,70.31,122.47,294.84,Single-ply,SBD,M
Freshmen,51.71,2,Wesley Lover,Karnes City,51.17,97.52,56.7,108.86,263.08,Single-ply,SBD,M
Freshmen,51.71,3,Elizah Lopez,Three Rivers,50.35,102.06,43.09,111.13,256.28,Single-ply,SBD,M
Freshmen,55.79,1,David Van #2,Gregory-Portland,53.71,113.4,56.7,129.27,299.37,Single-ply,SBD,M
Freshmen,59.87,2,Robert Morin,Karnes City,55.97,104.33,63.5,124.74,292.57,Single-ply,SBD,M
Freshmen,55.79,3,Jacob Gonzales,Gregory-Portland,54.43,102.06,54.43,133.81,290.3,Single-ply,SBD,M
Freshmen,55.79,4,Caleb Phillips,Port Lavaca Calhoun,54.88,108.86,58.97,108.86,276.69,Single-ply,SBD,M
Freshmen,59.87,1,Matthew Valdez,San Diego,56.52,142.88,74.84,163.29,381.02,Single-ply,SBD,M
Freshmen,59.87,2,Adam Contreras #2,San Diego,57.97,113.4,61.23,149.69,324.32,Single-ply,SBD,M
Freshmen,59.87,3,Fidencio Hernandez,Gregory-Portland,56.7,106.59,58.97,136.08,301.64,Single-ply,SBD,M
Freshmen,59.87,4,Daniel Martinez #16,Port Lavaca Calhoun,59.06,120.2,58.97,115.67,294.84,Single-ply,SBD,M
Freshmen,59.87,5,Juan Rivera,Three Rivers,57.97,83.91,65.77,115.67,265.35,Single-ply,SBD,M
Freshmen,67.13,1,Desmond Risen,Port Lavaca Calhoun,66.13,163.29,79.38,142.88,385.55,Single-ply,SBD,M
Freshmen,67.13,2,Fabian Garza,Dilley,65.41,145.15,77.11,145.15,367.41,Single-ply,SBD,M
Freshmen,67.13,3,John Ruth,Gregory-Portland,63.96,129.27,68.04,142.88,340.19,Single-ply,SBD,M
Freshmen,74.84,1,Gilbert Aguirre,Three Rivers,73.94,156.49,88.45,147.42,392.36,Single-ply,SBD,M
Freshmen,74.84,2,Edward DeLeon,Port Lavaca Calhoun,70.13,122.47,72.57,158.76,353.8,Single-ply,SBD,M
Freshmen,74.84,3,Shavarious Richards,Port Lavaca Calhoun,69.58,117.93,70.31,136.08,324.32,Single-ply,SBD,M
Freshmen,74.84,4,Jacon Rivera,Port Lavaca Calhoun,71.49,108.86,90.72,120.2,319.78,Single-ply,SBD,M
Freshmen,74.84,5,Will Vasquez,Dilley,72.85,102.06,90.72,127.01,319.78,Single-ply,SBD,M
Freshmen,74.84,6,Buddy Vega,Jourdanton,70.76,117.93,70.31,124.74,312.98,Single-ply,SBD,M
Freshmen,74.84,7,Roman Bueno,Alice,72.3,102.06,83.91,124.74,310.71,Single-ply,SBD,M
Freshmen,74.84,8,Coleman Williams,Karnes City,68.31,97.52,68.04,124.74,290.3,Single-ply,SBD,M
Freshmen,82.1,1,Aaron Charles,Beeville Jones,80.65,149.69,90.72,138.35,378.75,Single-ply,SBD,M
Freshmen,82.1,2,JoeAllen Herrera,Beeville Jones,81.19,124.74,88.45,145.15,358.34,Single-ply,SBD,M
Freshmen,82.1,3,Elias Estrada,Karnes City,76.11,129.27,77.11,136.08,342.46,Single-ply,SBD,M
Freshmen,82.1,4,Andres Soliz,Alice,78.2,120.2,83.91,133.81,337.93,Single-ply,SBD,M
Freshmen,82.1,5,Oscar Montalvo,Alice,77.2,102.06,86.18,142.88,331.12,Single-ply,SBD,M
Freshmen,89.81,1,Lonnie Reyes,Three Rivers,86.18,172.37,120.2,183.7,476.27,Single-ply,SBD,M
Freshmen,89.81,2,Bryan De Los Santos,Dilley,83.91,145.15,122.47,172.37,439.98,Single-ply,SBD,M
Freshmen,89.81,3,JoeRichard Castellano,Refugio,85.18,147.42,95.25,147.42,390.09,Single-ply,SBD,M
Freshmen,89.81,4,Arturo Sanchez,Port Lavaca Calhoun,88.72,136.08,83.91,158.76,378.75,Single-ply,SBD,M
Freshmen,89.81,5,EJ Garza,Gregory-Portland,83.91,151.95,70.31,142.88,365.14,Single-ply,SBD,M
Freshmen,89.81,6,Tim Garcia,Alice,84.91,106.59,83.91,124.74,315.25,Single-ply,SBD,M
Freshmen,99.79,1,John Rivera,Alice,93.89,204.12,133.81,204.12,542.04,Single-ply,SBD,M
Freshmen,99.79,2,Thomas Compos,Gregory-Portland,94.62,158.76,90.72,151.95,401.43,Single-ply,SBD,M
Freshmen,99.79,3,Shane Edens,Three Rivers,91.72,158.76,86.18,147.42,392.36,Single-ply,SBD,M
Freshmen,99.79,4,Charles West,Gregory-Portland,98.7,151.95,77.11,147.42,376.48,Single-ply,SBD,M
Freshmen,99.79,5,Jose Ramos,Gregory-Portland,96.89,158.76,86.18,120.2,365.14,Single-ply,SBD,M
Freshmen,99.79,6,Zeke Calzada,Port Lavaca Calhoun,98.43,136.08,102.06,111.13,349.27,Single-ply,SBD,M
Freshmen,109.77,1,Ariel Soliz,Alice,108.32,188.24,120.2,145.15,453.59,Single-ply,SBD,M
Freshmen,109.77,2,Julian Hernandez,Port Lavaca Calhoun,108.41,136.08,102.06,138.35,376.48,Single-ply,SBD,M
Freshmen,109.77,3,Lupe Salinas,Port Lavaca Calhoun,108.32,138.35,92.99,142.88,374.21,Single-ply,SBD,M
Freshmen,124.74,1,Juan Macias,Alice,116.75,197.31,127.01,161.03,485.34,Single-ply,SBD,M
Freshmen,124.74,2,Manuel Gonzales,Alice,122.47,158.76,102.06,158.76,419.57,Single-ply,SBD,M
Freshmen,124.74,3,Justin Brister,Jourdanton,121.38,145.15,99.79,142.88,387.82,Single-ply,SBD,M
Freshmen,124.74,4,Dustin Terry,Three Rivers,113.49,147.42,88.45,147.42,383.29,Single-ply,SBD,M
Freshmen,124.74,5,Waylon Oats,Alice,122.92,151.95,65.77,145.15,362.87,Single-ply,SBD,M
Freshmen,124.74,6,JohnPaul Lugo,Jourdanton,110.22,133.81,83.91,136.08,353.8,Single-ply,SBD,M
Freshmen,124.74,7,Xavier Carrillo,Alice,116.85,113.4,83.91,117.93,315.25,Single-ply,SBD,M
Freshmen,124.74+,1,Trent Enriquez,Karnes City,125.65,158.76,111.13,147.42,417.3,Single-ply,SBD,M
Freshmen,124.74+,2,John Lazo,Alice,151.86,151.95,106.59,158.76,417.3,Single-ply,SBD,M
