Place,Sex,Event,Equipment,Tested,WeightClassKg,Name,CyrillicName,BirthDate,Division,BodyweightKg,Squat1Kg,Squat2Kg,Squat3Kg,Squat4Kg,Best3SquatKg,Bench1Kg,Bench2Kg,Bench3Kg,Bench4Kg,Best3BenchKg,Deadlift1Kg,Deadlift2Kg,Deadlift3Kg,Deadlift4Kg,Best3DeadliftKg,TotalKg
1,M,B,Raw,Yes,82.5,Andrey Brazhnik,Андрей Бражник,1983-08-19,Amateur Open,80.88,,,,,,170,180,-190,,180,,,,,,180
2,M,B,Raw,Yes,82.5,Evgeniy Ritter,Евгений Риттер,1981-07-13,Amateur Open,82,,,,,,147.5,157.5,165,,165,,,,,,165
3,M,B,Raw,Yes,82.5,Aleksandr Murga,Александр Мурга,1981-06-23,Amateur Open,79.2,,,,,,140,-147.5,147.5,,147.5,,,,,,147.5
4,M,B,Raw,Yes,82.5,Aleksey Goloshchapov,Алексей Голощапов,1987-11-07,Amateur Open,80.8,,,,,,135,142.5,-147.5,,142.5,,,,,,142.5
5,M,B,Raw,Yes,82.5,Andrey Rubtsov,Андрей Рубцов,1978-04-20,Amateur Open,80.65,,,,,,137.5,-142.5,-147.5,,137.5,,,,,,137.5
6,M,B,Raw,Yes,82.5,Igor Kagadiy,Игорь Кагадий,1991-03-28,Amateur Open,81.2,,,,,,127.5,137.5,-147.5,,137.5,,,,,,137.5
7,M,B,Raw,Yes,82.5,Aleksey Usmanov,Алексей Усманов,1973-02-27,Amateur Open,81.75,,,,,,120,130,-142.5,,130,,,,,,130
8,M,B,Raw,Yes,82.5,Anton Rusov,Антон Русов,1988-04-11,Amateur Open,75.5,,,,,,127.5,-132.5,-135,,127.5,,,,,,127.5
9,M,B,Raw,Yes,82.5,Andrey Modorov,Андрей Модоров,1989-07-30,Amateur Open,78.4,,,,,,-115,-115,115,,115,,,,,,115
1,M,B,Raw,Yes,75,Viktor Baranov,Виктор Баранов,1987-11-07,Amateur Open,74.25,,,,,,150,157.5,,,157.5,,,,,,157.5
2,M,B,Raw,Yes,75,Vladimir Shukshin,Владимир Шукшин,1990-02-23,Amateur Open,70.85,,,,,,-140,140,150,,150,,,,,,150
3,M,B,Raw,Yes,75,Aleksey Manankov,Алексей Мананков,1982-02-04,Amateur Open,71.55,,,,,,140,145,147.5,,147.5,,,,,,147.5
4,M,B,Raw,Yes,75,Evgeniy Zhivoy,Евгений Живой,1979-04-15,Amateur Open,74.05,,,,,,140,-145,-145,,140,,,,,,140
5,M,B,Raw,Yes,75,Pavel Parfenov,Павел Парфенов,1988-09-20,Amateur Open,74.3,,,,,,130,137.5,-147.5,,137.5,,,,,,137.5
6,M,B,Raw,Yes,75,Denis Shipulin,Денис Шипулин,1981-08-07,Amateur Open,72.8,,,,,,125,132.5,-137.5,,132.5,,,,,,132.5
7,M,B,Raw,Yes,75,Vitaliy Igumnov,Виталий Игумнов,1978-07-09,Amateur Open,73.3,,,,,,120,125,-130,,125,,,,,,125
8,M,B,Raw,Yes,75,Aleksandr Makarov,Александр Макаров,1986-01-23,Amateur Open,68.85,,,,,,105,110,-120,,110,,,,,,110
1,M,B,Raw,Yes,90,Artem Lukyanov,Артем Лукьянов,1983-04-02,Amateur Open,88,,,,,,160,170,-177.5,,170,,,,,,170
2,M,B,Raw,Yes,90,Dmitriy Zhigulin,Дмитрий Жигулин,1981-08-16,Amateur Open,87.95,,,,,,-155,155,160,,160,,,,,,160
3,M,B,Raw,Yes,90,Ivan Frolov,Иван Фролов,1988-12-15,Amateur Open,90,,,,,,145,150,-155,,150,,,,,,150
4,M,B,Raw,Yes,90,Egor Veselov,Егор Веселов,1986-11-21,Amateur Open,89.7,,,,,,145,-155,-155,,145,,,,,,145
5,M,B,Raw,Yes,90,Evgeniy Pashinskiy,Евгений Пашинский,1988-01-02,Amateur Open,89.4,,,,,,137.5,142.5,-145,,142.5,,,,,,142.5
6,M,B,Raw,Yes,90,Aleksandr Sukhov,Александр Сухов,1988-03-15,Amateur Open,86.35,,,,,,130,135,140,,140,,,,,,140
7,M,B,Raw,Yes,90,Sergey Shilin,Сергей Шилин,1976-02-06,Amateur Open,88,,,,,,137.5,-150,-150,,137.5,,,,,,137.5
8,M,B,Raw,Yes,90,Ivan Eliseev,Иван Елисеев,1985-07-17,Amateur Open,89.7,,,,,,135,-142.5,-142.5,,135,,,,,,135
9,M,B,Raw,Yes,90,Tikhon Filippov,Тихон Филиппов,1990-11-19,Amateur Open,86.95,,,,,,120,125,-130,,125,,,,,,125
10,M,B,Raw,Yes,90,Ivan Dikun,Иван Дикун,1985-11-08,Amateur Open,87,,,,,,125,-130,-130,,125,,,,,,125
11,M,B,Raw,Yes,90,Ilya Simonov,Илья Симонов,1985-11-10,Amateur Open,85.8,,,,,,-120,120,-125,,120,,,,,,120
12,M,B,Raw,Yes,90,Evgeniy Mokroborodov,Евгений Мокробородов,1979-12-18,Amateur Open,86.55,,,,,,110,120,-135,,120,,,,,,120
DQ,M,B,Raw,Yes,90,Ilya Simonov,Илья Симонов,1985-11-10,Amateur Open,85.8,,,,,,-120,,,,,,,,,,
DQ,M,B,Raw,Yes,90,Andrey Brazhnik,Андрей Бражник,1983-08-19,Amateur Open,88.85,,,,,,-170,,,,,,,,,,
DQ,M,B,Raw,Yes,90,Dmitriy Dymov,Дмитрий Дымов,1984-07-21,Amateur Open,89.85,,,,,,-162.5,,,,,,,,,,
1,M,B,Raw,Yes,125,Leonid Shevelkov,Леонид Шевельков,1987-10-06,Amateur Open,121.2,,,,,,190,202.5,-210,,202.5,,,,,,202.5
2,M,B,Raw,Yes,125,Ruslan Ziganshin,Руслан Зиганшин,1978-11-22,Amateur Open,115.95,,,,,,180,185,190,,190,,,,,,190
3,M,B,Raw,Yes,125,Vladimir Samoylov,Владимир Самойлов,1991-05-09,Amateur Open,124.95,,,,,,180,185,187.5,,187.5,,,,,,187.5
4,M,B,Raw,Yes,125,Konstantin Starodubov,Константин Стародубов,1982-10-17,Amateur Open,125,,,,,,170,180,-187.5,,180,,,,,,180
5,M,B,Raw,Yes,125,Andrey Ruban,Андрей Рубан,1983-09-21,Amateur Open,111.9,,,,,,167.5,172.5,-175,,172.5,,,,,,172.5
1,M,B,Raw,Yes,100,Sergey Nikolaev,Сергей Николаев,1971-10-07,Amateur Open,100,,,,,,180,187.5,-192.5,,187.5,,,,,,187.5
2,M,B,Raw,Yes,100,Denis Denisov,Денис Денисов,1980-07-23,Amateur Open,100,,,,,,-165,175,180,,180,,,,,,180
3,M,B,Raw,Yes,100,Andrey Fufaev,Андрей Фуфаев,1983-02-05,Amateur Open,95.8,,,,,,145,162.5,175,,175,,,,,,175
4,M,B,Raw,Yes,100,Mikhail Kiselev,Михаил Киселев,1976-05-29,Amateur Open,96.65,,,,,,-165,165,170,,170,,,,,,170
5,M,B,Raw,Yes,100,Sergey Kolmychkov,Сергей Колмычков,1976-11-24,Amateur Open,99.9,,,,,,160,-170,-180,,160,,,,,,160
1,M,B,Raw,Yes,110,Maksim Starosvetskiy,Максим Старосветский,1975-04-10,Amateur Open,108.35,,,,,,190,195,197.5,,197.5,,,,,,197.5
2,M,B,Raw,Yes,110,Sergey Gerber,Сергей Гербер,1977-07-15,Amateur Open,105.55,,,,,,185,195,-197.5,,195,,,,,,195
3,M,B,Raw,Yes,110,Sergey Pismennyy,Сергей Письменный,1976-10-05,Amateur Open,108.2,,,,,,185,-190,-195,,185,,,,,,185
4,M,B,Raw,Yes,110,Sergey Babin,Сергей Бабин,1981-11-18,Amateur Open,106.8,,,,,,167.5,170,-172.5,,170,,,,,,170
5,M,B,Raw,Yes,110,Konstantin Zhukov,Константин Жуков,1987-04-21,Amateur Open,108.85,,,,,,160,167.5,-172.5,,167.5,,,,,,167.5
6,M,B,Raw,Yes,110,Nikita Mirsaev,Никита Мирсаев,1989-05-25,Amateur Open,108.95,,,,,,160,167.5,-170,,167.5,,,,,,167.5
7,M,B,Raw,Yes,110,Evgeniy Mizin,Евгений Мизин,1975-09-08,Amateur Open,107.35,,,,,,155,162.5,-167.5,,162.5,,,,,,162.5
8,M,B,Raw,Yes,110,Mikhail Ovsyannikov,Михаил Овсянников,1985-02-23,Amateur Open,109.8,,,,,,147.5,155,157.5,,157.5,,,,,,157.5
9,M,B,Raw,Yes,110,Dmitriy Gorbunov,Дмитрий Горбунов,1983-07-28,Amateur Open,108.55,,,,,,140,150,-160,,150,,,,,,150
10,M,B,Raw,Yes,110,Timur Tartykov,Тимур Тартыков,1981-10-20,Amateur Open,105.95,,,,,,110,-115,-115,,110,,,,,,110
1,M,B,Raw,Yes,67.5,Dmitriy Kaygorodov,Дмитрий Кайгородов,1983-09-24,Amateur Open,66.95,,,,,,140,145,150,,150,,,,,,150
2,M,B,Raw,Yes,67.5,Aleksey Abramov,Алексей Абрамов,1986-04-06,Amateur Open,67.5,,,,,,130,137.5,-145,,137.5,,,,,,137.5
3,M,B,Raw,Yes,67.5,Igor Mulenko,Игорь Муленко,1966-11-16,Amateur Open,67.5,,,,,,115,-120,122.5,,122.5,,,,,,122.5
1,M,B,Raw,Yes,140,Mikhail Sidorov,Михаил Сидоров,1983-09-06,Amateur Open,126,,,,,,140,150,-155,,150,,,,,,150
1,M,B,Raw,Yes,56,Baturkhan Mukhametov,Батурхан Мухаметов,1999-07-13,Amateur Open,55.75,,,,,,102.5,-107.5,107.5,-110,107.5,,,,,,107.5
DQ,M,B,Raw,Yes,56,Evgeniy Yalatov,Евгений Ялатов,1987-03-05,Amateur Open,53.3,,,,,,-87.5,-92.5,-92.5,,,,,,,,
1,M,B,Raw,Yes,82.5,Vsevolod Sandomirskiy,Всеволод Сандомирский,1969-01-31,Amateur Masters 40-49,81.45,,,,,,140,-147.5,-147.5,,140,,,,,,140
2,M,B,Raw,Yes,82.5,Aleksey Usmanov,Алексей Усманов,1973-02-27,Amateur Masters 40-49,81.75,,,,,,120,130,-142.5,,130,,,,,,130
1,M,B,Raw,Yes,90,Sergey Voronets,Сергей Воронец,1971-10-16,Amateur Masters 40-49,89.15,,,,,,162.5,167.5,-172.5,,167.5,,,,,,167.5
2,M,B,Raw,Yes,90,Yuriy Rubanov,Юрий Рубанов,1967-11-28,Amateur Masters 40-49,88.55,,,,,,160,165,-172.5,,165,,,,,,165
3,M,B,Raw,Yes,90,Aleksandr Tyulenev,Александр Тюленев,1968-08-26,Amateur Masters 40-49,89.75,,,,,,147.5,152.5,157.5,,157.5,,,,,,157.5
4,M,B,Raw,Yes,90,Evgeniy Svoboda,Евгений Свобода,1972-03-23,Amateur Masters 40-49,88.85,,,,,,130,140,-147.5,,140,,,,,,140
1,M,B,Raw,Yes,100,Sergey Nikolaev,Сергей Николаев,1971-10-07,Amateur Masters 40-49,100,,,,,,180,187.5,-192.5,,187.5,,,,,,187.5
2,M,B,Raw,Yes,100,Vyacheslav Namakonov,Вячеслав Намаконов,1970-10-18,Amateur Masters 40-49,99.9,,,,,,157.5,162.5,165,,165,,,,,,165
3,M,B,Raw,Yes,100,Aleksandr Gryaznov,Александр Грязнов,1974-06-08,Amateur Masters 40-49,94.05,,,,,,142.5,150,155,,155,,,,,,155
1,M,B,Raw,Yes,75,Gennadiy Shishkov,Геннадий Шишков,1967-02-01,Amateur Masters 40-49,74.75,,,,,,107.5,-120,-120,,107.5,,,,,,107.5
1,M,B,Raw,Yes,110,Maksim Starosvetskiy,Максим Старосветский,1975-04-10,Amateur Masters 40-49,108.35,,,,,,190,195,197.5,,197.5,,,,,,197.5
2,M,B,Raw,Yes,110,Oleg Rybalkin,Олег Рыбалкин,1971-10-07,Amateur Masters 40-49,106,,,,,,170,175,-180,,175,,,,,,175
3,M,B,Raw,Yes,110,Sergey Markov,Сергей Марков,1973-07-30,Amateur Masters 40-49,108.2,,,,,,165,170,-177.5,,170,,,,,,170
4,M,B,Raw,Yes,110,Dmitriy Melkov,Дмитрий Мельков,1971-03-18,Amateur Masters 40-49,108.95,,,,,,142.5,-147.5,-147.5,,142.5,,,,,,142.5
1,M,B,Raw,Yes,125,Aleksey Chernysh,Алексей Черныш,1967-05-10,Amateur Masters 40-49,111.3,,,,,,175,180,185,,185,,,,,,185
1,M,B,Raw,Yes,100,Dmitriy Gerbel,Дмитрий Гербель,1992-05-14,Amateur Juniors 20-23,92.75,,,,,,170,177.5,-180,,177.5,,,,,,177.5
2,M,B,Raw,Yes,100,Aleksandr Serdyukov,Александр Сердюков,1994-03-13,Amateur Juniors 20-23,99,,,,,,155,162.5,167.5,,167.5,,,,,,167.5
3,M,B,Raw,Yes,100,Sergey Tkachenko,Сергей Ткаченко,1992-06-23,Amateur Juniors 20-23,96.15,,,,,,150,-152.5,-152.5,,150,,,,,,150
1,M,B,Raw,Yes,75,Igor Skripov,Игорь Скрипов,1992-05-24,Amateur Juniors 20-23,72.9,,,,,,110,115,-120,,115,,,,,,115
2,M,B,Raw,Yes,75,Aleksandr Angel,Александр Ангел,1994-10-13,Amateur Juniors 20-23,74.1,,,,,,-100,105,-110,,105,,,,,,105
1,M,B,Raw,Yes,67.5,Konstantin Dyatlov,Константин Дятлов,1992-12-30,Amateur Juniors 20-23,64.15,,,,,,120,125,-127.5,,125,,,,,,125
2,M,B,Raw,Yes,67.5,Roman Leonov,Роман Леонов,1994-08-10,Amateur Juniors 20-23,65.35,,,,,,-125,125,-127.5,,125,,,,,,125
DQ,M,B,Raw,Yes,67.5,Anton Evdokimov,Антон Евдокимов,1991-10-31,Amateur Juniors 20-23,64,,,,,,-100,,,,,,,,,,
1,M,B,Raw,Yes,82.5,Semen Golovachuk,Семен Головачук,1991-11-07,Amateur Juniors 20-23,81.35,,,,,,150,160,-170,,160,,,,,,160
DQ,M,B,Raw,Yes,82.5,Aleksandr Vaynberger,Александр Вайнбергер,1993-02-17,Amateur Juniors 20-23,79.55,,,,,,-125,-125,-125,,,,,,,,
1,M,B,Raw,Yes,60,Aleksey Cherdantsev,Алексей Черданцев,1991-09-19,Amateur Juniors 20-23,58.65,,,,,,90,100,-102.5,,100,,,,,,100
DQ,M,B,Raw,Yes,60,Sergey Baykalov,Сергей Байкалов,1991-10-18,Amateur Juniors 20-23,57.9,,,,,,-115,-115,-115,,,,,,,,
1,M,B,Raw,Yes,125,Aleksey Kuzmenkov,Алексей Кузьменков,1991-05-18,Amateur Juniors 20-23,119.9,,,,,,170,-180,185,,185,,,,,,185
1,M,B,Raw,Yes,90,Ruslan Telenkov,Руслан Теленков,1995-04-29,Amateur Juniors 20-23,86,,,,,,140,145,-150,,145,,,,,,145
1,M,B,Raw,Yes,100,Sergey Annenkov,Сергей Анненков,1958-04-11,Amateur Masters 50-59,97,,,,,,150,155,162.5,,162.5,,,,,,162.5
2,M,B,Raw,Yes,100,Vyacheslav Nikolaev,Вячеслав Николаев,1956-07-10,Amateur Masters 50-59,90.8,,,,,,120,-127.5,-127.5,,120,,,,,,120
1,M,B,Raw,Yes,90,Vladimir Chumakov,Владимир Чумаков,1964-03-18,Amateur Masters 50-59,89.5,,,,,,130,-140,-140,,130,,,,,,130
1,M,B,Raw,Yes,100,Sergey Angel,Сергей Ангел,1955-03-25,Amateur Masters 60-69,99.25,,,,,,100,107.5,-112.5,,107.5,,,,,,107.5
1,M,B,Raw,Yes,90,Aleksadr Razmakhnin,Алексадр Размахнин,1951-08-08,Amateur Masters 60-69,85.7,,,,,,110,120,122.5,,122.5,,,,,,122.5
2,M,B,Raw,Yes,90,Anatoliy Pavlenko,Анатолий Павленко,1951-05-26,Amateur Masters 60-69,89.85,,,,,,112.5,117.5,-120,,117.5,,,,,,117.5
1,M,B,Raw,Yes,110,Dmitriy Kruglov,Дмитрий Круглов,1955-05-09,Amateur Masters 60-69,100.55,,,,,,-110,115,-120,,115,,,,,,115
1,M,B,Raw,Yes,56,Grigoriy Bubnov,Григорий Бубнов,2002-03-05,Amateur Teen 13,54.9,,,,,,55,60,65,,65,,,,,,65
1,M,B,Raw,Yes,67.5,Semen Dyakonov,Семен Дьяконов,2001-08-21,Amateur Teen 13,67.1,,,,,,50,60,-70,,60,,,,,,60
1,M,B,Raw,Yes,67.5,Mark Galimov,Марк Галимов,1996-10-01,Amateur Teen 17-19,66.55,,,,,,-115,115,117.5,,117.5,,,,,,117.5
2,M,B,Raw,Yes,67.5,Evgeniy Pasynkov,Евгений Пасынков,1998-03-02,Amateur Teen 17-19,64.7,,,,,,110,-115,115,,115,,,,,,115
3,M,B,Raw,Yes,67.5,Aleksey Chumakov,Алексей Чумаков,1997-06-16,Amateur Teen 17-19,65.9,,,,,,110,115,-117.5,,115,,,,,,115
DQ,M,B,Raw,Yes,67.5,Nikita Getsiner,Никита Гецинер,1996-01-08,Amateur Teen 17-19,65.4,,,,,,-105,,,,,,,,,,
1,M,B,Raw,Yes,90,Nikita Golubev,Никита Голубев,1995-08-07,Amateur Teen 17-19,88.75,,,,,,125,135,142.5,,142.5,,,,,,142.5
1,M,B,Raw,Yes,100,Artemiy Kuznetsov,Артемий Кузнецов,1995-10-21,Amateur Teen 17-19,98.25,,,,,,140,147.5,155,,155,,,,,,155
2,M,B,Raw,Yes,100,Vasiliy Maslovets,Василий Масловец,1996-07-21,Amateur Teen 17-19,97.9,,,,,,142.5,147.5,-155,,147.5,,,,,,147.5
3,M,B,Raw,Yes,100,Vladislav Komkov,Владислав Комков,1997-05-24,Amateur Teen 17-19,97.45,,,,,,132.5,-142.5,-142.5,,132.5,,,,,,132.5
4,M,B,Raw,Yes,100,Bogdan Nazarov,Богдан Назаров,1997-06-20,Amateur Teen 17-19,96.75,,,,,,-110,110,-120,,110,,,,,,110
1,M,B,Raw,Yes,75,Nikita Smirnov,Никита Смирнов,1996-06-03,Amateur Teen 17-19,73.25,,,,,,135,-137.5,-137.5,,135,,,,,,135
2,M,B,Raw,Yes,75,Dmitriy Komarov,Дмитрий Комаров,1996-11-08,Amateur Teen 17-19,73.75,,,,,,125,130,-137.5,,130,,,,,,130
1,M,B,Raw,Yes,82.5,Eduard Trot,Эдуард Трот,1997-03-16,Amateur Teen 17-19,82.5,,,,,,110,117.5,-122.5,,117.5,,,,,,117.5
1,M,B,Raw,Yes,60,Vadim Okul,Вадим Окул,1997-06-13,Amateur Teen 17-19,59.9,,,,,,85,95,100,,100,,,,,,100
1,M,B,Raw,Yes,110,Emil Musaev,Эмиль Мусаев,1998-02-11,Amateur Teen 17-19,100.5,,,,,,110,-120,120,,120,,,,,,120
1,M,B,Raw,Yes,75,Igor Kirillov,Игорь Кириллов,1998-08-20,Amateur Teen 14-16,74.35,,,,,,95,115,120,,120,,,,,,120
DQ,M,B,Raw,Yes,75,Nikita Levichev,Никита Левичев,1998-06-15,Amateur Teen 14-16,71.7,,,,,,-110,,,,,,,,,,
1,M,B,Raw,Yes,56,Baturkhan Mukhametov,Батурхан Мухаметов,1999-07-13,Amateur Teen 14-16,55.75,,,,,,102.5,-107.5,107.5,-110,107.5,,,,,,107.5
1,F,B,Raw,Yes,52,Elena Diss,Елена Дисс,1972-01-10,Amateur Open,51.9,,,,,,52.5,-57.5,-57.5,,52.5,,,,,,52.5
2,F,B,Raw,Yes,52,Ulyana Lukyanenko,Ульяна Лукьяненко,1999-03-02,Amateur Open,51.85,,,,,,42.5,47.5,-52.5,,47.5,,,,,,47.5
1,F,B,Raw,Yes,75,Anna Slobodchikova,Анна Слободчикова,1981-06-07,Amateur Open,74.8,,,,,,80,-90,90,,90,,,,,,90
2,F,B,Raw,Yes,75,Elena Shiman,Елена Шиман,1991-04-11,Amateur Open,67.8,,,,,,-60,-62.5,62.5,,62.5,,,,,,62.5
1,F,B,Raw,Yes,60,Elena Kamalova,Елена Камалова,1990-10-09,Amateur Open,59.6,,,,,,-60,62.5,-70,,62.5,,,,,,62.5
1,F,B,Raw,Yes,56,Tatyana Solonenko,Татьяна Солоненко,1981-05-20,Amateur Open,55.8,,,,,,52.5,57.5,-65,,57.5,,,,,,57.5
1,F,B,Raw,Yes,67.5,Nina Mayzinger,Нина Майзингер,1993-12-30,Amateur Open,65.6,,,,,,42.5,47.5,50,,50,,,,,,50
1,F,B,Raw,Yes,48,Anna Galkina,Анна Галкина,1991-11-11,Amateur Open,47.7,,,,,,62.5,-67.5,,,62.5,,,,,,62.5
1,F,B,Raw,Yes,44,Evgeniya Chistik,Евгения Чистик,1984-11-14,Amateur Open,42.9,,,,,,50,-55,55,,55,,,,,,55
1,F,B,Raw,Yes,52,Elena Diss,Елена Дисс,1972-01-10,Amateur Masters 40-49,51.9,,,,,,52.5,-57.5,-57.5,,52.5,,,,,,52.5
2,F,B,Raw,Yes,52,Nonna Starostina,Нонна Старостина,1969-12-02,Amateur Masters 40-49,51.65,,,,,,42.5,-47.5,-47.5,,42.5,,,,,,42.5
1,F,B,Raw,Yes,52,Veronika Yarotskaya,Вероника Яроцкая,1994-09-09,Amateur Juniors 20-23,51,,,,,,52.5,57.5,-60,,57.5,,,,,,57.5
DQ,F,B,Raw,Yes,56,Yuliya Kryuchkova,Юлия Крючкова,1991-06-04,Amateur Juniors 20-23,53.65,,,,,,-42.5,,,,,,,,,,
1,F,B,Raw,Yes,48,Anastasiya Peshkova,Анастасия Пешкова,1991-12-30,Amateur Juniors 20-23,47.8,,,,,,55,-62.5,-62.5,,55,,,,,,55
1,F,B,Raw,Yes,44,Tatyana Alekseeva,Татьяна Алексеева,1998-08-04,Amateur Teen 14-16,43.1,,,,,,37.5,42.5,-45,,42.5,,,,,,42.5
1,F,B,Raw,Yes,67.5,Viktoriya Likochenko,Виктория Ликоченко,1998-09-07,Amateur Teen 14-16,65.25,,,,,,55,65,,,65,,,,,,65
1,F,B,Raw,Yes,56,Alina Ogorodnikova,Алина Огородникова,1997-01-20,Amateur Teen 17-19,53.95,,,,,,-65,65,-72.5,,65,,,,,,65
1,M,B,Multi-ply,Yes,90,Nikolay Kuznetsov,Николай Кузнецов,1960-12-28,Amateur Masters 50-59,87.1,,,,,,150,-160,-160,,150,,,,,,150
1,M,B,Multi-ply,Yes,90,Artem Lukyanov,Артем Лукьянов,1983-04-02,Amateur Open,88,,,,,,180,-195,195,,195,,,,,,195
2,M,B,Multi-ply,Yes,90,Nutsu Shiman,Нуцу Шиман,1982-12-16,Amateur Open,88.25,,,,,,190,-207.5,-207.5,,190,,,,,,190
3,M,B,Multi-ply,Yes,90,Evgeniy Svoboda,Евгений Свобода,1972-03-23,Amateur Open,88.85,,,,,,165,172.5,182.5,,182.5,,,,,,182.5
4,M,B,Multi-ply,Yes,90,Denis Eliseev,Денис Елисеев,1981-08-25,Amateur Open,88.75,,,,,,-170,170,-180,,170,,,,,,170
1,M,B,Multi-ply,Yes,100,Viktor Mistratov,Виктор Мистратов,1981-02-10,Amateur Open,98.6,,,,,,280,287.5,-300,,287.5,,,,,,287.5
2,M,B,Multi-ply,Yes,100,Evgeniy Medeltsov,Евгений Медельцов,1986-05-27,Amateur Open,99.55,,,,,,220,-240,-240,,220,,,,,,220
3,M,B,Multi-ply,Yes,100,Yuriy Mikhaylov,Юрий Михайлов,1987-07-22,Amateur Open,92.5,,,,,,170,185,192.5,,192.5,,,,,,192.5
1,M,B,Multi-ply,Yes,110,Aleksandr Kiselev,Александр Киселев,1968-03-28,Amateur Open,102.5,,,,,,120,130,-140,,130,,,,,,130
DQ,M,B,Multi-ply,Yes,56,Baturkhan Mukhametov,Батурхан Мухаметов,1999-07-13,Amateur Open,55.75,,,,,,-115,-115,-115,,,,,,,,
1,M,B,Multi-ply,Yes,82.5,Sergey Zhuganenko,Сергей Жуганенко,1987-02-11,Amateur Open,79.5,,,,,,160,170,175,,175,,,,,,175
1,M,B,Multi-ply,Yes,125,Vladimir Samoylov,Владимир Самойлов,1991-05-09,Amateur Open,124.95,,,,,,200,-212.5,212.5,,212.5,,,,,,212.5
2,M,B,Multi-ply,Yes,125,Artem Karakulov,Артем Каракулов,1989-01-18,Amateur Open,124.15,,,,,,200,-212,212,,212,,,,,,212
1,M,B,Multi-ply,Yes,110,Aleksandr Kiselev,Александр Киселев,1968-03-28,Amateur Masters 40-49,102.5,,,,,,120,130,-140,,130,,,,,,130
1,M,B,Multi-ply,Yes,90,Evgeniy Svoboda,Евгений Свобода,1972-03-23,Amateur Masters 40-49,88.85,,,,,,165,172.5,182.5,,182.5,,,,,,182.5
1,M,B,Multi-ply,Yes,100,Daniil Shcherbatykh,Даниил Щербатых,1998-03-25,Amateur Teen 17-19,96.15,,,,,,145,155,170,,170,,,,,,170
1,M,B,Multi-ply,Yes,67.5,Nikita Filippov,Никита Филиппов,1997-10-09,Amateur Teen 17-19,66.4,,,,,,115,-125,-125,,115,,,,,,115
DQ,M,B,Multi-ply,Yes,82.5,Andrey Mandzyuk,Андрей Мандзюк,1997-01-09,Amateur Teen 17-19,77.8,,,,,,-130,-130,-130,,,,,,,,
DQ,M,B,Multi-ply,Yes,56,Baturkhan Mukhametov,Батурхан Мухаметов,1999-07-13,Amateur Teen 14-16,55.75,,,,,,-115,-115,-115,,,,,,,,
1,M,B,Multi-ply,Yes,100,Sergey Tarasenko,Сергей Тарасенко,1992-05-22,Amateur Juniors 20-23,97.8,,,,,,160,170,-192.5,,170,,,,,,170
1,F,B,Multi-ply,Yes,56,Kseniya Kuzmina,Ксения Кузьмина,1993-01-28,Amateur Juniors 20-23,55.4,,,,,,-42.5,42.5,-47.5,,42.5,,,,,,42.5
1,F,B,Multi-ply,Yes,56,Kseniya Kuzmina,Ксения Кузьмина,1993-01-28,Amateur Open,55.4,,,,,,-42.5,42.5,-47.5,,42.5,,,,,,42.5
1,M,B,Raw,No,75,Andrey Solodkin,Андрей Солодкин,1989-05-28,Pro Open,68,,,,,,85,90,95,,95,,,,,,95
1,M,B,Raw,No,60,Stas Sheyko,Стас Шейко,1989-05-14,Pro Open,58,,,,,,50,60,65,,65,,,,,,65
1,M,B,Raw,No,67.5,Yuriy Vikhorev,Юрий Вихорев,1950-06-28,Pro Open,66.65,,,,,,90,-95,95,,95,,,,,,95
DQ,M,B,Raw,No,67.5,Ilya Bautin,Илья Баутин,1998-04-15,Pro Open,65.4,,,,,,-85,,,,,,,,,,
1,M,B,Raw,No,56,Dmitriy Makretskiy,Дмитрий Макрецкий,1991-01-01,Pro Open,56,,,,,,75,82.5,-85,,82.5,,,,,,82.5
1,M,B,Raw,No,90,Dmitriy Mukhin,Дмитрий Мухин,1988-11-03,Pro Open,86.9,,,,,,85,90,95,,95,,,,,,95
1,M,B,Raw,No,110,Maksim Chistyakov,Максим Чистяков,1989-08-09,Pro Open,107.35,,,,,,75,80,-85,,80,,,,,,80
1,M,B,Raw,No,125,Anton Ponomarev,Антон Пономарев,1992-02-12,Pro Open,119.45,,,,,,170,180,-185,,180,,,,,,180
2,M,B,Raw,No,125,Igor Pelikh,Игорь Пелих,1972-03-30,Pro Open,111.95,,,,,,90,95,100,,100,,,,,,100
1,M,B,Raw,No,82.5,Aleksey Shestakov,Алексей Шестаков,1986-04-13,Pro Open,79.45,,,,,,115,120,-125,,120,,,,,,120
1,M,B,Raw,No,67.5,Ilya Bautin,Илья Баутин,1998-04-15,Pro Teen 17-19,65,,,,,,85,90,-95,,90,,,,,,90
1,M,SBD,Wraps,Yes,125,Sergey Lukyanov,Сергей Лукьянов,1973-05-27,Amateur Open,118.6,255,265,-275,,265,205,215,-222.5,,215,260,270,-282.5,,270,750
2,M,SBD,Wraps,Yes,125,Aleksandr Shelepov,Александр Шелепов,1990-07-01,Amateur Open,116.45,160,172.5,180,,180,130,140,-150,,140,170,185,195,,195,515
1,M,SBD,Wraps,Yes,67.5,Mikhail Suslov,Михаил Суслов,1994-08-24,Amateur Open,65.95,190,195,200,,200,127,135,-140,,135,215,232.5,-242.5,,232.5,567.5
2,M,SBD,Wraps,Yes,67.5,Sergey Poboykin,Сергей Побойкин,1989-03-10,Amateur Open,66.15,-150,-150,155,,155,132.5,137.5,-140,,137.5,175,185,190,,190,482.5
3,M,SBD,Wraps,Yes,67.5,Timofey Ishimov,Тимофей Ишимов,1990-12-01,Amateur Open,67,160,-170,-170,,160,105,-110,-110,,105,185,195,202.5,,202.5,467.5
4,M,SBD,Wraps,Yes,67.5,Olim Akhmedov,Олим Ахмедов,1988-11-16,Amateur Open,63.9,-130,130,-140,,130,100,107.5,-110,,107.5,175,-180,,,175,412.5
1,M,SBD,Wraps,Yes,60,Aleksey Chir,Алексей Чир,1987-06-30,Amateur Open,58.8,100,110,115,,115,70,77.5,82.5,,82.5,-180,182.5,-190,,182.5,380
1,M,SBD,Wraps,Yes,82.5,Roman Khromov,Роман Хромов,1989-06-26,Amateur Open,82.1,210,220,225,,225,150,155,-160,,155,215,225,-230,,225,605
2,M,SBD,Wraps,Yes,82.5,Vladimir Kotenev,Владимир Котенев,1991-05-01,Amateur Open,81.95,180,190,-200,,190,-120,125,-135,,125,247.5,-257.5,-257.5,,247.5,562.5
3,M,SBD,Wraps,Yes,82.5,Anton Smirnov,Антон Смирнов,1988-12-29,Amateur Open,75.5,130,-140,-140,,130,90,100,107.5,,107.5,170,190,200,,200,437.5
4,M,SBD,Wraps,Yes,82.5,Igor Romashkin,Игорь Ромашкин,1986-08-12,Amateur Open,81.05,120,140,145,,145,100,-112.5,-112.5,,100,145,170,180,,180,425
5,M,SBD,Wraps,Yes,82.5,Iftikhor Gafurov,Ифтихор Гафуров,1989-04-12,Amateur Open,82.25,135,150,-160,,150,105,-110,-110,,105,140,150,170,,170,425
6,M,SBD,Wraps,Yes,82.5,Mikhail Deriga,Михаил Дерига,1989-08-10,Amateur Open,78.6,-130,135,-140,,135,120,127.5,-132.5,,127.5,145,155,,,155,417.5
7,M,SBD,Wraps,Yes,82.5,Konstantin Chesnov,Константин Чеснов,1986-05-27,Amateur Open,79.95,150,160,-167.5,,160,-90,90,97.5,,97.5,150,-160,-160,,150,407.5
8,M,SBD,Wraps,Yes,82.5,Iftikhor Gafurov,Ифтихор Гафуров,1989-04-12,Amateur Open,82.25,135,150,-160,,150,105,-110,-110,,105,-140,,,,,255
9,M,SBD,Wraps,Yes,82.5,Aleksey Platoshin,Алексей Платошин,1984-10-01,Amateur Open,81.75,-180,190,195,,195,-140,-140,-140,,,-220,,,,,195
1,M,SBD,Wraps,Yes,75,Aleksey Kuptsov,Алексей Купцов,1990-06-21,Amateur Open,74.3,210,217.5,225,,225,115,120,-125,,120,190,200,205,,205,550
2,M,SBD,Wraps,Yes,75,Ivan Kostin,Иван Костин,1990-09-22,Amateur Open,74,200,-205,-205,,200,130,132.5,135,,135,190,202.5,210,,210,545
3,M,SBD,Wraps,Yes,75,Aleksandr Krasnov,Александр Краснов,1986-10-28,Amateur Open,74.8,165,175,-180,,175,125,130,132.5,,132.5,215,230,-235,,230,537.5
4,M,SBD,Wraps,Yes,75,Aleksey Krasnov,Алексей Краснов,1986-10-28,Amateur Open,74.9,170,175,180,,180,125,130,132.5,,132.5,215,225,-230,,225,537.5
5,M,SBD,Wraps,Yes,75,Mikhail Khludnev,Михаил Хлуднев,1987-01-18,Amateur Open,73,-90,105,-120,,105,70,85,87.5,,87.5,130,150,170,,170,362.5
1,M,SBD,Wraps,Yes,90,Denis Dikov,Денис Диков,1990-12-09,Amateur Open,88.1,200,212.5,-217.5,,212.5,-150,150,-160,,150,-210,210,220,,220,582.5
2,M,SBD,Wraps,Yes,90,Maksim Denisenko,Максим Денисенко,1988-08-11,Amateur Open,89.05,170,190,195,,195,120,130,-135,,130,210,-217.5,217.5,,217.5,542.5
3,M,SBD,Wraps,Yes,90,Evgeniy Svoboda,Евгений Свобода,1972-03-23,Amateur Open,90,170,180,,,180,130,140,,,140,200,220,,,220,540
1,M,SBD,Wraps,Yes,110,Anton Timofeev,Антон Тимофеев,1981-01-20,Amateur Open,109.95,210,220,,,220,140,150,-155,,150,200,-220,220,,220,590
1,M,SBD,Wraps,Yes,75,Evgeniy Shurakov,Евгений Шураков,1997-12-17,Amateur Teen 17-19,73.45,180,190,197.5,,197.5,112.5,117.5,120,,120,210,220,230,235,230,547.5
2,M,SBD,Wraps,Yes,75,Vladislav Dolgopolov,Владислав Долгополов,1995-07-04,Amateur Teen 17-19,74.25,160,-170,170,,170,-135,135,-140,,135,210,-215,-220,,210,515
3,M,SBD,Wraps,Yes,75,Pavel Skiba,Павел Скиба,1998-03-20,Amateur Teen 17-19,74.75,170,180,185,,185,110,115,120,,120,170,180,195,,195,500
4,M,SBD,Wraps,Yes,75,Mikhail Mironov,Михаил Миронов,1982-07-21,Amateur Open,71,140,147.5,155,,155,95,102.5,107.5,,107.5,185,195,-205,,195,457.5
5,M,SBD,Wraps,Yes,75,Anton Ilinykh,Антон Ильиных,1998-04-03,Amateur Teen 17-19,74.9,130,140,-145,,140,90,95,100,,100,140,150,160,,160,400
6,M,SBD,Wraps,Yes,75,Danil Popov,Данил Попов,1995-10-27,Amateur Teen 17-19,74.05,-105,-105,105,,105,-70,75,-80,,75,150,160,170,,170,350
1,M,SBD,Wraps,Yes,82.5,Aleksandr Cherkashin,Александр Черкашин,1997-12-28,Amateur Teen 17-19,81.95,175,-180,180,,180,135,-145,145,,145,230,-240,-247.5,,230,555
2,M,SBD,Wraps,Yes,82.5,Nikita Vaneev,Никита Ванеев,1997-03-04,Amateur Teen 17-19,81.1,110,120,130,,130,80,-90,90,,90,140,145,150,,150,370
3,M,SBD,Wraps,Yes,82.5,Vladimir Petrov,Владимир Петров,1996-07-14,Amateur Teen 17-19,78.25,100,110,-120,,110,60,70,-72.5,,70,140,160,170,,170,350
DQ,M,SBD,Wraps,Yes,82.5,Dmitriy Zhura,Дмитрий Жура,1997-07-03,Amateur Teen 17-19,81.85,-170,-185,-185,,,-100,,,,,-190,,,,,
1,M,SBD,Wraps,Yes,56,Andrey Lavrentev,Андрей Лавреньтьев,1997-10-11,Amateur Teen 17-19,55.35,130,137.5,145,,145,-70,72.5,77.5,,77.5,180,192.5,-200,,192.5,415
2,M,SBD,Wraps,Yes,56,Aleksey Starkov,Алексей Старков,1998-05-12,Amateur Teen 17-19,53.5,85,95,102.5,,102.5,55,65,70,,70,100,110,120,,120,292.5
1,M,SBD,Wraps,Yes,100,Ruslan Bayramali,Руслан Байрамали,1996-10-25,Amateur Teen 17-19,97.7,180,-190,200,,200,135,145,-150,,145,210,220,230,,230,575
2,M,SBD,Wraps,Yes,100,Evgeniy Shalimov,Евгений Шалимов,1995-09-28,Amateur Teen 17-19,98.45,160,170,-182.5,,170,110,-120,120,,120,190,210,220,,220,510
1,M,SBD,Wraps,Yes,110,Emil Dzhabrailov,Эмиль Джабраилов,1998-01-16,Amateur Teen 17-19,108.35,145,155,-160,,155,80,85,-90,,85,170,185,200,,200,440
1,M,SBD,Wraps,Yes,67.5,Fedor Mogilnikov,Федор Могильников,1995-10-02,Amateur Teen 17-19,66.4,140,150,-155,,150,85,90,92.5,,92.5,185,195,-202.5,,195,437.5
1,M,SBD,Wraps,Yes,90,Aleksey Pristyazhnyuk,Алексей Пристяжнюк,1995-09-14,Amateur Teen 17-19,86.1,115,130,142.5,,142.5,80,-95,100,,100,150,170,-177.5,,170,412.5
DQ,M,SBD,Wraps,Yes,90,Dmitriy Vaganov,Дмитрий Ваганов,1997-10-29,Amateur Teen 17-19,85.05,-105,-105,-110,,,-80,,,,,-135,,,,,
1,M,SBD,Wraps,Yes,60,Viktor Gapenko,Виктор Гапенко,1997-10-31,Amateur Teen 17-19,60,125,-135,-135,,125,80,-85,-85,,80,160,-175,-175,,160,365
2,M,SBD,Wraps,Yes,60,Artem Oganisyan,Артем Оганисян,1998-05-06,Amateur Teen 17-19,57,-145,-155,-155,,,-80,,,,,175,190,-197.5,,190,190
1,M,SBD,Wraps,Yes,125,Denis Dementev,Денис Дементьев,1996-03-24,Amateur Teen 17-19,110.9,185,195,205,,205,120,130,-140,,130,200,215,225,,225,560
1,M,SBD,Wraps,Yes,82.5,Ruslan Babaev,Руслан Бабаев,1998-06-25,Amateur Teen 14-16,80.5,170,180,190,,190,112.5,-117.5,120,,120,195,205,-215,,205,515
2,M,SBD,Wraps,Yes,82.5,Denis Rudenskikh,Денис Руденских,1998-05-30,Amateur Teen 14-16,78.7,145,152,160,,160,95,97.5,-102.5,,97.5,170,180,-190,,180,437.5
1,M,SBD,Wraps,Yes,90,Nikita Lyubimov,Никита Любимов,1998-08-20,Amateur Teen 14-16,89.05,-160,160,175,,175,90,-100,102.5,,102.5,160,180,190,,190,467.5
1,M,SBD,Wraps,Yes,67.5,Albert Galanov,Альберт Галанов,1999-04-29,Amateur Teen 14-16,66.75,145,152.5,-160,,152.5,85,90,-100,,90,170,180,-185,,180,422.5
1,M,SBD,Wraps,Yes,60,Pavel Levites,Павел Левитес,1998-06-16,Amateur Teen 14-16,60,130,140,-150,,140,70,75,80,,80,-150,165,-180,,165,385
1,M,SBD,Wraps,Yes,75,Evgeniy Ilyaskin,Евгений Иляскин,2000-09-09,Amateur Teen 14-16,71.25,-85,-85,85,,85,-62.5,62.5,65,,65,100,-120,120,,120,270
1,M,SBD,Wraps,Yes,100,Aleksey Vasilchuk,Алексей Васильчук,2000-11-26,Amateur Teen 14-16,93.8,155,165,175,,175,100,105,110,,110,150,165,175,,175,460
1,M,SBD,Wraps,Yes,75,Aleksandr Ziganshin,Александр Зиганшин,1993-10-13,Amateur Juniors 20-23,74.6,160,167.5,170,,170,105,110,112.5,,112.5,200,207.5,215,,215,497.5
1,M,SBD,Wraps,Yes,90,Ilya Grigorev,Илья Григорьев,1993-01-12,Amateur Juniors 20-23,87,-160,160,175,,175,-140,150,155,,155,220,240,250,,250,580
2,M,SBD,Wraps,Yes,90,Nikita Rtishchev,Никита Ртищев,1992-10-17,Amateur Juniors 20-23,84.15,175,-180,-185,,175,107.5,-110,-112.5,,107.5,200,210,-220,,210,492.5
1,M,SBD,Wraps,Yes,100,Anatoliy Ryabov,Анатолий Рябов,1992-10-19,Amateur Juniors 20-23,96.15,185,195,207.5,,207.5,115,122.5,127.5,,127.5,220,237.5,250,,250,585
2,M,SBD,Wraps,Yes,100,Roman Utkin,Роман Уткин,1992-08-04,Amateur Juniors 20-23,95.7,-190,190,200,,200,115,-125,130,,130,185,200,-205,,200,530
1,M,SBD,Wraps,Yes,82.5,Pavel Mitrakov,Павел Митраков,1994-07-12,Amateur Juniors 20-23,81.1,160,170,177.5,,177.5,90,102.5,107.5,,107.5,165,180,195,,195,480
2,M,SBD,Wraps,Yes,82.5,Dmitriy Soshnikov,Дмитрий Сошников,1993-01-31,Amateur Juniors 20-23,77.7,145,155,160,,160,105,-112.5,-112.5,,105,165,175,180,,180,445
1,M,SBD,Wraps,Yes,100,Aleksandr Serikov,Александр Сериков,1963-05-19,Amateur Masters 50-59,92.6,200,210,-220,,210,135,140,-145,,140,225,230,240,,240,590
1,M,SBD,Wraps,Yes,75,Sergey Alampiev,Сергей Алампиев,1957-04-07,Amateur Masters 50-59,71.7,140,150,155,,155,90,-95,-95,,90,180,200,210,,210,455
1,M,SBD,Wraps,Yes,125,Sergey Lukyanov,Сергей Лукьянов,1973-05-27,Amateur Masters 40-49,118.6,255,265,-275,,265,205,215,-222.5,,215,260,270,-282.5,,270,750
1,M,SBD,Wraps,Yes,110,Oleg Rybalkin,Олег Рыбалкин,1971-10-07,Amateur Masters 40-49,105.95,-180,180,-200,,180,165,-170,170,,170,200,220,230,,230,580
1,M,SBD,Wraps,Yes,90,Evgeniy Svoboda,Евгений Свобода,1972-03-23,Amateur Masters 40-49,90,170,180,,,180,130,140,,,140,200,220,,,220,540
2,M,SBD,Wraps,Yes,90,Evgeniy Svoboda,Евгений Свобода,1972-03-23,Amateur Masters 40-49,90,170,180,,,180,130,140,,,140,200,220,,,220,540
1,M,SBD,Wraps,Yes,75,Nikolay Zakharov,Николай Захаров,1951-12-21,Amateur Masters 60-69,73.7,-130,135,140,,140,70,-75,75,,75,150,160,-170,,160,375
1,F,SBD,Wraps,Yes,67.5,Anna Rapoport,Анна Рапопорт,1971-10-07,Amateur Masters 40-49,65.75,75,80,-87.5,,80,45,50,52.5,,52.5,110,122.5,-130,,122.5,255
2,F,SBD,Wraps,Yes,67.5,Natalya Sorokina,Наталья Сорокина,1973-05-04,Amateur Masters 40-49,63.8,50,60,65,,65,40,45,-50,,45,80,90,100,,100,210
1,F,SBD,Wraps,Yes,56,Tatyana Tyurina,Татьяна Тюрина,1971-11-03,Amateur Masters 40-49,54.9,80,87.5,-97.5,,87.5,40,45,-47.5,,45,112.5,117.5,122.5,,122.5,255
1,F,SBD,Wraps,Yes,90+,Anna Chigareva,Анна Чигарева,1974-06-27,Amateur Masters 40-49,99.35,-110,120,125,,125,60,-65,65,,65,140,155,165,,165,355
1,F,SBD,Wraps,Yes,48,Anna Galkina,Анна Галкина,1991-11-11,Amateur Open,47.95,65,72.5,77.5,,77.5,-60,60,-65,,60,95,105,-112.5,,105,242.5
2,F,SBD,Wraps,Yes,48,Tatyana Bannova,Татьяна Баннова,1986-06-04,Amateur Open,47.1,67.5,77.5,-82.5,,77.5,37.5,40,-42.5,,40,90,97.5,102.5,,102.5,220
3,F,SBD,Wraps,Yes,48,Olga Vladimirova,Ольга Владимирова,1988-06-14,Amateur Open,47.25,50,-62.5,62.5,,62.5,-27.5,30,-40,,30,75,90,102.5,,102.5,195
1,F,SBD,Wraps,Yes,60,Valeriya Duseeva,Валерия Дусеева,1991-02-03,Amateur Open,59.6,100,110,115,,115,60,67.5,72.5,,72.5,117.5,127.5,-135,,127.5,315
2,F,SBD,Wraps,Yes,60,Aleksandra Tarkova,Александра Таркова,1989-08-11,Amateur Open,58.45,102.5,107.5,-112.5,,107.5,-52.5,55,-57.5,,55,125,-135,-145,,125,287.5
3,F,SBD,Wraps,Yes,60,Polina Ivanova,Полина Иванова,1986-09-27,Amateur Open,59.5,95,-105,-105,,95,-45,50,-55,,50,120,132.5,140,,140,285
4,F,SBD,Wraps,Yes,60,Olga Glamazdina,Ольга Гламаздина,1981-02-28,Amateur Open,59.7,70,75,80,,80,47.5,50,-52.5,,50,100,112.5,-115,,112.5,242.5
5,F,SBD,Wraps,Yes,60,Nadezhda Burkova,Надежда Буркова,1992-02-11,Amateur Open,59.5,110,120,-130,,120,50,55,-57.5,,55,-132.5,-132.5,-132.5,,,175
1,F,SBD,Wraps,Yes,52,Anna Vishnyak,Анна Вишняк,1984-12-12,Amateur Open,51.45,102.5,112.5,117.5,,117.5,67.5,72.5,-75,,72.5,127.5,137.5,142.5,,142.5,332.5
2,F,SBD,Wraps,Yes,52,Elena Lyashchenko,Елена Лященко,1988-02-01,Amateur Open,50.6,70,72.5,75,,75,-40,45,-50,,45,95,102.5,107.5,,107.5,227.5
3,F,SBD,Wraps,Yes,52,Natalya Varnavskaya,Наталья Варнавская,1983-05-17,Amateur Open,51.05,85,-90,-90,,85,40,45,-47.5,,45,90,-110,-110,,90,220
1,F,SBD,Wraps,Yes,56,Inna Boykova,Инна Бойкова,1968-02-06,Amateur Open,55.15,80,-90,-90,,80,-65,65,-70,,65,105,112.5,117.5,,117.5,262.5
2,F,SBD,Wraps,Yes,56,Larisa Chernobaeva,Лариса Чернобаева,1980-12-22,Amateur Open,55.25,85,-92.5,-97.5,,85,40,45,50,,50,110,122.5,127.5,,127.5,262.5
3,F,SBD,Wraps,Yes,56,Saida Egamova,Саида Эгамова,1984-07-10,Amateur Open,54.6,85,95,-100,,95,47.5,50,-52.5,,50,100,-107.5,107.5,,107.5,252.5
4,F,SBD,Wraps,Yes,56,Oksana Moiseenko,Оксана Моисеенко,1981-05-23,Amateur Open,55.45,-82.5,82.5,87.5,,87.5,-47.5,47.5,50,,50,92.5,95,100,,100,237.5
5,F,SBD,Wraps,Yes,56,Olesya Rodzevskaya,Олеся Родзевская,1983-06-12,Amateur Open,54.75,70,75,,,75,42.5,45,-47.5,,45,97.5,100,-105,,100,220
6,F,SBD,Wraps,Yes,56,Mariya Chevozerova,Мария Чевозерова,1987-04-12,Amateur Open,55.7,-80,-85,85,,85,40,-42.5,-42.5,,40,90,-95,95,,95,220
1,F,SBD,Wraps,Yes,44,Evgeniya Chistik,Евгения Чистик,1984-11-14,Amateur Open,42.8,70,-75,75,,75,50,-55,-55,,50,90,97.5,102.5,,102.5,227.5
1,F,SBD,Wraps,Yes,67.5,Anastasia Lorents,Анастасия Лоренц,1992-11-02,Amateur Open,67.3,120,130,-137.5,,130,62.5,70,-75,,70,130,140,-147.5,,140,340
1,F,SBD,Wraps,Yes,60,Elena Savinova,Елена Савинова,2001-03-16,Amateur Teen 14-16,57.6,55,-62.5,-62.5,,55,35,40,-42.5,,40,85,95,100,,100,195
2,F,SBD,Wraps,Yes,60,Arina Belova,Арина Белова,1998-08-19,Amateur Teen 14-16,57.4,67.5,72.5,-80,,72.5,35,40,42.5,,42.5,75,-82.5,-82.5,,75,190
3,F,SBD,Wraps,Yes,60,Elizaveta Yakimchuk,Елизавета Якимчук,2000-08-29,Amateur Teen 14-16,58.6,-70,-70,-70,,,-45,,,,,90,100,110,,110,110
4,F,SBD,Wraps,Yes,60,Anna Karpusha,Анна Карпуша,1999-02-15,Amateur Teen 14-16,60,-80,-80,-80,,,-30,,,,,85,95,-112.5,,95,95
1,F,SBD,Wraps,Yes,67.5,Elizaveta Meshcherina,Елизавета Мещерина,2000-12-12,Amateur Teen 14-16,65.65,110,-120,120,,120,-55,-57.5,57.5,,57.5,120,125,135,-140,135,312.5
2,F,SBD,Wraps,Yes,67.5,Anna Rezchikova,Анна Резчикова,1998-07-21,Amateur Teen 14-16,62.6,70,-75,75,,75,35,40,-42.5,,40,90,95,100,,100,215
1,F,SBD,Wraps,Yes,75,Anzhelika Flyaum,Анжелика Фляум,1998-11-21,Amateur Teen 14-16,67.8,65,70,-75,,70,32.5,-37.5,-40,,32.5,80,85,-90,,85,187.5
1,F,SBD,Wraps,Yes,52,Polina Mordvinova,Полина Мордвинова,1999-12-11,Amateur Teen 14-16,49.8,30,40,-47.5,,40,-25,25,-30,,25,-65,65,-75,,65,130
1,F,SBD,Wraps,Yes,90+,Ekaterina Antukh,Екатерина Антух,2000-09-23,Amateur Teen 14-16,93.75,-80,80,-90,,80,42.5,45,-47.5,,45,95,105,112.5,,112.5,237.5
1,F,SBD,Wraps,Yes,52,Yana Mikheeva,Яна Михеева,1997-01-07,Amateur Teen 17-19,51.1,-80,-80,80,,80,40,45,-50,,45,80,87.5,-92.5,,87.5,212.5
2,F,SBD,Wraps,Yes,52,Alina Bateneva,Алина Батенева,1997-09-01,Amateur Teen 17-19,50.6,70,75,,,75,-40,40,-42.5,,40,90,95,-97.5,,95,210
1,F,SBD,Wraps,Yes,75,Anastasiya Ostapenko,Анастасия Остапенко,1998-04-19,Amateur Teen 17-19,72.65,105,-115,-115,,105,55,57.5,60,,60,105,115,120,,120,285
1,F,SBD,Wraps,Yes,56,Elena Borovinskaya,Елена Боровинская,1995-12-06,Amateur Teen 17-19,55.05,92.5,102.5,105,108,105,45,50,-55,,50,90,100,-105,,100,255
2,F,SBD,Wraps,Yes,56,Valentina Bazyl,Валентина Базыль,1995-10-28,Amateur Teen 17-19,53.35,75,85,-92.5,,85,30,35,40,,40,100,110,-115,,110,235
1,F,SBD,Wraps,Yes,67.5,Anastasiya Kochurina,Анастасия Кочурина,1995-09-15,Amateur Teen 17-19,66.85,-90,-90,-90,,,50,55,-57.5,,55,100,107.5,-110,,107.5,162.5
1,F,SBD,Wraps,Yes,52,Viktoriya Avdeeva,Виктория Авдеева,1992-09-22,Amateur Juniors 20-23,51.1,65,77.5,-82.5,,77.5,45,-52.5,-52.5,,45,72.5,82.5,90,,90,212.5
2,F,SBD,Wraps,Yes,52,Darya Sukhanova,Дарья Суханова,1992-10-20,Amateur Juniors 20-23,52,75,-80,85,,85,37.5,-42.5,-42.5,,37.5,85,90,-95,,90,212.5
3,F,SBD,Wraps,Yes,52,Elena Dokuchaeva,Елена Докучаева,1993-07-25,Amateur Juniors 20-23,51.55,60,-62.5,65,,65,40,42.5,45,,45,60,62.6,67.5,,67.5,177.5
1,F,SBD,Wraps,Yes,60,Antonina Kamoltseva,Антонина Камольцева,1994-11-28,Amateur Juniors 20-23,59.45,-85,-92.5,97.5,,97.5,45,50,52.5,53,52.5,110,120,-130,,120,270
2,F,SBD,Wraps,Yes,60,Oksana Shentsova,Оксана Шенцова,1993-08-24,Amateur Juniors 20-23,58.2,72.5,-80,-82.5,,72.5,37.5,42.5,-45,,42.5,105,115,120,,120,235
3,F,SBD,Wraps,Yes,60,Nadezhda Burkova,Надежда Буркова,1992-02-11,Amateur Juniors 20-23,59.5,110,120,-130,,120,50,55,-57.5,,55,-132.5,-132.5,-132.5,,,175
1,F,SBD,Wraps,Yes,56,Valeriya Vladimirova,Валерия Владимирова,1994-01-24,Amateur Juniors 20-23,55.85,-60,60,75,,75,30,-40,-40,,30,80,95,105,,105,210
1,F,SBD,Wraps,Yes,67.5,Anastasia Lorents,Анастасия Лоренц,1992-11-02,Amateur Juniors 20-23,67.3,120,130,-137.5,,130,62.5,70,-75,,70,130,140,-147.5,,140,340
2,F,SBD,Wraps,Yes,67.5,Elena Muracheva,Елена Мурачева,1993-03-15,Amateur Juniors 20-23,66.1,50,60,70,,70,-30,37.5,-42.5,,37.5,70,80,92.5,,92.5,200
1,M,SBD,Multi-ply,Yes,82.5,Artem Bykhovets,Артём Быховец,1983-07-19,Amateur Open,81.55,280,-307.5,-307.5,,280,200,-210,,,200,230,250,270,,270,750
2,M,SBD,Multi-ply,Yes,82.5,Artem Golubin,Артем Голубин,1990-06-25,Amateur Open,75.65,180,190,-200,,190,130,-140,-140,,130,180,200,220,,220,540
DQ,M,SBD,Multi-ply,Yes,90,Evgeniy Svoboda,Евгений Свобода,1972-03-23,Amateur Open,90,,,,,,,,,,,,,,,,
1,M,SBD,Multi-ply,Yes,90,Evgeniy Svoboda,Евгений Свобода,1972-03-23,Amateur Masters 40-49,90,-220,225,-245,,225,165,-172.5,-172.5,,165,210,235,252.5,,252.5,642.5
DQ,M,SBD,Multi-ply,Yes,90,Evgeniy Svoboda,Евгений Свобода,1972-03-23,Amateur Masters 40-49,90,,,,,,,,,,,,,,,,
1,F,SBD,Multi-ply,Yes,56,Kseniya Kuzmina,Ксения Кузьмина,1993-01-28,Amateur Juniors 20-23,55.25,-80,-80,80,,80,42.5,47.5,-50,,47.5,90,100,-105,,100,227.5
1,F,SBD,Multi-ply,Yes,56,Kseniya Kuzmina,Ксения Кузьмина,1993-01-28,Amateur Open,55.25,-80,-80,80,,80,42.5,47.5,-50,,47.5,90,100,-105,,100,227.5
DQ,M,S,Wraps,Yes,125,Aleksandr Shelepov,Александр Шелепов,1990-07-01,Amateur Open,116.45,,,,,,,,,,,,,,,,
1,M,S,Wraps,Yes,75,Aleksey Kuptsov,Алексей Купцов,1990-06-21,Amateur Open,74.3,210,217.5,225,,225,,,,,,,,,,,225
1,M,S,Wraps,Yes,90,Evgeniy Svoboda,Евгений Свобода,1972-03-23,Amateur Open,90,170,180,,,180,,,,,,,,,,,180
1,M,S,Wraps,Yes,75,Sergey Alampiev,Сергей Алампиев,1957-04-07,Amateur Masters 50-59,71.7,140,150,155,,155,,,,,,,,,,,155
1,M,S,Wraps,Yes,90,Evgeniy Svoboda,Евгений Свобода,1972-03-23,Amateur Masters 40-49,90,170,180,,,180,,,,,,,,,,,180
2,M,S,Wraps,Yes,90,Evgeniy Svoboda,Евгений Свобода,1972-03-23,Amateur Masters 40-49,90,170,180,,,180,,,,,,,,,,,180
1,F,S,Wraps,Yes,60,Nadezhda Burkova,Надежда Буркова,1992-02-11,Amateur Juniors 20-23,59.5,110,120,-130,,120,,,,,,,,,,,120
1,F,S,Wraps,Yes,60,Nadezhda Burkova,Надежда Буркова,1992-02-11,Amateur Open,59.5,110,120,-130,,120,,,,,,,,,,,120
1,M,S,Multi-ply,Yes,90,Evgeniy Svoboda,Евгений Свобода,1972-03-23,Amateur Masters 40-49,90,-220,225,-245,,225,,,,,,,,,,,225
DQ,M,S,Multi-ply,Yes,90,Evgeniy Svoboda,Евгений Свобода,1972-03-23,Amateur Masters 40-49,90,,,,,,,,,,,,,,,,
DQ,M,S,Multi-ply,Yes,90,Evgeniy Svoboda,Евгений Свобода,1972-03-23,Amateur Open,90,,,,,,,,,,,,,,,,
1,F,S,Multi-ply,Yes,56,Kseniya Kuzmina,Ксения Кузьмина,1993-01-28,Amateur Juniors 20-23,55.25,-80,-80,80,,80,,,,,,,,,,,80
1,F,S,Multi-ply,Yes,56,Kseniya Kuzmina,Ксения Кузьмина,1993-01-28,Amateur Open,55.25,-80,-80,80,,80,,,,,,,,,,,80
1,M,D,Raw,Yes,67.5,Andrey Kolbin,Андрей Колбин,1984-07-22,Amateur Open,66.95,,,,,,,,,,,160,-172.5,-172.5,,160,160
1,M,D,Raw,Yes,60,Maksim Kovalev,Максим Ковалев,1987-01-28,Amateur Open,59.65,,,,,,,,,,,140,152.5,-175,,152.5,152.5
1,M,D,Raw,Yes,100,Andrey Vtorushin,Андрей Вторушин,1979-11-21,Amateur Open,95.95,,,,,,,,,,,210,220,235,,235,235
1,M,D,Raw,Yes,90,Evgeniy Svoboda,Евгений Свобода,1972-03-23,Amateur Open,90,,,,,,,,,,,200,220,,,220,220
1,M,D,Raw,Yes,82.5,Leonid Kolpakov,Леонид Колпаков,1997-10-22,Amateur Teen 17-19,79.2,,,,,,,,,,,170,187.5,-217.5,,187.5,187.5
1,M,D,Raw,Yes,100,Konstantin Sopikov,Константин Сопиков,1995-11-14,Amateur Teen 17-19,97.95,,,,,,,,,,,-215,215,-230,,215,215
1,M,D,Raw,Yes,75,Mikhail Mironov,Михаил Миронов,1982-07-21,Amateur Open,71,,,,,,,,,,,185,195,-205,,195,195
2,M,D,Raw,Yes,75,Viktor Frolov,Виктор Фролов,1997-02-05,Amateur Teen 17-19,73.6,,,,,,,,,,,160,170,,,170,170
1,M,D,Raw,Yes,60,Artem Oganisyan,Артем Оганисян,1998-05-06,Amateur Teen 17-19,57,,,,,,,,,,,175,190,-197.5,,190,190
1,M,D,Raw,Yes,75,Sergey Shpilev,Сергей Шпилев,1995-03-09,Amateur Juniors 20-23,73.25,,,,,,,,,,,190,200,-205,,200,200
2,M,D,Raw,Yes,75,Orzu Shokarimov,Орзу Шокаримов,1993-12-10,Amateur Juniors 20-23,74.55,,,,,,,,,,,190,-207.5,-207.5,,190,190
1,M,D,Raw,Yes,82.5,Artem Urodov,Артем Уродов,1991-09-29,Amateur Juniors 20-23,79.95,,,,,,,,,,,200,-210,217.5,,217.5,217.5
1,M,D,Raw,Yes,90,Nikita Volkov,Никита Волков,1992-06-16,Amateur Juniors 20-23,88.15,,,,,,,,,,,215,225,232.5,,232.5,232.5
1,M,D,Raw,Yes,100,Vyacheslav Nikolaev,Вячеслав Николаев,1956-07-10,Amateur Masters 50-59,90.55,,,,,,,,,,,-185,-190,190,,190,190
1,M,D,Raw,Yes,75,Sergey Alampiev,Сергей Алампиев,1957-04-07,Amateur Masters 50-59,71.7,,,,,,,,,,,180,200,210,,210,210
1,M,D,Raw,Yes,90,Evgeniy Svoboda,Евгений Свобода,1972-03-23,Amateur Masters 40-49,90,,,,,,,,,,,200,220,,,220,220
2,M,D,Raw,Yes,90,Evgeniy Svoboda,Евгений Свобода,1972-03-23,Amateur Masters 40-49,90,,,,,,,,,,,200,220,,,220,220
1,F,D,Raw,Yes,56,Tatyana Tyurina,Татьяна Тюрина,1971-11-03,Amateur Masters 40-49,54.9,,,,,,,,,,,112.5,117.5,122.5,,122.5,122.5
1,F,D,Raw,Yes,48,Galina Elchina,Галина Ельчина,1968-06-08,Amateur Open,47.75,,,,,,,,,,,87.5,95,-107.5,,95,95
1,F,D,Raw,Yes,56,Saida Egamova,Саида Эгамова,1984-07-10,Amateur Open,54.6,,,,,,,,,,,100,-107.5,107.5,,107.5,107.5
2,F,D,Raw,Yes,56,Anastasiya Noskova,Анастасия Носкова,1984-02-14,Amateur Open,55.3,,,,,,,,,,,142.5,147.5,152.5,160.5,152.5,152.5
1,F,D,Raw,Yes,60,Olga Glamazdina,Ольга Гламаздина,1981-02-28,Amateur Open,59.7,,,,,,,,,,,100,112.5,-115,,112.5,112.5
2,F,D,Raw,Yes,60,Elena Kamalova,Елена Камалова,1990-10-09,Amateur Open,59.75,,,,,,,,,,,105,-112.5,112.5,,112.5,112.5
1,F,D,Raw,Yes,60,Elizaveta Yakimchuk,Елизавета Якимчук,2000-08-29,Amateur Teen 14-16,58.6,,,,,,,,,,,90,100,110,,110,110
2,F,D,Raw,Yes,60,Anna Karpusha,Анна Карпуша,1999-02-15,Amateur Teen 14-16,60,,,,,,,,,,,85,95,-112.5,,95,95
1,F,D,Raw,Yes,82.5,Ekaterina Chernykh,Екатерина Черных,1993-10-01,Amateur Juniors 20-23,77.9,,,,,,,,,,,95,100,-102.5,,100,100
1,M,D,Multi-ply,Yes,110,Aleksandr Kiselev,Александр Киселев,1968-03-28,Amateur Open,101.15,,,,,,,,,,,160,-175,182.5,,182.5,182.5
DQ,M,D,Multi-ply,Yes,90,Evgeniy Svoboda,Евгений Свобода,1972-03-23,Amateur Open,90,,,,,,,,,,,,,,,,
1,M,D,Multi-ply,Yes,110,Aleksandr Kiselev,Александр Киселев,1968-03-28,Amateur Masters 40-49,101.15,,,,,,,,,,,160,-175,182.5,,182.5,182.5
1,M,D,Multi-ply,Yes,90,Evgeniy Svoboda,Евгений Свобода,1972-03-23,Amateur Masters 40-49,90,,,,,,,,,,,210,235,252.5,,252.5,252.5
1,M,D,Multi-ply,Yes,90,Evgeniy Svoboda,Евгений Свобода,1972-03-23,Amateur Masters 40-49,90,,,,,,,,,,,210,235,252.5,,252.5,252.5
1,F,D,Multi-ply,Yes,56,Kseniya Kuzmina,Ксения Кузьмина,1993-01-28,Amateur Juniors 20-23,55.25,,,,,,,,,,,90,100,-105,,100,100
1,F,D,Multi-ply,Yes,56,Kseniya Kuzmina,Ксения Кузьмина,1993-01-28,Amateur Open,55.25,,,,,,,,,,,90,100,-105,,100,100
1,M,B,Raw,Yes,125,Petr Shtark,Петр Штарк,1983-08-10,Amateur Open,118.9,,,,,,230,237.5,-242.5,,237.5,,,,,,237.5
2,M,B,Raw,Yes,125,Grigoriy Kobrin,Григорий Кобрин,1969-10-19,Amateur Open,114,,,,,,-210,-215,215,,215,,,,,,215
3,M,B,Raw,Yes,125,Anton Epikhin,Антон Епихин,1988-10-11,Amateur Open,113.2,,,,,,190,-197.5,-197.5,,190,,,,,,190
1,M,B,Raw,Yes,110,Ivan Vasyunin,Иван Васюнин,1983-08-01,Amateur Open,103.45,,,,,,225,232.5,237.5,,237.5,,,,,,237.5
2,M,B,Raw,Yes,110,Andrey Likhman,Андрей Лихман,1977-05-01,Amateur Open,107.95,,,,,,220,227.5,-235,,227.5,,,,,,227.5
3,M,B,Raw,Yes,110,Elshan Rustamov,Эльшан Рустамов,1987-06-22,Amateur Open,109.5,,,,,,202.5,-205,207.5,,207.5,,,,,,207.5
4,M,B,Raw,Yes,110,Isamudin Aliev,Исамудин Алиев,1978-06-10,Amateur Open,109.05,,,,,,-202.5,202.5,-205,,202.5,,,,,,202.5
5,M,B,Raw,Yes,110,Maksim Vanin,Максим Ванин,1980-05-08,Amateur Open,106.5,,,,,,175,185,-202.5,,185,,,,,,185
1,M,B,Raw,Yes,90,Evgeniy Kinyakin,Евгений Кинякин,1990-01-19,Amateur Open,88.4,,,,,,170,180,185,,185,,,,,,185
2,M,B,Raw,Yes,90,Sergey Panin,Сергей Панин,1975-06-18,Amateur Open,89.64,,,,,,-180,185,-187.5,,185,,,,,,185
3,M,B,Raw,Yes,90,Sergey Vorontsov,Сергей Воронцов,1990-09-27,Amateur Open,89.65,,,,,,160,170,185,,185,,,,,,185
4,M,B,Raw,Yes,90,Aleksandr Stashevskiy,Александр Сташевский,1986-12-14,Amateur Open,89.25,,,,,,120,130,137.5,,137.5,,,,,,137.5
1,M,B,Raw,Yes,100,Anton Guselnikov,Антон Гусельников,1982-05-02,Amateur Open,98.9,,,,,,215,-222.5,222.5,,222.5,,,,,,222.5
2,M,B,Raw,Yes,100,Denis Zenin,Денис Зенин,1993-08-18,Amateur Open,100,,,,,,220,-230,-230,,220,,,,,,220
3,M,B,Raw,Yes,100,Ivan Klimenko,Иван Клименко,1980-11-10,Amateur Open,98.5,,,,,,180,190,-200,,190,,,,,,190
4,M,B,Raw,Yes,100,Aleksandr Dukhinskiy,Александр Духинский,1982-11-29,Amateur Open,99.9,,,,,,185,-195,-197.5,,185,,,,,,185
5,M,B,Raw,Yes,100,Pavel Akulov,Павел Акулов,1985-06-08,Amateur Open,97.2,,,,,,-180,-180,180,,180,,,,,,180
1,M,B,Raw,Yes,75,Vakha Khadziev,Ваха Хадзиев,1994-09-26,Amateur Open,75,,,,,,160,175,-187.5,,175,,,,,,175
2,M,B,Raw,Yes,75,Ilya Dugushkin,Илья Дугушкин,1986-04-11,Amateur Open,75,,,,,,140,150,155,,155,,,,,,155
3,M,B,Raw,Yes,75,Artem Lysenko,Артем Лысенко,1990-07-30,Amateur Open,74.25,,,,,,-142.5,-142.5,142.5,,142.5,,,,,,142.5
1,M,B,Raw,Yes,82.5,Vladimir Kryttsev,Владимир Крытцев,1990-11-19,Amateur Open,82.15,,,,,,135,145,152.5,,152.5,,,,,,152.5
DQ,M,B,Raw,Yes,82.5,Nikolay Kashevarov,Николай Кашеваров,1987-03-02,Amateur Open,81.3,,,,,,-170,-170,-170,,,,,,,,
1,M,B,Raw,Yes,140+,Aleksandr Logvinenko,Александр Логвиненко,1974-11-16,Amateur Open,146.9,,,,,,250,260,-270,,260,,,,,,260
1,M,B,Raw,Yes,60,Anvar Tukhvatullin,Анвар Тухватуллин,1990-01-15,Amateur Open,60,,,,,,120,130,137.5,,137.5,,,,,,137.5
1,M,B,Raw,Yes,67.5,Mekhrodzh Madolimov,Мехродж Мадолимов,1991-09-04,Amateur Open,67.45,,,,,,145,165,-172.5,,165,,,,,,165
1,M,B,Raw,Yes,110,Serik Tukushev,Серик Тукушев,1967-09-26,Amateur Masters 40-49,110,,,,,,160,175,180,,180,,,,,,180
1,M,B,Raw,Yes,140+,Aleksandr Logvinenko,Александр Логвиненко,1974-11-16,Amateur Masters 40-49,146.9,,,,,,250,260,-270,,260,,,,,,260
1,M,B,Raw,Yes,125,Grigoriy Kobrin,Григорий Кобрин,1969-10-19,Amateur Masters 40-49,114,,,,,,-210,-215,215,,215,,,,,,215
2,M,B,Raw,Yes,125,Mikhail Batukov,Михаил Батуков,1972-09-10,Amateur Masters 40-49,110.55,,,,,,155,-165,165,,165,,,,,,165
1,M,B,Raw,Yes,90,Oleg Khakhulin,Олег Хахулин,1967-11-27,Amateur Masters 40-49,84.75,,,,,,140,150,-160,,150,,,,,,150
1,M,B,Raw,Yes,100,Vasiliy Synkov,Василий Сынков,1972-09-07,Amateur Masters 40-49,99.9,,,,,,212.5,222.5,,,222.5,,,,,,222.5
2,M,B,Raw,Yes,100,Oleg Bidnyuk,Олег Биднюк,1970-04-27,Amateur Masters 40-49,99.65,,,,,,130,140,-150,,140,,,,,,140
1,M,B,Raw,Yes,67.5,Nikolay Emelyanov,Николай Емельянов,1963-12-30,Amateur Masters 50-59,65.2,,,,,,-95,97.5,102.5,,102.5,,,,,,102.5
1,M,B,Raw,Yes,125,Yuriy Koptev,Юрий Коптев,1961-07-21,Amateur Masters 50-59,118.3,,,,,,140,150,-155,,150,,,,,,150
1,M,B,Raw,Yes,110,Mikhail Ishchechkin,Михаил Ищечкин,1962-01-22,Amateur Masters 50-59,108.4,,,,,,150,157.5,-162.5,,157.5,,,,,,157.5
1,M,B,Raw,Yes,82.5,Aleksey Korobov,Алексей Коробов,1959-03-21,Amateur Masters 50-59,82.5,,,,,,-120,125,130,,130,,,,,,130
1,M,B,Raw,Yes,75,Sergey Kashtanov,Сергей Каштанов,1958-06-27,Amateur Masters 50-59,74.95,,,,,,-110,110,-115,,110,,,,,,110
1,M,B,Raw,Yes,90,Nikolay Bachurin,Николай Бачурин,1948-10-25,Amateur Masters 60-69,89.1,,,,,,140,-145,-145,,140,,,,,,140
1,M,B,Raw,Yes,100,Vladimir Vizgin,Владимир Визгин,1952-04-25,Amateur Masters 60-69,96,,,,,,145,152.5,157.5,,157.5,,,,,,157.5
1,M,B,Raw,Yes,67.5,Yaroslav Arbatskikh,Ярослав Арбатских,1999-02-25,Amateur Teen 14-16,66,,,,,,75,85,90,,90,,,,,,90
1,M,B,Raw,Yes,75,Aleksandr Shumakov,Александр Шумаков,1997-10-14,Amateur Teen 17-19,72.75,,,,,,132.5,145,-150,,145,,,,,,145
1,M,B,Raw,Yes,90,Evgeniy Metlushko,Евгений Метлушко,1996-04-04,Amateur Teen 17-19,88,,,,,,-125,-125,130,,130,,,,,,130
1,M,B,Raw,Yes,90,Denis Romanov,Денис Романов,1994-04-24,Amateur Juniors 20-23,89.65,,,,,,170,180,185,,185,,,,,,185
1,M,B,Raw,Yes,82.5,Dmitriy Malakhov,Дмитрий Малахов,1992-05-15,Amateur Juniors 20-23,80.15,,,,,,130,135,-140,,135,,,,,,135
1,M,B,Raw,Yes,100,Denis Zenin,Денис Зенин,1993-08-18,Amateur Juniors 20-23,100,,,,,,220,-230,-230,,220,,,,,,220
1,M,B,Raw,Yes,52,Sergey Synkov,Сергей Сынков,2001-11-26,Amateur Teen 13,51.9,,,,,,-72.5,72.5,77.5,,77.5,,,,,,77.5
1,F,B,Raw,Yes,67.5,Anzhela Kulagina,Анжела Кулагина,1988-11-04,Amateur Open,66.5,,,,,,117.5,125,-130,,125,,,,,,125
1,F,B,Raw,Yes,75,Mariya Sotnikova,Мария Сотникова,1986-11-30,Amateur Open,74.15,,,,,,70,75,80,,80,,,,,,80
2,F,B,Raw,Yes,75,Irina Panina,Ирина Панина,1977-05-20,Amateur Open,71.2,,,,,,60,65,70,,70,,,,,,70
1,F,B,Raw,Yes,52,Yuliya Kryuchkova,Юлия Крючкова,1991-06-04,Amateur Juniors 20-23,50.85,,,,,,-42.5,42.5,-45,,42.5,,,,,,42.5
1,F,B,Raw,Yes,56,Sofya Sergeeva,Софья Сергеева,1994-07-31,Amateur Juniors 20-23,56,,,,,,30,40,-47.5,,40,,,,,,40
1,M,B,Multi-ply,Yes,90,Aleksandr Belov,Александр Белов,1992-09-20,Amateur Juniors 20-23,89.4,,,,,,180,192.5,-205,,192.5,,,,,,192.5
1,M,B,Multi-ply,Yes,90,Evgeniy Kotukhov,Евгений Котухов,1989-09-24,Amateur Open,89.85,,,,,,200,207.5,212.5,,212.5,,,,,,212.5
2,M,B,Multi-ply,Yes,90,Andrey Berkovich,Андрей Беркович,1972-10-07,Amateur Open,88.2,,,,,,-200,200,-222.5,,200,,,,,,200
3,M,B,Multi-ply,Yes,90,Mikhail Mironov,Михаил Миронов,1982-07-21,Amateur Open,89.25,,,,,,-170,-170,170,,170,,,,,,170
1,M,B,Multi-ply,Yes,100,Vasiliy Synkov,Василий Сынков,1972-09-07,Amateur Open,99.9,,,,,,282.5,290,-302.5,,290,,,,,,290
2,M,B,Multi-ply,Yes,100,Sergey Kharisov,Сергей Харисов,1991-07-22,Amateur Open,98.5,,,,,,265,272.5,-277.5,,272.5,,,,,,272.5
3,M,B,Multi-ply,Yes,100,Andrey Sotnikov,Андрей Сотников,1989-12-04,Amateur Open,91.15,,,,,,160,170,190,,190,,,,,,190
DQ,M,B,Multi-ply,Yes,100,Enver Niyaziev,Энвер Ниязиев,1989-07-22,Amateur Open,97.4,,,,,,-240,-240,-240,,,,,,,,
1,M,B,Multi-ply,Yes,110,Andrey Paley,Андрей Палей,1961-10-11,Amateur Open,109,,,,,,-310,310,335,,335,,,,,,335
2,M,B,Multi-ply,Yes,110,Dmitriy Sorokin,Дмитрий Сорокин,1971-03-22,Amateur Open,109.8,,,,,,260,275,-282.5,,275,,,,,,275
1,M,B,Multi-ply,Yes,82.5,Aleksandr Yushkov,Александр Юшков,1983-04-24,Amateur Open,82.3,,,,,,180,-190,-195,,180,,,,,,180
2,M,B,Multi-ply,Yes,82.5,Dmitriy Savchenko,Дмитрий Савченко,1981-08-03,Amateur Open,81,,,,,,-170,170,-180,,170,,,,,,170
1,M,B,Multi-ply,Yes,125,Aleksey Zherebtsov,Алексей Жеребцов,1979-06-10,Amateur Open,122,,,,,,210,220,-230,,220,,,,,,220
1,M,B,Multi-ply,Yes,90,Andrey Berkovich,Андрей Беркович,1972-10-07,Amateur Masters 40-49,88.2,,,,,,-200,200,-222.5,,200,,,,,,200
1,M,B,Multi-ply,Yes,110,Dmitriy Sorokin,Дмитрий Сорокин,1971-03-22,Amateur Masters 40-49,109.8,,,,,,260,275,-282.5,,275,,,,,,275
DQ,M,B,Multi-ply,Yes,110,Serik Tukushev,Серик Тукушев,1967-09-26,Amateur Masters 40-49,110,,,,,,-235,-235,-235,,,,,,,,
1,M,B,Multi-ply,Yes,100,Vasiliy Synkov,Василий Сынков,1972-09-07,Amateur Masters 40-49,99.9,,,,,,282.5,290,-302.5,,290,,,,,,290
1,M,B,Multi-ply,Yes,100,Andrey Glazkov,Андрей Глазков,1996-03-28,Amateur Teen 17-19,99.4,,,,,,205,215,225,,225,,,,,,225
1,M,B,Multi-ply,Yes,90,Artem Ryattel,Артем Ряттель,1997-02-08,Amateur Teen 17-19,86.35,,,,,,170,-180,180,,180,,,,,,180
1,M,B,Multi-ply,Yes,125,Yuriy Koptev,Юрий Коптев,1961-07-21,Amateur Masters 50-59,118.3,,,,,,-150,155,,,155,,,,,,155
1,M,SBD,Wraps,No,110,Stanislav Telyatin,Станислав Телятин,1989-09-11,Pro Open,106.15,-277.5,285,300,,300,162.5,170,177.5,,177.5,275,295,,,295,772.5
2,M,SBD,Wraps,No,110,Sergey Lysokon,Сергей Лысоконь,1981-12-15,Pro Open,109.95,-270,270,-280,,270,190,200,-210,,200,250,-270,272.5,,272.5,742.5
3,M,SBD,Wraps,No,110,Evgeniy Kosik,Евгений Косик,1983-09-06,Pro Open,110,220,230,240,,240,180,190,200,,200,270,290,300,,300,740
4,M,SBD,Wraps,No,110,Aleksandr Obukhovich,Александр Обухович,1987-08-16,Pro Open,103.1,250,-270,,,250,-150,,,,,-300,,,,,250
1,M,SBD,Wraps,No,82.5,Vitaliy Nikolaev,Виталий Николаев,1982-04-29,Pro Open,82.5,200,220,240,,240,180,190,200,,200,270,290,-300,,290,730
2,M,SBD,Wraps,No,82.5,Vadim Krolovetskiy,Вадим Кроловецкий,1993-07-07,Pro Open,82.5,210,225,-235,,225,145,155,165,,165,225,245,-255,,245,635
1,M,SBD,Wraps,No,90,Anton Biryukov,Антон Бирюков,1992-05-02,Pro Open,88.6,242.5,250,260,,260,170,180,-190,,180,310,327.5,-332.5,,327.5,767.5
2,M,SBD,Wraps,No,90,Stanislav Sergeev,Станислав Сергеев,1995-01-04,Pro Open,89.35,210,230,240,,240,162.5,175,-180,,175,260,280,-312,,280,695
3,M,SBD,Wraps,No,90,Mikhail Rybanin,Михаил Рыбанин,1985-03-03,Pro Open,88.35,165,175,-180,,175,100,-110,110,,110,-200,210,220,,220,505
DQ,M,SBD,Wraps,No,90,Aleksey Semaev,Алексей Семаев,1982-07-05,Pro Open,89.25,-180,-180,-180,,,,,,,,,,,,,
1,M,SBD,Wraps,No,100,Vitaliy Dotsenko,Виталий Доценко,1981-06-09,Pro Open,98.7,-235,235,240,,240,150,160,-165,,160,255,-267.5,267.5,,267.5,667.5
2,M,SBD,Wraps,No,100,Ivan Kaplun,Иван Каплун,1991-02-17,Pro Open,97.7,220,230,-235,,230,170,180,-190,,180,230,240,-275,,240,650
3,M,SBD,Wraps,No,100,Ivan Nikitin,Иван Никитин,1988-06-18,Pro Open,93.2,-180,180,195,,195,150,160,165,,165,220,235,250,,250,610
4,M,SBD,Wraps,No,100,Ilya Gorbunov,Илья Горбунов,1991-02-17,Pro Open,94.1,130,-140,140,,140,90,97.5,102.5,,102.5,160,170,177.5,,177.5,420
1,M,SBD,Wraps,No,67.5,Anton Koropets,Антон Коропец,1988-04-30,Pro Open,65.55,120,127.5,132.5,,132.5,85,95,-97.5,,95,165,175,-182.5,,175,402.5
1,M,SBD,Wraps,No,140,Vladimir Sviridov,Владимир Свиридов,1979-08-09,Pro Open,135.1,250,265,-270,,265,160,170,180,,180,260,265,,,265,710
1,M,SBD,Wraps,No,125,Sergey Semakin,Сергей Семакин,1978-08-29,Pro Open,116.1,280,300,310,,310,182.5,192.5,197.5,,197.5,310,-340,345,,345,852.5
2,M,SBD,Wraps,No,125,Sergey Farafontev,Сергей Фарафонтьев,1984-01-27,Pro Open,115.9,270,285,-295,,285,185,195,202.5,,202.5,290,300,307.5,,307.5,795
1,M,SBD,Wraps,No,110,Aleksandr Kurmashov,Александр Курмашов,1993-07-13,Pro Juniors 20-23,109.7,255,270,-280,,270,180,192.5,200,,200,260,275,290,,290,760
2,M,SBD,Wraps,No,110,Roman Kuryanov,Роман Курьянов,1993-07-20,Pro Juniors 20-23,108.45,240,255,-262.5,,255,165,177.5,185,,185,230,-247.5,247.5,,247.5,687.5
3,M,SBD,Wraps,No,110,Nikolay Tolokonnikov,Николай Толоконников,1991-11-02,Pro Juniors 20-23,103.85,190,200,-210,,200,140,-150,155,,155,220,-235,245,,245,600
1,M,SBD,Wraps,No,100,Sergey Alemchuk,Сергей Алемчук,1994-02-17,Pro Juniors 20-23,95.85,180,190,-210,,190,160,-170,175,,175,220,230,-235,,230,595
2,M,SBD,Wraps,No,100,Kirill Yakovlev,Кирилл Яковлев,1995-02-04,Pro Juniors 20-23,92.7,150,160,-170,,160,112.5,-117.5,-117.5,,112.5,180,195,-205,,195,467.5
3,M,SBD,Wraps,No,100,Roman Kargin,Роман Каргин,1991-11-26,Pro Juniors 20-23,90.7,100,110,120,,120,100,-110,115,,115,120,130,150,,150,385
1,M,SBD,Wraps,No,90,Anton Biryukov,Антон Бирюков,1992-05-02,Pro Juniors 20-23,88.6,242.5,250,260,,260,170,180,-190,,180,310,327.5,-332.5,,327.5,767.5
2,M,SBD,Wraps,No,90,Stanislav Sergeev,Станислав Сергеев,1995-01-04,Pro Juniors 20-23,89.35,210,230,240,,240,162.5,175,-180,,175,260,280,-312,,280,695
3,M,SBD,Wraps,No,90,Nikita Romanov,Никита Романов,1991-08-27,Pro Juniors 20-23,88.85,180,-190,,,180,140,-147.5,152.5,,152.5,215,225,,,225,557.5
1,M,SBD,Wraps,No,82.5,Vadim Krolovetskiy,Вадим Кроловецкий,1993-07-07,Pro Juniors 20-23,82.5,210,225,-235,,225,145,155,165,,165,225,245,-255,,245,635
1,F,SBD,Wraps,No,52,Ekaterina Akimova,Екатерина Акимова,1995-09-23,Pro Teen 17-19,52,72.5,75,-80,,75,32.5,-37.5,-37.5,,32.5,80,85,90,,90,197.5
1,M,SBD,Wraps,No,140+,Ivan Tsimbal,Иван Цимбал,1996-07-25,Pro Teen 17-19,153.5,240,260,-275,,260,130,145,152.5,,152.5,210,230,-260,,230,642.5
1,M,SBD,Wraps,No,75,Vadim Paramonov,Вадим Парамонов,1997-06-06,Pro Teen 17-19,74.75,-130,130,140,,140,92.5,100,-107.5,,100,-185,190,-210,,190,430
2,M,SBD,Wraps,No,75,Maksim Zaytsev,Максим Зайцев,1997-05-08,Pro Teen 17-19,70.15,130,140,-150,,140,70,80,85,,85,150,160,170,,170,395
3,M,SBD,Wraps,No,75,Evgeniy Raspopin,Евгений Распопин,1998-02-17,Pro Teen 17-19,74.25,120,130,-140,,130,-90,90,92.5,,92.5,150,-160,165,,165,387.5
4,M,SBD,Wraps,No,75,Georgiy Peshin,Георгий Пешин,1998-03-08,Pro Teen 17-19,72.4,95,102.5,110,,110,67.5,75,82.5,,82.5,142.5,152.5,162.5,,162.5,355
1,M,SBD,Wraps,No,90,Vladislav Ventsel,Владислав Венцель,1996-12-14,Pro Teen 17-19,85,140,152.5,-162.5,,152.5,75,85,-87.5,,85,195,-202.5,205,,205,442.5
1,M,SBD,Wraps,No,67.5,Evgeniy Tolmachev,Евгений Толмачев,1998-04-19,Pro Teen 17-19,64.4,140,-150,-150,,140,-100,100,-110,,100,170,180,190,,190,430
2,M,SBD,Wraps,No,67.5,Andrey Dostovalov,Андрей Достовалов,1997-06-30,Pro Teen 17-19,65.25,80,100,107.5,,107.5,55,67.5,70,,70,130,150,-162.5,,150,327.5
3,M,SBD,Wraps,No,67.5,Roman Bishler,Роман Бишлер,1997-07-01,Pro Teen 17-19,61.6,82.5,87.5,-95,,87.5,60,67.5,-72.5,,67.5,95,102.5,110,,110,265
1,M,SBD,Wraps,No,110,Egor Shilov,Егор Шилов,1996-12-23,Pro Teen 17-19,109.75,215,227.5,-235,,227.5,125,130,-135,,130,250,270,-285,,270,627.5
1,M,SBD,Wraps,No,82.5,Maksim Kotov,Максим Котов,1996-10-13,Pro Teen 17-19,77.5,105,115,-125,,115,80,90,95,,95,130,145,160,,160,370
1,F,SBD,Wraps,No,52,Aleksandra Luchkina,Александра Лучкина,1995-07-03,Pro Teen 17-19,50.45,-60,60,65,,65,32.5,-37.5,37.5,,37.5,70,75,82.5,,82.5,185
1,M,SBD,Wraps,No,82.5,Aleksandr Kucherenko,Александр Кучеренко,1999-03-15,Pro Teen 14-16,80.65,95,115,122.5,,122.5,65,-80,-80,,65,120,145,152.5,,152.5,340
2,M,SBD,Wraps,No,82.5,Vitaliy Kharinskiy,Виталий Харинский,1998-06-01,Pro Teen 14-16,78.35,-105,105,115,,115,-90,-92.5,92.5,,92.5,-125,-135,-135,,,207.5
1,M,SBD,Wraps,No,100,Valentin Gaydul,Валентин Гайдуль,1998-09-16,Pro Teen 14-16,97.55,160,170,180,,180,80,87.5,-92.5,,87.5,170,185,-200,,185,452.5
2,M,SBD,Wraps,No,100,Norik Badeyan,Норик Бадеян,1999-10-28,Pro Teen 14-16,93.9,115,140,-152.5,,140,75,85,-95,,85,-130,130,160,,160,385
1,M,SBD,Wraps,No,110,Sergey Usov,Сергей Усов,1998-09-30,Pro Teen 14-16,107.4,110,-120,130,,130,75,-85,85,,85,115,130,140,,140,355
1,M,SBD,Wraps,No,90,Aleksey Zavorin,Алексей Заворин,1975-04-30,Pro Masters 40-49,88.7,190,205,-210,,205,160,170,-175,,170,255,-270,,,255,630
1,M,SBD,Wraps,No,125,Borislav Dzakhsorov,Борислав Дзахсоров,1972-07-19,Pro Masters 40-49,122.2,230,240,250,,250,180,190,200,,200,250,270,,,270,720
1,M,SBD,Wraps,No,100,Oleg Lagunov,Олег Лагунов,1967-03-05,Pro Masters 40-49,99.85,-220,220,,,220,140,150,-157.5,,150,250,265,275,,275,645
1,M,SBD,Wraps,No,82.5,Yuriy Shumskikh,Юрий Шумских,1958-04-19,Pro Masters 50-59,79.05,-160,160,170,-180.5,170,85,90,-92.5,,90,160,175.5,-177.5,,175.5,435.5
1,F,SBD,Wraps,No,82.5,Anna Chubarova,Анна Чубарова,1988-02-03,Pro Open,80.65,175,-185,185,,185,100,110,115,,115,175,190,,,190,490
1,F,SBD,Wraps,No,90,Olga Gerasimyuk,Ольга Герасимюк,1996-03-01,Pro Open,84.85,140,-150,150,,150,85,90,95,,95,160,170,-180,,170,415
1,F,SBD,Wraps,No,56,Elena Kuchina,Елена Кучина,1985-07-22,Pro Open,54.8,75,80,85,,85,42.5,45,50,,50,80,-85,-85,,80,215
1,F,SBD,Wraps,No,52,Anna Koropets,Анна Коропец,1988-02-03,Pro Open,50.35,55,65,-70,,65,32.5,37.5,-42.5,,37.5,70,85,90,,90,192.5
1,F,SBD,Wraps,No,67.5,Olga Borodina,Ольга Бородина,1988-03-25,Pro Open,63.3,75,82.5,-87.5,,82.5,35,37.5,-42.5,,37.5,90,100,105,,105,225
1,F,SBD,Wraps,No,52,Liliya Yusupova,Лилия Юсупова,1996-06-08,Pro Teen 17-19,48.85,47.5,-52.5,-52.5,,47.5,22.5,25,27.5,,27.5,50,57.5,62.5,,62.5,137.5
1,F,SBD,Wraps,No,48,Evgeniya Meteleva,Евгения Метелева,1991-08-14,Pro Juniors 20-23,47.65,45,55,,,55,30,37.5,-40,,37.5,50,60,70,,70,162.5
1,F,SBD,Wraps,No,60,Anna Ivannikova,Анна Иванникова,1993-08-09,Pro Juniors 20-23,60,85,92.5,-95,,92.5,42.5,47.5,52.5,,52.5,90,97.5,-102.5,,97.5,242.5
1,M,SBD,Multi-ply,No,100,Yuriy Karpov,Юрий Карпов,1986-12-13,Pro Open,99.75,350,370,380,,380,-265,265,280,,280,350,365,367.5,,367.5,1027.5
2,M,SBD,Single-ply,No,100,Egor Musienko,Егор Мусиенко,1993-06-15,Pro Open,98.05,375,-400,-400,,375,-210,210,-222.5,,210,340,-360,-360,,340,925
3,M,SBD,Multi-ply,No,100,Enver Niyaziev,Энвер Ниязиев,1989-07-22,Pro Open,97.6,220,240,260,,260,225,235,-242.5,,235,225,245,-260,,245,740
1,M,SBD,Multi-ply,No,67.5,Evgeniy Gansh,Евгений Ганш,1992-04-10,Pro Open,67.05,-270,270,280,,280,185,-195,195,,195,-250,250,-260,,250,725
1,M,SBD,Multi-ply,No,110,Ivan Vasyunin,Иван Васюнин,1983-08-01,Pro Open,102.55,-370,370,-385,,370,290,305,312.5,,312.5,315,330,355,,355,1037.5
2,M,SBD,Multi-ply,No,110,Aleksey Bokarev,Алексей Бокарев,1991-09-10,Pro Open,107,255,280,307.5,,307.5,140,-157.5,-185,,140,260,280,-300,,280,727.5
DQ,M,SBD,Multi-ply,No,125,Evgeniy Zaytsev,Евгений Зайцев,1978-04-05,Pro Open,124.95,,,,,,,,,,,-355,,,,,
1,M,SBD,Multi-ply,No,90,Vladimir Galkin,Владимир Галкин,1990-07-13,Pro Open,87.65,310,325,330,,330,210,220,-230,-230,220,-280,280,-290,,280,830
2,M,SBD,Multi-ply,No,90,Evgeniy Doroshenko,Евгений Дорошенко,1983-02-01,Pro Open,88.85,300,-315,-315,,300,180,190,200,,200,260,270,280,,280,780
3,M,SBD,Multi-ply,No,90,Aleksandr Alekseev,Александр Алексеев,1980-11-23,Pro Open,88.75,240,-255,-260,,240,150,160,-165,,160,220,-235,,,220,620
1,M,SBD,Multi-ply,No,82.5,Dmitriy Kobtsev,Дмитрий Кобцев,1994-05-20,Pro Juniors 20-23,81.65,215,-225,-230,,215,155,-165,-165,,155,220,230,237.5,,237.5,607.5
2,M,SBD,Multi-ply,No,82.5,Evgeniy Melentev,Евгений Мелентьев,1991-10-07,Pro Juniors 20-23,76.3,220,230,240,,240,120,-130,-130,,120,215,225,245,,245,605
1,M,SBD,Single-ply,No,100,Egor Musienko,Егор Мусиенко,1993-06-15,Pro Juniors 20-23,98.05,375,-400,-400,,375,-210,210,-222.5,,210,340,-360,-360,,340,925
1,M,SBD,Multi-ply,No,110,Aleksey Bokarev,Алексей Бокарев,1991-09-10,Pro Juniors 20-23,107,255,280,307.5,,307.5,140,-157.5,-185,,140,260,280,-300,,280,727.5
1,M,SBD,Multi-ply,No,90,Kirill Karmanov,Кирилл Карманов,1994-10-06,Pro Juniors 20-23,88.35,255,265,-275,,265,190,197.5,205,,205,-240,240,-250,,240,710
1,M,SBD,Multi-ply,No,90,Artem Goncharov,Артем Гончаров,1995-05-23,Pro Teen 17-19,90,-230,240,-250,,240,135,-145,-145,,135,235,255,-280,,255,630
1,M,S,Wraps,No,110,Sergey Lysokon,Сергей Лысоконь,1981-12-15,Pro Open,109.95,-270,270,-280,,270,,,,,,,,,,,270
1,M,S,Wraps,No,110,Roman Kuryanov,Роман Курьянов,1993-07-20,Pro Juniors 20-23,108.45,240,255,-262.5,,255,,,,,,,,,,,255
1,M,S,Multi-ply,No,100,Enver Niyaziev,Энвер Ниязиев,1989-07-22,Pro Open,97.6,220,240,260,,260,,,,,,,,,,,260
DQ,F,S,Multi-ply,No,52,Agnessa Merkulova,Агнесса Меркулова,1988-03-09,Pro Open,52,-180,-200,-200,,,,,,,,,,,,,
1,M,D,Raw,No,110,Sergey Lysokon,Сергей Лысоконь,1981-12-15,Pro Open,109.95,,,,,,,,,,,250,-270,272.5,,272.5,272.5
1,M,D,Raw,No,90,Mikhail Rybanin,Михаил Рыбанин,1985-03-03,Pro Open,88.35,,,,,,,,,,,-200,210,220,,220,220
1,M,D,Raw,No,140+,Stanislav Alekseykin,Станислав Алексейкин,1982-07-14,Pro Open,144.1,,,,,,,,,,,355,-370,-372.5,,355,355
1,M,D,Raw,No,75,Roman Nagibin,Роман Нагибин,1982-08-10,Pro Open,73.85,,,,,,,,,,,150,-160,-165,,150,150
1,M,D,Raw,No,82.5,Vitaliy Nikolaev,Виталий Николаев,1982-04-29,Pro Open,82.5,,,,,,,,,,,270,290,-300,,290,290
1,M,D,Raw,No,125,Sergey Semakin,Сергей Семакин,1978-08-29,Pro Open,116.1,,,,,,,,,,,310,-340,345,,345,345
1,M,D,Raw,No,100,Semen Gogolev,Семен Гоголев,1994-03-04,Pro Juniors 20-23,96.6,,,,,,,,,,,240,250,260,,260,260
1,M,D,Raw,No,110,Roman Kuryanov,Роман Курьянов,1993-07-20,Pro Juniors 20-23,108.45,,,,,,,,,,,230,-247.5,247.5,,247.5,247.5
1,M,D,Raw,No,90,Nikita Romanov,Никита Романов,1991-08-27,Pro Juniors 20-23,88.85,,,,,,,,,,,215,225,,,225,225
1,M,D,Raw,No,125,Vitaliy Chulkov,Виталий Чулков,1994-07-24,Pro Juniors 20-23,123.8,,,,,,,,,,,-300,307.5,-315,,307.5,307.5
1,M,D,Raw,No,67.5,Nikolay Emelyanov,Николай Емельянов,1963-12-30,Pro Masters 50-59,64.2,,,,,,,,,,,150,160,170,,170,170
1,M,D,Raw,No,110,Nikita Kurochkin,Никита Курочкин,1998-05-19,Pro Teen 14-16,106.55,,,,,,,,,,,250,265,280,,280,280
1,M,D,Multi-ply,No,110,Aleksey Bokarev,Алексей Бокарев,1991-09-10,Pro Juniors 20-23,107,,,,,,,,,,,260,280,-300,,280,280
1,M,D,Multi-ply,No,110,Aleksey Bokarev,Алексей Бокарев,1991-09-10,Pro Open,107,,,,,,,,,,,260,280,-300,,280,280
DQ,M,D,Multi-ply,No,125,Evgeniy Zaytsev,Евгений Зайцев,1978-04-05,Pro Open,124.95,,,,,,,,,,,-355,,,,,
1,M,D,Multi-ply,No,100,Enver Niyaziev,Энвер Ниязиев,1989-07-22,Pro Open,97.6,,,,,,,,,,,225,245,-260,,245,245
1,M,D,Multi-ply,No,90,Timofey Polshcha,Тимофей Польща,1975-02-07,Pro Open,86.6,,,,,,,,,,,260,280,,,280,280
1,F,D,Multi-ply,No,75,Yulia Medvedeva,Юлия Медведева,1979-07-08,Pro Open,75,,,,,,,,,,,235,245,-252.5,,245,245
