Name,Country,Sex,Age,Equipment,Division,BodyweightKg,WeightClassKg,Squat1Kg,Squat2Kg,Squat3Kg,Squat4Kg,Best3SquatKg,Bench1Kg,Bench2Kg,Bench3Kg,Bench4Kg,Best3BenchKg,Deadlift1Kg,Deadlift2Kg,Deadlift3Kg,Deadlift4Kg,Best3DeadliftKg,TotalKg,Place,Event
Patricia Viola,Australia,F,25,Wraps,Open,47.5,48,-90,-90,90,,90,40,42.5,-47.5,,42.5,120,125,130,-135.5,130,262.5,1,SBD
Kristy Iervasi,Australia,F,23,Raw,Juniors 20-23,46.5,48,77.5,85,87.5,90,87.5,47.5,50,-52.5,,50,90,97.5,-100,,97.5,235,1,SBD
Coralie Weir,Australia,F,52,Wraps,Open,51.3,52,132.5,-135,-135,,132.5,75,80,-85,,80,140,-145,-145,,140,352.5,1,SBD
Svetlana Baker,USA,F,60,Wraps,Masters 60-64,49.9,52,-75,75,80,,80,47.5,50,-52.5,,50,115,120,122.5,,122.5,252.5,1,SBD
Marianne Peisl,Australia,F,51,Wraps,Masters 50-54,50.4,52,75,-80,82.5,,82.5,47.5,50,-55,,50,85,95,105,,105,237.5,1,SBD
Meg Schneck,Australia,F,25,Wraps,Open,55.4,56,120,132.5,-137.5,,132.5,65,70,72.5,,72.5,140,152.5,160,-165,160,365,1,SBD
Mariša Golob,Slovenia,F,24,Wraps,Open,55,56,115,-120,-120,,115,85,-87.5,-87.5,,85,140,145,,,145,345,2,SBD
Alex Smith,Australia,F,26,Raw,Open,54.7,56,90,95,100,,100,70,72.5,-75,,72.5,140,-147.5,147.5,,147.5,320,1,SBD
Samantha Hailey,Australia,F,35,Wraps,Open,54.9,56,110,-120,-120,,110,60,62.5,-65,,62.5,120,130,-142.5,,130,302.5,3,SBD
Lyndsay Cunningham,New Zealand,F,57,Raw,Masters 55-59,54.5,56,67.5,73.5,,,73.5,-42.5,45,-48.5,,45,90,100,-106,,100,218.5,1,SBD
Tiarna Davis,Australia,F,15,Wraps,Teen 13-15,54.9,56,105,112.5,120,125.5,120,55,-60,-60,,55,90,100,-105,,100,275,1,SBD
Lolita Wikander,Australia,F,51,Wraps,Masters 50-54,55.5,56,70,75,80,,80,50,52.5,-55,,52.5,100,110,-120,,110,242.5,1,SBD
Venecia Bachee,Australia,F,29,Wraps,Open,59.1,60,110,117.5,-125,,117.5,55,60,-62.5,,60,120,127.5,-132.5,,127.5,305,1,SBD
Annette Fatone,Australia,F,27,Wraps,Open,59.4,60,-90,90,105,,105,42.5,45,-50,,45,110,120,-135,,120,270,2,SBD
Rhiannan Smith,Australia,F,24,Raw,Open,59,60,70,77.5,-80,,77.5,55,60,-62.5,,60,125,130,-135,,130,267.5,1,SBD
Samantha Collings,Australia,F,26,Raw,Open,59.3,60,82.5,85,87.5,,87.5,52.5,55,57.5,,57.5,107.5,112.5,-115,,112.5,257.5,2,SBD
Deborah Hartstein,Australia,F,23,Raw,Juniors 20-23,58.5,60,87.5,92.5,95,,95,45,47.5,-50,,47.5,-100,100,110,,110,252.5,1,SBD
Rebecca Hodges,Australia,F,31,Wraps,Open,58.9,60,-65,75,85,,85,42.5,-47.5,47.5,,47.5,80,100,115,,115,247.5,3,SBD
Melissa Ripepi,Australia,F,23,Raw,Juniors 20-23,60,60,77.5,-87.5,-92.5,,77.5,37.5,-45,-52.5,,37.5,100,120,135.5,-136,135.5,250.5,2,SBD
Amie Coe,Australia,F,14,Raw,Teen 13-15,55.8,56,62.5,67.5,72.5,,72.5,35,40,45,,45,65,77.5,90,,90,207.5,1,SBD
Jodie Gardiner,Australia,F,33,Raw,Open,59.6,60,-110,-122.5,-122.5,,,,,,,,,,,,,,DQ,SBD
Maria Barba,Australia,F,49,Wraps,Masters 45-49,65.1,67.5,140,150,-160,,150,80,82.5,85,,85,-150,155,-157.5,,155,390,1,SBD
Heidi Stewart,Australia,F,31,Wraps,Open,67.3,67.5,145,155,160,,160,85,92.5,-95,,92.5,160,-185,,,160,412.5,1,SBD
Kalo Lowe,Australia,F,50,Raw,Masters 50-54,66.8,67.5,115,-125,127.5,,127.5,82.5,-87.5,-87.5,,82.5,140,147.5,152.5,-155,152.5,362.5,1,SBD
Zorahgail Balino,USA,F,33,Wraps,Open,67.3,67.5,143,-170,-170,,143,65,-72.5,72.5,,72.5,150,-170,-170,,150,365.5,2,SBD
Emma Clayton,New Zealand,F,20,Wraps,Juniors 20-23,67.5,67.5,105,115,125,130,125,60,65,70,,70,-130,140,145,,145,340,1,SBD
Gabrielle Franklin,Australia,F,18,Raw,Teen 18-19,61.8,67.5,95,105,110.5,112.5,110.5,62.5,67.5,70.5,72.5,70.5,-125,125,138,,138,319,1,SBD
Nerissa Gray,Australia,F,22,Raw,Juniors 20-23,66.3,67.5,95,105,115,,115,-75,80,-85,,80,115,125,135,,135,330,1,SBD
Ebonie Lazdovskis,Australia,F,18,Wraps,Teen 18-19,64.2,67.5,120,-125,-127.5,,120,55,-62.5,-62.5,,55,120,130,-135,,130,305,1,SBD
Sarah McKinnon,Australia,F,23,Raw,Juniors 20-23,64.5,67.5,95,100,105,,105,55,60,-65,,60,125,135,-140,,135,300,2,SBD
Melanie Walsh,Australia,F,39,Wraps,Submasters 35-39,63.5,67.5,95,100,-105,,100,65,-72.5,-72.5,,65,115,125,130,-135.5,130,295,1,SBD
Helena Moore,Australia,F,43,Raw,Masters 40-44,65.4,67.5,90,95,100,,100,52.5,55,-57.5,,55,105,-120,-120,,105,260,1,SBD
Amanda Gleeson,Australia,F,26,Raw,Open,66,67.5,60,67.5,72.5,,72.5,40,45,-47.5,,45,90,97.5,-100,,97.5,215,1,SBD
Rosemary Sherwin,Australia,F,66,Raw,Masters 65-69,64.2,67.5,-70,-70,-70,,,,,,,,,,,,,,DQ,SBD
Lyndall Vile,Australia,F,26,Wraps,Open,74.2,75,165,172.5,-180,,172.5,77.5,-85,85,,85,180,190,200,,200,457.5,1,SBD
Frances Fitzpatrick,Australia,F,43,Wraps,Masters 40-44,74.6,75,130,145,-152.5,,145,70,77.5,-80,,77.5,200,215,-225,,215,437.5,1,SBD
Zoe Lee Baker,Australia,F,26,Raw,Open,74.7,75,130,140,145,,145,80,85,87.5,,87.5,160,170,175,,175,407.5,1,SBD
Bronwen Sapir,Canada,F,28,Raw,Open,73.6,75,122.5,130,-135,,130,72.5,-77.5,-77.5,,72.5,185,190,-197.5,,190,392.5,2,SBD
Anna Brown,Australia,F,39,Raw,Submasters 35-39,71,75,110,-115,-115,,110,-77.5,-80,80,,80,135,140,145,,145,335,1,SBD
Alisha Rawlinson,Australia,F,36,Wraps,Open,72.1,75,100,112.5,-117.5,,112.5,55,60,-62.5,,60,135,145,-150,,145,317.5,2,SBD
Belinda Azzopardi,Australia,F,42,Raw,Masters 40-44,74.9,75,100,-100.5,105,,105,55,62.5,-67.5,,62.5,130,-140,,,130,297.5,1,SBD
Jessica Ngarotata,Australia,F,30,Raw,Open,79.4,82.5,-130,130,137.5,,137.5,80,87.5,-92.5,,87.5,165,-172.5,172.5,,172.5,397.5,1,SBD
Jameely Choecair,Australia,F,23,Raw,Juniors 20-23,81.8,82.5,-120,125,130,,130,60,,,,60,-150,156,-160,,156,346,1,SBD
Tania Lanfranca,Australia,F,25,Raw,Open,75.6,82.5,105,110,115,,115,57.5,60,-62.5,,60,-130,140,-150,,140,315,2,SBD
Emily Holyoake,Australia,F,24,Raw,Open,78.6,82.5,65,72.5,-80,,72.5,42.5,47.5,-52.5,,47.5,110,-122.5,-132.5,,110,230,3,SBD
Anna Khudayarov,Finland,F,26,Wraps,Open,86.3,90,210,227.5,235,240.5,235,112.5,127.5,135,,135,200,215,222.5,227.5,222.5,592.5,1,SBD
Jessica Lilly,USA,F,29,Wraps,Open,89.2,90,185,192.5,197.5,,197.5,80,-87.5,-87.5,,80,182.5,197.5,-205,,197.5,475,2,SBD
Rachel O'Gorman,Australia,F,37,Raw,Open,89.4,90,100,120,130,,130,115,120,-125,,120,200,210,-220,,210,460,1,SBD
Anita Millington,Australia,F,28,Raw,Open,149.9,90+,185,200,205,,205,97.5,102.5,105,,105,190,207.5,-212.5,,207.5,517.5,1,SBD
Greer Hunt,Australia,F,36,Wraps,Submasters 35-39,118.2,90+,120,150,160,,160,75,77.5,80,82.5,80,160,170,-175,,170,410,1,SBD
Brooke Aitken,Australia,F,35,Raw,Submasters 35-39,103.9,90+,115,125,-135,,125,60,65,67.5,,67.5,165,175,-180,,175,367.5,1,SBD
Natasha Davie,Australia,F,40,Raw,Masters 40-44,140.1,90+,-115,115,125,,125,100,105,-107.5,,105,150,160,167.5,,167.5,397.5,1,SBD
Lisa Hetherington,Australia,F,39,Wraps,Open,116.5,90+,90,-105,-105,,90,50,-60,-60,,50,120,135,-155,,135,275,1,SBD
Ben Faulkner,Australia,M,22,Wraps,Juniors 20-23,55.7,56,105,-112.5,-112.5,,105,75,-80,-80,,75,-115,115,130,-140,130,310,1,SBD
Sam McBain,Australia,M,15,Raw,Teen 13-15,59,60,120,-130,130,140,130,80,85,-90,,85,155,170,180,,180,395,1,SBD
Reuben Anstee,Australia,M,23,Wraps,Juniors 20-23,60,60,150,-160,160,165,160,102.5,-107.5,-107.5,,102.5,-180,180,-190,,180,442.5,1,SBD
Michael Alan,Singapore,M,22,Wraps,Juniors 20-23,66.8,67.5,185,195,202.5,,202.5,100,105,-107.5,,105,220,-232.5,-232.5,,220,527.5,1,SBD
Hymsuen Liu,UK,M,22,Wraps,Juniors 20-23,74.4,75,220,235,-245,,235,130,142.5,147.5,,147.5,260,-280,,,260,642.5,1,SBD
Daniel Chard,Australia,M,16,Wraps,Teen 16-17,72.1,75,205,210,-215,,210,107.5,115,-117.5,,115,222.5,227.5,232.5,,232.5,557.5,1,SBD
Erni Gregorčič,Slovenia,M,38,Wraps,Submasters 35-39,74.1,75,180,-200,-205,,180,130,142.5,-147.5,,142.5,205,,,,205,527.5,1,SBD
Marcus Poole,Australia,M,18,Raw,Teen 18-19,73.3,75,150,160,-167.5,,160,77.5,82.5,-87.5,,82.5,165,185,-190,,185,427.5,1,SBD
Josh Sheridan,Australia,M,16,Raw,Teen 16-17,73.3,75,120,125,-130,,125,85,90,-95,,90,160,170,180,,180,395,2,SBD
Salgado Jose,Argentina,M,21,Wraps,Juniors 20-23,74.6,75,-280,-280,-280,,,,,,,,,,,,,,DQ,SBD
Tom Lee,New Zealand,M,21,Wraps,Juniors 20-23,82.4,82.5,260,275,-280,,275,145,155,-157.5,,155,250,-265,-265,,250,680,1,SBD
Andrew Johnson,Australia,M,39,Wraps,Submasters 35-39,81,82.5,200,220,227.5,,227.5,100,107.5,-112.5,,107.5,220,240,-260,,240,575,1,SBD
Augustine Disano,Australia,M,19,Raw,Teen 18-19,82.3,82.5,-180,180,-200,,180,140,145,-147.5,,145,220,230,-235,,230,555,1,SBD
Daniel Nunnari,Australia,M,21,Raw,Juniors 20-23,79.7,82.5,175,185,-190,,185,127.5,132.5,-135,,132.5,220,-240,-247.5,,220,537.5,1,SBD
Mitch Peter Lee,Australia,M,17,Raw,Teen 16-17,79.6,82.5,165,-180,-180,,165,95,102.5,-107.5,,102.5,170,190,-207.5,,190,457.5,2,SBD
Nick Viner,Australia,M,16,Wraps,Teen 16-17,82.3,82.5,160,170,-175,,170,95,105,-110,,105,-195,195,-202.5,,195,470,1,SBD
Ryan Anthony,Australia,M,21,Wraps,Juniors 20-23,81.4,82.5,180,192.5,205,,205,92.5,100,105,,105,190,220,240,,240,550,2,SBD
Luke Shakespeare,Australia,M,20,Wraps,Juniors 20-23,89.2,90,270,285,-300,,285,165,172.5,177.5,,177.5,270,292.5,-300,,292.5,755,1,SBD
Kevin Yuan,Australia,M,20,Wraps,Juniors 20-23,89.9,90,260,270,-280,,270,180,-200,-200,,180,260,270,,,270,720,2,SBD
Atreyu Wilkinson,Australia,M,21,Raw,Juniors 20-23,89,90,200,-210,-210,,200,140,-147.5,-147.5,,140,-270,270,-292.5,,270,610,1,SBD
Peter Preketes,Australia,M,17,Raw,Teen 16-17,90,90,-180,188,192.5,,192.5,110,117.5,-122.5,,117.5,205,222.5,227.5,,227.5,537.5,1,SBD
Johnny Riley,Australia,M,22,Wraps,Juniors 20-23,89.1,90,240,-260,-260,,240,150,-157.5,-157.5,,150,255,-275,,,255,645,3,SBD
Alex Deken,Australia,M,23,Raw,Juniors 20-23,100,100,255,275,,,275,175,192.5,-200,,192.5,255,275,-282.5,,275,742.5,1,SBD
George Siopis,Australia,M,35,Raw,Submasters 35-39,95.8,100,220,235,245,,245,160,170,-175,,170,260,280,-290,,280,695,1,SBD
Brent Drake #2,Australia,M,38,Wraps,Submasters 35-39,98.4,100,245,255,265,,265,150,157.5,162.5,,162.5,-260,260,267.5,,267.5,695,1,SBD
Jarrod Earle,Australia,M,19,Wraps,Teen 18-19,97.2,100,240,-250,250,-260,250,150,160,-165,,160,245,260,-265,,260,670,1,SBD
Liam McDonald,Australia,M,22,Raw,Juniors 20-23,99.4,100,255,270,-280,,270,25,,,,25,315,330,340.5,-345,340.5,635.5,2,SBD
Damein Garrety,Australia,M,21,Raw,Juniors 20-23,99.9,100,190,205,210,,210,140,150,-155,,150,240,255,-260,,255,615,3,SBD
Dominic Morton,Australia,M,38,Raw,Submasters 35-39,99.2,100,190,205,-220,,205,150,155,-160,,155,235,-245,-245,,235,595,2,SBD
Lewis Robottom,Australia,M,18,Raw,Teen 18-19,97.1,100,140,160,175,,175,70,80,-90,,80,200,215,-220,,215,470,1,SBD
James Yammine,Australia,M,18,Raw,Teen 18-19,99.9,100,220,-240,-242.5,,220,-135,,,,-135,,,,,,,DQ,SBD
Joe Lockwood,Australia,M,21,Wraps,Juniors 20-23,97.2,100,230,240,-250,,240,130,142.5,-152.5,,142.5,230,240,-247.5,,240,622.5,1,SBD
Jesse Burrows,Australia,M,20,Wraps,Juniors 20-23,106.4,110,345,360,,,360,190,200,205,,205,290,305,315,,315,880,1,SBD
Tyler Cummings,USA,M,23,Wraps,Juniors 20-23,109.2,110,287.5,302.5,,,302.5,195,205,-212.5,,205,300,317.5,320,-333,320,827.5,2,SBD
Tyson Morrissy,Australia,M,22,Wraps,Juniors 20-23,109.1,110,265,287.5,300,,300,147.5,162.5,-172.5,,162.5,285,310,-320,,310,772.5,3,SBD
Jeremy Buchanek,Australia,M,21,Wraps,Juniors 20-23,107.6,110,285,307.5,-317.5,,307.5,140,-150,,,140,280,305,-312.5,,305,752.5,4,SBD
Ben Du Plessis,Australia,M,21,Wraps,Juniors 20-23,109.8,110,-260,260,,,260,180,-205,-205,,180,260,,,,260,700,5,SBD
David Tagamotu,Australia,M,37,Wraps,Submasters 35-39,109.5,110,-220,-220,230,,230,160,170,-172.5,,170,260,-280,280,,280,680,1,SBD
Dirk Venter,Australia,M,39,Raw,Submasters 35-39,107.7,110,240,,,,240,60,,,,60,305,-317.5,,,305,605,1,SBD
Jack Milne Childs,Australia,M,16,Raw,Teen 16-17,108.4,110,170,180,-195,,180,107.5,112.5,-117.5,,112.5,200,215,-220,,215,507.5,1,SBD
Matthew Morton,New Zealand,M,19,Wraps,Teen 18-19,109.7,110,180,-210,-212.5,,180,100,-110,117.5,,117.5,190,-222.5,-222.5,,190,487.5,1,SBD
Miles Anderson,Australia,M,23,Wraps,Juniors 20-23,112,125,-305,-315,315,,315,130,-140,-147.5,,130,280,305,-325,,305,750,1,SBD
Jake Fisher,Australia,M,23,Wraps,Juniors 20-23,118.3,125,227.5,245,260,,260,150,160,170,,170,270,290,-307.5,,290,720,2,SBD
Wayde Hunter,Australia,M,20,Wraps,Juniors 20-23,119.9,125,240,250,260,,260,145,155,160,,160,255,270,-280,,270,690,3,SBD
John Pappas #1,Australia,M,21,Raw,Juniors 20-23,113.3,125,205,220,,,220,135,145,155,,155,250,-265,275,,275,650,1,SBD
Joe Holland,Australia,M,21,Wraps,Juniors 20-23,115.9,125,150,170,180,,180,92.5,100,-102.5,,100,180,205,,,205,485,1,SBD
Conrad Galuvao,Australia,M,35,Wraps,Submasters 35-39,132.7,140,285,305,315,,315,185,200,205,,205,285,300,-305,,300,820,1,SBD
Danny Saelam Barrett,Australia,M,13,Raw,Teen 13-15,136,140,180,190,200,205,200,100,110,-120,,110,200,215,220,227.5,220,530,1,SBD
Luke Mayne,Australia,M,21,Wraps,Juniors 20-23,164.4,140+,280,300,,,300,155,165,180,,180,260,285,300,,300,780,1,SBD
Josh Bertuna,Australia,M,22,Raw,Juniors 20-23,154.5,140+,225,245,255,,255,160,170,-180,,170,250,265,-275,,265,690,1,SBD
Ricky Ferrar,Australia,M,23,Raw,Juniors 20-23,197.4,140+,-195,-195,-195,,,,,,,,,,,,,,DQ,SBD
William Bright,Australia,M,29,Wraps,Open,50.8,52,170,180,-190,,180,125,135,-140,,135,160,170,-175,,170,485,1,SBD
Paul Attard,Australia,M,27,Raw,Open,56,56,110,122.5,130,,130,75,82.5,87.5,-90.5,87.5,175,-185,185,,185,402.5,1,SBD
Lucas De Lara Macri,Brazil,M,26,Raw,Open,59.8,60,-105,105,122.5,,122.5,95,107.5,-110,,107.5,175,187.5,195,,195,425,1,SBD
Sebastian Eio Jing Kai,Singapore,M,27,Wraps,Open,66.6,67.5,185,200,207.5,,207.5,-105,105,-112.5,,105,-230,-230,230,250,230,542.5,1,SBD
Luke Vella,Australia,M,28,Raw,Open,67.5,67.5,-160,160,170,,170,115,120,-125,,120,230,-235,-235,,230,520,1,SBD
Peter Mansfield,Australia,M,51,Raw,Masters 50-54,67,67.5,125,132.5,137.5,-140,137.5,90,-96,-96,,90,170,182.5,-185,,182.5,410,1,SBD
Corey Ettia,Australia,M,24,Wraps,Open,73.3,75,255,265,-273,,265,120,130,-132.5,,130,240,250,-260,,250,645,1,SBD
Jim Ambrose,Australia,M,63,Wraps,Masters 60-64,73.1,75,160,-170,170,,170,120,125,-127.5,,125,210,220,-225,,220,515,1,SBD
Michael Watt,Australia,M,32,Wraps,Open,72.4,75,190,200,-210,,200,130,-140,140,,140,220,240,255,,255,595,2,SBD
Stephen Ramsey,Australia,M,46,Wraps,Masters 45-49,74.5,75,140,-160,170,,170,100,-117.5,-117.5,,100,200,235,-240,,235,505,1,SBD
Duston Quek,Singapore,M,26,Raw,Open,73.8,75,185,-210,-215,,185,125,135,-140,,135,200,215,-230,,215,535,1,SBD
Greg Hills,Australia,M,44,Raw,Masters 40-44,73.9,75,170,185,200,,200,120,126,-130,,126,225,242.5,-252.5,,242.5,568.5,1,SBD
Rodney Newman,New Zealand,M,53,Raw,Masters 50-54,74.9,75,125,140,150,,150,127.5,140,-145,,140,190,210,215,,215,505,1,SBD
Daniel Weir,Australia,M,32,Wraps,Open,82,82.5,205,212.5,220,,220,140,150,157.5,,157.5,230,240,247.5,,247.5,625,2,SBD
Michael Trentin,Australia,M,32,Wraps,Open,82.2,82.5,190,-205,210,,210,140,147.5,150,,150,215,230,-255,,230,590,3,SBD
Ofir Birenbaum,Israel,M,27,Wraps,Open,82.1,82.5,-225,235,245,,245,-130,-132,132.5,,132.5,210,230,260,,260,637.5,1,SBD
Bryan Tan,Singapore,M,26,Raw,Open,82.3,82.5,200,-210,-210,,200,137.5,142.5,-145,,142.5,225,240,267.5,,267.5,610,1,SBD
Robert Harniman,Australia,M,30,Raw,Open,82.1,82.5,160,175,185,,185,140,147.5,152.5,,152.5,200,220,-230,,220,557.5,2,SBD
Ross Semplice,Australia,M,47,Raw,Masters 45-49,80.4,82.5,140,155,170,,170,70,85,-100,,85,150,170,185,,185,440,1,SBD
Amit Sapir,Canada,M,32,Wraps,Open,89.2,90,-321,321,327.5,-332.5,327.5,167.5,175,-182.5,,175,227.5,240,250,,250,752.5,2,SBD
Laurie Butler,Australia,M,67,Raw,Masters 65-69,89.9,90,175,190,200,,200,125,132.5,141,,141,220,235,250,,250,591,1,SBD
Bradley Thornton,USA,M,26,Wraps,Open,84.9,90,-285,-300,-300,,,,,,,,,,,,,,DQ,SBD
Brian Jarrott,Australia,M,46,Wraps,Masters 45-49,89.8,90,230,245,-260,,245,120,130,-140,,130,230,240,250,,250,625,1,SBD
Chris Samuels,Australia,M,27,Wraps,Open,89.9,90,177.5,185,190,,190,120,125,127.5,,127.5,212.5,217.5,-222.5,,217.5,535,2,SBD
David Parmiter,Australia,M,32,Wraps,Open,89.6,90,250,265,275,,275,180,190,195,,195,305,335,-342.5,,335,805,1,SBD
Joe de Bono,Australia,M,40,Wraps,Masters 40-44,89.6,90,-215,215,-225,,215,125,132.5,-137.5,,132.5,260,270,290,,290,637.5,1,SBD
Neil Newman,Australia,M,33,Wraps,Open,89.9,90,235,250,-260,,250,145,150,-155,,150,255,270,280,,280,680,3,SBD
Reno Borg,Australia,M,75,Wraps,Masters 75-79,83.1,90,145,-155,155,,155,-105,105,110,112.5,110,180,-190,190,,190,455,1,SBD
Vince Simonetta,Australia,M,54,Raw,Masters 50-54,88.6,90,180,195,202.5,,202.5,90,97.5,105,,105,230,-240,,,230,537.5,1,SBD
Peter Baskerville,Australia,M,60,Raw,Masters 60-64,88.6,90,157.5,165,-170,,165,80,-87.5,-87.5,,80,200,210,-220,,210,455,1,SBD
Jim Tulun,Australia,M,40,Raw,Masters 40-44,89,90,190,200,212.5,,212.5,127.5,132.5,-140,,132.5,220,235,-247.5,,235,580,1,SBD
Andrey Belyaev #1,Russia,M,,Raw,Open,91.2,100,220,240,260,,260,170,195,205,,205,300,330,370,,370,835,1,SBD
Matthew Middleton,Australia,M,26,Raw,Open,97.1,100,265,280,290,,290,175,185,190,,190,265,275,290,,290,770,2,SBD
Julien Tresch,Australia,M,36,Raw,Open,99.6,100,235,250,262.5,,262.5,140,150,155,,155,280,300,310,,310,727.5,3,SBD
Eric Ovens,Australia,M,25,Raw,Open,95.8,100,190,210,215,,215,155,160,-165,,160,210,235,-242.5,,235,610,4,SBD
Chris Andrews,Australia,M,46,Wraps,Masters 45-49,96.9,100,170,-180,,,170,170,177.5,180,,180,200,215,,,215,565,1,SBD
Chris Duffin,USA,M,37,Wraps,Open,99.7,100,-365,365,377.5,,377.5,192.5,210,-217.5,,210,320,-340,-340,,320,907.5,1,SBD
Rhys Archer,Australia,M,28,Wraps,Open,97.6,100,-245,245,-255,,245,140,150,,,150,260,-280,,,260,655,2,SBD
Valeriy Razdorozhnyy,Ukraine,M,49,Raw,Masters 45-49,99.9,100,180,200,210,,210,140,150,-160,,150,200,210,-220,,210,570,1,SBD
Ricky Sherrock,New Zealand,M,29,Wraps,Open,98.2,100,260,275,-282.5,,275,145,152.5,-157.5,,152.5,245,265,-270,,265,692.5,3,SBD
Ron Birch,Australia,M,,Wraps,Masters 65-69,99,100,140,160,,,160,90,105,-110,,105,155,192.5,,,192.5,457.5,1,SBD
Mikko Mäntymäki,Finland,M,43,Raw,Masters 40-44,98.9,100,105,,,,105,140,145,-150,,145,225,245,260,,260,510,1,SBD
Sam Byrd,USA,M,33,Wraps,Open,96.1,100,-340,355,-367.5,,355,165,185,187.5,,187.5,295,320,-330,,320,862.5,2,SBD
Dan Green,USA,M,31,Wraps,Open,109.9,110,350,372.5,-387.5,,372.5,215,230,237.5,,237.5,345,370,-395,,370,980,1,SBD
Nathan Jones #1,Australia,M,36,Wraps,Open,109.3,110,325,340,365,,365,192.5,202.5,-210,,202.5,312.5,335,-340,,335,902.5,2,SBD
Henry Day,Australia,M,51,Wraps,Masters 50-54,109.9,110,275,295,307.5,,307.5,175,185,-190,,185,230,245,-260,,245,737.5,1,SBD
Steve Brown #1,Australia,M,54,Wraps,Masters 50-54,102.6,110,240,260,-280,,260,110,117.5,125,,125,240,255,265,,265,650,2,SBD
Glen Stewart,Australia,M,47,Wraps,Masters 45-49,104.5,110,265,-290,-300,,265,155,170,-175,,170,265,280,-300,,280,715,1,SBD
Peter Weatherall,Australia,M,45,Wraps,Masters 45-49,104.6,110,200,220,240,,240,155,170,180,-185,180,230,245,255,,255,675,2,SBD
Brad Ringin,Australia,M,49,Wraps,Masters 45-49,104,110,210,230,240,,240,125,135,140,,140,230,250,-267.5,,250,630,3,SBD
Uwe Thormann,USA,M,57,Wraps,Masters 55-59,104.2,110,140,160,-180,,160,130,140,-150,,140,-180,200,220,,220,520,1,SBD
Thomas Musgrove,Australia,M,25,Wraps,Open,104.3,110,-205,-205,205,,205,140,150,-152.5,,150,240,265,-272.5,,265,620,3,SBD
Dion Mepham,Australia,M,44,Raw,Masters 40-44,107.8,110,195,210,-222.5,,210,155,-165,-165,,155,200,220,235,,235,600,1,SBD
Michael Lloyd,USA,M,47,Wraps,Masters 45-49,110,110,-207.5,-207.5,207.5,,207.5,142.5,150,160,,160,185,190,-200,,190,557.5,1,SBD
Tommy Khoury,Australia,M,26,Raw,Open,106.7,110,180,195,-210,,195,150,-160,-160,,150,250,-265,-265,,250,595,1,SBD
Andy Williamson,USA,M,49,Wraps,Masters 45-49,104.5,110,185,195,,,195,132.5,,,,132.5,185,200,,,200,527.5,2,SBD
Neil Cahill,Australia,M,33,Raw,Open,107.4,110,170,-200,200,,200,120,130,140,,140,220,240,250,,250,590,2,SBD
Terry Gibbs,Australia,M,60,Raw,Masters 60-64,102.5,110,150,172.5,177.5,,177.5,45,,,,45,175,-190,190,,190,412.5,1,SBD
Ed Coan,USA,M,51,Wraps,Masters 50-54,103.2,110,300,,,,300,,,,,,,,,,,300,G,S
Mitchel Lee,Australia,M,25,Wraps,Open,108.5,110,-325,-325,-325,,,,,,,,,,,,,,DQ,SBD
Zahir Khudayarov,Azerbaijan,M,31,Wraps,Open,125,125,400,-430,430,450,430,200,230,250,,250,-340,350,-380,,350,1030,1,SBD
Shane Naylor,Australia,M,47,Raw,Open,123.7,125,-320.5,320.5,330,,330,200,207.5,-215,,207.5,310,337.5,-345,,337.5,875,1,SBD
Paul Nay,Australia,M,45,Wraps,Masters 45-49,118.7,125,300,315,325,,325,170,180,-187.5,,180,315,325,335,,335,840,1,SBD
Shannon Florissen,Australia,M,38,Wraps,Open,123.3,125,320,-330,330,,330,200,215,227.5,,227.5,310,325,,,325,882.5,2,SBD
Darren Farrow,New Zealand,M,42,Wraps,Open,116.9,125,280,290,-300,,290,200,210,215,,215,-300,300,310,,310,815,3,SBD
Troy Marshall,New Zealand,M,41,Wraps,Masters 40-44,113.7,125,260,275,-285,,275,172.5,182.5,187.5,,187.5,280,290,300,,300,762.5,1,SBD
Joshua Bourne,Australia,M,28,Wraps,Open,118.2,125,235,250,,,250,150,160,-165,,160,285,-300,300,,300,710,4,SBD
James Seadon,Australia,M,33,Raw,Open,118,125,225,242.5,250,,250,160,170,-175,,170,260,280,290,,290,710,2,SBD
Wade Baker,Australia,M,30,Raw,Open,124.4,125,240,-260,260,,260,140,150,-155,,150,270,290,-300,,290,700,3,SBD
Jacob Oakenfull,Australia,M,24,Wraps,Open,111.9,125,60,,,,60,-185,185,-192.5,,185,250,270,-295,,270,515,5,SBD
Wayne Howlett,Australia,M,34,Wraps,Open,122.3,125,260,300,,,300,60,,,,60,65,,,,65,425,6,SBD
Rocky Tilson,USA,M,52,Raw,Masters 50-54,110.3,125,152.5,185,-215,,185,-105,,,,,,,,,,,DQ,SBD
Eric Lilliebridge,USA,M,24,Wraps,Open,133.5,140,425,-455,-455,,425,220,235,245,,245,365,387.5,-410,,387.5,1057.5,1,SBD
Dan Wright,Australia,M,45,Wraps,Masters 45-49,136.2,140,320,-360,-365,,320,180,-195,-195,,180,280,300,,,300,800,1,SBD
Shaune Howlett,Australia,M,31,Raw,Open,127.7,140,300,315,,,315,200,215,-220,,215,280,300,,,300,830,1,SBD
Phil Wilde,Australia,M,25,Raw,Open,137.9,140,265,280,290,,290,190,195,-200,,195,260,280,-300,,280,765,2,SBD
Dustin Zinetti,Australia,M,35,Wraps,Open,135,140,280,295,-310,,295,180,192.5,200,,200,260,-275,-275,,260,755,2,SBD
Andy Davis,Australia,M,23,Wraps,Open,125.3,140,240,250,260,,260,155,-165,165,,165,260,275,,,275,700,3,SBD
Greg Deegan,Australia,M,37,Wraps,Open,126.3,140,225,242.5,-255,,242.5,150,155,-157.5,,155,287.5,300,-307.5,,300,697.5,4,SBD
Chad Wesley Smith,USA,M,28,Wraps,Open,159.4,140+,390,-435,435,,435,235,245,250,,250,335,-365,365,,365,1050,1,SBD
Adrian Tullo,Australia,M,42,Raw,Masters 40-44,148,140+,310,331,340,,340,230,240,-250,,240,330,351,-360,,351,931,1,SBD
Brandon Lilly,USA,M,32,Wraps,Open,150.9,140+,300,-337.5,,,300,250,-275,-275,,250,320,-340,,,320,870,2,SBD
Mike Jones #3,Australia,M,35,Wraps,Open,150.1,140+,272.5,285,300,,300,180,190,200,,200,320,-340,340,,340,840,3,SBD
George McLaren,Australia,M,30,Raw,Open,183.3,140+,335,350,365,,365,200,215,227.5,,227.5,360,,,,360,952.5,1,SBD
Damir Pilipovic,Australia,M,45,Wraps,Masters 45-49,149.8,140+,300,315,,,315,-145,-145,145,,145,260,-280,290,300,290,750,1,SBD
Nicholas Churchward,Australia,M,25,Wraps,Open,166.6,140+,290,305,315,,315,170,185,-192.5,,185,300,,,,300,800,4,SBD
Odell Manuel,Australia,M,36,Wraps,Open,144.7,140+,-380,-390,400,,400,230,240,-242.5,,240,-390,-400,,,,,DQ,SBD
Sandra Middleton,Australia,F,53,Raw,Masters 50-54,47.1,48,,,,,,50,-52.5,-52.5,,50,105,110,115,117.5,115,165,1,BD
Mariša Golob,Slovenia,F,24,Raw,Open,55.3,56,,,,,,80,85,-90,,85,135,145,150,,150,235,1,BD
Kevin Rogers,Australia,M,51,Raw,Masters 50-54,60,60,,,,,,82.5,87.5,-91.5,,87.5,60,127.5,135,140.5,135,222.5,1,BD
Peter Mansfield,Australia,M,51,Raw,Masters 50-54,66.6,67.5,,,,,,80,90,96,,96,162.5,172.5,182.5,185,182.5,278.5,1,BD
Chantel Lacrosse,Australia,F,23,Raw,Juniors 20-23,67.3,67.5,,,,,,50,55,57.5,,57.5,120,130,140,,140,197.5,1,BD
Erni Gregorčič,Slovenia,M,38,Raw,Submasters 35-39,73,75,,,,,,130,140,-145,,140,190,210,225,,225,365,1,BD
Rodney Newman,Australia,M,53,Raw,Masters 50-54,74.7,75,,,,,,120,138,,,138,185,211,220,,220,358,1,BD
Nathan Ross,Australia,M,37,Raw,Open,81.4,82.5,,,,,,140,150,155,,155,240,255,262.5,270,262.5,417.5,1,BD
Daniel Nunnari,Australia,M,21,Raw,Juniors 20-23,81.5,82.5,,,,,,127.5,-135.5,-135.5,,127.5,200,220,230,235,230,357.5,1,BD
Anna Khudayarov,Finland,F,26,Raw,Open,86.4,90,,,,,,100,115,125,,125,200,215,222.5,,222.5,347.5,1,BD
Kimbah Pengelly,Australia,F,51,Raw,Masters 50-54,89.8,90,,,,,,40,-45,-45,,40,110,122.5,125,,125,165,1,BD
Mitch Campbell,Australia,M,26,Raw,Open,99.2,100,,,,,,170,175,-180,,175,265,280,290,300.5,290,465,1,BD
Nick Dimakis,Australia,M,24,Raw,Open,96.2,100,,,,,,140,-150,150,,150,250,-265,-265,,250,400,2,BD
Mikko Mäntymäki,Finland,M,43,Raw,Open,101.1,110,,,,,,130,140,-152.5,,140,175,230,-262.5,,230,370,1,BD
Uwe Thormann,USA,M,57,Raw,Masters 55-59,105,110,,,,,,130,140,142.5,,142.5,190,210,220,,220,362.5,1,BD
Andy Williamson,USA,M,49,Raw,Masters 45-49,103.3,110,,,,,,132.5,-140,-140,,132.5,185,200,210,212.5,210,342.5,1,BD
David Toomer,Australia,M,26,Raw,Open,123.6,125,,,,,,190,202.5,210,,210,285,305,315,,315,525,1,BD
Geordie Shields,New Zealand,M,40,Raw,Masters 40-44,120.4,125,,,,,,190,200,210,215,210,290,300,310,,310,520,1,BD
Glen Krutli,Australia,M,28,Raw,Open,115.5,125,,,,,,160,-167.5,-167.5,,160,282.5,305,-310,,305,465,2,BD
Michael Lloyd,USA,M,47,Raw,Masters 45-49,114,125,,,,,,145,157.5,-165,,157.5,185,192.5,-200,,192.5,350,1,BD
Kirill Sarychev,Russia,M,,Raw,Open,172.1,140+,,,,,,280,300,315,,315,370,390,,,390,705,1,BD
Andrey Malanichev,Russia,M,37,Raw,Open,140,140,,,,,,180,200,220,,220,250,300,,,300,520,1,BD
Dana Tripp,USA,F,42,Raw,Masters 40-44,44,44,,,,,,42.5,45,-47.5,,45,,,,,,45,1,B
Sandra Middleton,Australia,F,53,Raw,Masters 50-54,47.1,48,,,,,,50,-52.5,-52.5,,50,,,,,,50,1,B
Svetlana Baker,USA,F,60,Raw,Masters 60-64,49.9,52,,,,,,47.5,50,52.5,,52.5,,,,,,52.5,1,B
Mariša Golob,Slovenia,F,24,Raw,Open,55.3,56,,,,,,80,85,-90,,85,,,,,,85,1,B
Lorell Nelson,Australia,F,58,Raw,Masters 55-59,57.5,60,,,,,,50,55,56,57,56,,,,,,56,1,B
Kevin Rogers,Australia,M,51,Raw,Masters 50-54,60,60,,,,,,82.5,87.5,-91.5,,87.5,,,,,,87.5,1,B
Sam McBain,Australia,M,15,Raw,Teen 13-15,59.5,60,,,,,,77.5,85,-91,,85,,,,,,85,1,B
Skye McDonald,Australia,F,29,Raw,Open,61.1,67.5,,,,,,75,80,-85,,80,,,,,,80,1,B
Nick Allie,Australia,M,32,Raw,Open,66.8,67.5,,,,,,150,160,-162.5,,160,,,,,,160,1,B
Russ Tripp,USA,M,47,Raw,Masters 45-49,67.4,67.5,,,,,,125,-130,130,,130,,,,,,130,1,B
Roman Eremashvili,Belarus,M,33,Raw,Open,72.7,75,,,,,,210,220,228,,228,,,,,,228,1,B
Rodney Newman,Australia,M,53,Raw,Masters 50-54,74.7,75,,,,,,120,138,,,138,,,,,,138,1,B
Clotario Ortiz Portugal Neto,Brazil,M,61,Raw,Masters 60-64,72.1,75,,,,,,95,102.5,105,,105,,,,,,105,1,B
Erni Gregorčič,Slovenia,M,38,Raw,Submasters 35-39,73,75,,,,,,130,140,-145,,140,,,,,,140,1,B
Anthony Day,Australia,M,42,Raw,Masters 40-44,72.1,75,,,,,,60,85,-95,,85,,,,,,85,1,B
Nizami Yuzbegov,New Zealand,M,28,Raw,Open,75.8,82.5,,,,,,147.5,155,160,,160,,,,,,160,1,B
Mitch Peter Lee,Australia,M,17,Raw,Teen 16-17,81.8,82.5,,,,,,97.5,-102.5,102.5,,102.5,,,,,,102.5,1,B
Anna Khudayarov,Finland,F,26,Raw,Open,86.4,90,,,,,,100,115,125,,125,,,,,,125,1,B
Ange Galati,Australia,M,46,Raw,Masters 45-49,82.6,90,,,,,,190,203,210,215.5,210,,,,,,210,1,B
Traiy Richardson,Australia,M,17,Raw,Teen 16-17,86.2,90,,,,,,100,117.5,120,,120,,,,,,120,1,B
Oleg Bazilevich,Ukraine,M,,Raw,Open,97.8,100,,,,,,245,256,-267,,256,,,,,,256,1,B
Kevin Lloyd,Australia,M,31,Raw,Open,99.2,100,,,,,,200,210,217.5,,217.5,,,,,,217.5,2,B
Michael Lee,Australia,M,34,Raw,Open,100,100,,,,,,185,190,-195,,190,,,,,,190,3,B
Joel McCaughan,Australia,M,26,Raw,Open,98.4,100,,,,,,170,182.5,187.5,,187.5,,,,,,187.5,4,B
Herb Turvey,Australia,M,52,Raw,Masters 50-54,97.6,100,,,,,,140,150,160,162.5,160,,,,,,160,1,B
Paul Belli,New Zealand,M,38,Raw,Submasters 35-39,97.3,100,,,,,,175,-180,-180,,175,,,,,,175,1,B
Mitch Campbell,Australia,M,26,Raw,Open,99.2,100,,,,,,170,175,-180,,175,,,,,,175,5,B
Aaron Kingsley,Australia,M,24,Raw,Open,97.9,100,,,,,,170,-180,-180,,170,,,,,,170,6,B
Steve Ross,Australia,M,64,Raw,Masters 60-64,90.8,100,,,,,,90,95,100,,100,,,,,,100,1,B
Brendan Hains,Australia,M,46,Raw,Masters 45-49,98.5,100,,,,,,150,160,-170,,160,,,,,,160,1,B
Peterdi Miklos,Chile,M,58,Raw,Masters 55-59,99.4,100,,,,,,170,175,180,,180,,,,,,180,1,B
Jesse Burrows,Australia,M,20,Raw,Juniors 20-23,107.5,110,,,,,,180,190,200,-210.5,200,,,,,,200,1,B
Mikko Mäntymäki,Finland,M,43,Raw,Open,101.1,110,,,,,,135,140,-152.5,,140,,,,,,140,1,B
Jonny Nelson,Australia,M,31,Raw,Open,108.4,110,,,,,,125,-130,-130,,125,,,,,,125,2,B
Andy Williamson,USA,M,49,Raw,Masters 45-49,103.3,110,,,,,,130,-140,-140,,130,,,,,,130,1,B
Iztok Mavsar,Slovenia,M,51,Raw,Masters 50-54,108.2,110,,,,,,145,155,-165,,155,,,,,,155,1,B
Vishal Khanna,India,M,,Raw,Open,123,125,,,,,,-250,250,-257.5,,250,,,,,,250,1,B
Shannon Green,Australia,M,35,Raw,Open,117.9,125,,,,,,165,175,182.5,,182.5,,,,,,182.5,2,B
Christian O'Grady,Australia,M,28,Raw,Open,116.4,125,,,,,,160,170,-175,,170,,,,,,170,3,B
Jussi Mattila,Finland,M,38,Raw,Open,120.3,125,,,,,,150,170,180,,180,,,,,,180,4,B
Rocky Tilson,USA,M,52,Raw,Open,110.3,125,,,,,,80,95,100,,100,,,,,,100,5,B
Jeremy Hoornstra,USA,M,33,Raw,Open,119,125,,,,,,-295,-295,-295,,,,,,,,,DQ,B
László Mészáros,Hungary,M,,Raw,Open,130.9,140,,,,,,270,285,300,,300,,,,,,300,1,B
Phil Ross,Australia,M,43,Raw,Masters 40-44,127.2,140,,,,,,175,185,-192.5,,185,,,,,,185,1,B
Rongoiti Kingi,Australia,M,25,Raw,Open,148,140+,,,,,,255,265,-272.5,,265,,,,,,265,1,B
Shaun Bostock,Australia,M,44,Raw,Open,153.8,140+,,,,,,240,-245,-245,,240,,,,,,240,2,B
Luke Mayne,Australia,M,,Raw,Juniors 20-23,167.1,140+,,,,,,-150,150,,,150,,,,,,150,1,B
Adrian Tullo,Australia,M,42,Raw,Masters 40-44,148.2,140+,,,,,,220,246,-250,,246,,,,,,246,1,B
Sandra Middleton,Australia,F,53,Raw,Masters 50-54,47.1,48,,,,,,,,,,,105,110,115,117.5,115,115,1,D
Kristy Iervasi,Australia,F,23,Raw,Juniors 20-23,46.9,48,,,,,,,,,,,90,100,-102.5,,100,100,1,D
Noela Read,Australia,F,73,Raw,Masters 70-74,52,52,,,,,,,,,,,-70,,,,,,DQ,D
Mariša Golob,Slovenia,F,24,Raw,Open,55.3,56,,,,,,,,,,,135,145,150,,150,150,1,D
Michelina Bajjada,,F,39,Raw,Open,59.2,60,,,,,,,,,,,115,120,127.5,,127.5,127.5,1,D
Lyndall Vile,Australia,F,26,Raw,Open,74.5,75,,,,,,,,,,,187.5,200,205,210,205,205,1,D
Anna Khudayarov,Finland,F,26,Raw,Open,86.4,90,,,,,,,,,,,200,215,222.5,,222.5,222.5,1,D
Sam McBain,Australia,M,15,Raw,Teen 13-15,59.5,60,,,,,,,,,,,170,183,,,183,183,1,D
Peter Mansfield,Australia,M,51,Raw,Masters 50-54,66.6,67.5,,,,,,,,,,,162.5,172.5,182.5,185,182.5,182.5,1,D
Rodney Newman,Australia,M,53,Raw,Masters 50-54,74.7,75,,,,,,,,,,,185,211,220,,220,220,1,D
Michael Watt,Australia,M,32,Raw,Open,72.2,75,,,,,,,,,,,230,245,250,,250,250,1,D
Andy Kao,Australia,M,19,Raw,Teen 18-19,69,75,,,,,,,,,,,220,-230,-230,,220,220,1,D
Jordan Chadwick #1,Australia,M,20,Raw,Juniors 20-23,74.2,75,,,,,,,,,,,222.5,232.5,-242.5,,232.5,232.5,1,D
Erni Gregorčič,Slovenia,M,38,Raw,Submasters 35-39,73,75,,,,,,,,,,,190,210,225,,225,225,1,D
Aaron Visona,Australia,M,28,Raw,Open,81.3,82.5,,,,,,,,,,,265,275,-297.5,,275,275,1,D
Andrew Dennett,Australia,M,19,Raw,Teen 18-19,78.8,82.5,,,,,,,,,,,220,225,-227.5,,225,225,1,D
Daniel Nunnari,Australia,M,21,Raw,Juniors 20-23,81.5,82.5,,,,,,,,,,,200,220,230,235,230,230,1,D
Mitch Peter Lee,Australia,M,17,Raw,Teen 16-17,81.8,82.5,,,,,,,,,,,175,200,,,200,200,1,D
LB Baker,USA,M,77,Raw,Masters 75-79,89.2,90,,,,,,,,,,,140,150,160,,160,160,1,D
Joe de Bono,Australia,M,40,Raw,Masters 40-44,89.5,90,,,,,,,,,,,250,270,-291,,270,270,1,D
Ryan Austen,Australia,M,33,Raw,Open,86.9,90,,,,,,,,,,,245,262.5,-272.5,,262.5,262.5,1,D
Les Wroe,Australia,M,25,Raw,Open,98.7,100,,,,,,,,,,,290,305,310,,310,310,1,D
Brad Wann,Australia,M,42,Raw,Masters 40-44,98.9,100,,,,,,,,,,,225,235,262.5,282.5,262.5,262.5,1,D
Adam Hockley,Australia,M,27,Raw,Open,98.4,100,,,,,,,,,,,235,252.5,260,,260,260,3,D
Nick Faulks,Australia,M,17,Raw,Teen 16-17,90.9,100,,,,,,,,,,,190,200,-207.5,,200,200,1,D
Konstantin Pozdeev,Russia,M,,Raw,Open,99.5,100,,,,,,,,,,,310,-340,,,310,310,2,D
Nick Dimakis,,M,24,Raw,Open,96.2,100,,,,,,,,,,,250,-265,-265,,250,250,4,D
Daniel Cann,Australia,M,41,Raw,Masters 40-44,109.9,110,,,,,,,,,,,290,300,-310,,300,300,1,D
Mikko Mäntymäki,Finland,M,43,Raw,Masters 40-44,101.1,110,,,,,,,,,,,175,230,-262.5,,230,230,2,D
Terry Gibbs,Australia,M,60,Raw,Masters 60-64,102.1,110,,,,,,,,,,,160,170,-175,,170,170,1,D
John Wharetohunga,New Zealand,M,29,Raw,Open,123,125,,,,,,,,,,,290,310,-325,,310,310,1,D
Joe Holland,Australia,M,,Raw,Juniors 20-23,116.5,125,,,,,,,,,,,185,,,,185,185,1,D
Ernie Lilliebridge Sr,USA,M,42,Raw,Masters 40-44,138.4,140,,,,,,,,,,,325,345,350,,350,350,1,D
Ben Simpson,Australia,M,29,Raw,Open,127.2,140,,,,,,,,,,,320,335,-350,,335,335,2,D
Andrey Malanichev,Russia,M,37,Raw,Open,140,140,,,,,,,,,,,250,300,,,300,300,3,D
Konstantīn Konstantīnovs,Latvia,M,,Raw,Open,134.9,140,,,,,,,,,,,370,400,,,400,400,1,D
Andy Bolton,UK,M,44,Raw,Open,152.5,140+,,,,,,,,,,,380,405,-417.5,,405,405,3,D
Lee Glenister,Australia,M,43,Raw,Open,157.8,140+,,,,,,,,,,,360,-385,,,360,360,4,D
Benedikt Magnússon #1,Iceland,M,,Raw,Open,165.4,140+,,,,,,,,,,,360,400,422.5,,422.5,422.5,1,D
Mikhail Koklyaev,Russia,M,,Raw,Open,160.7,140+,,,,,,,,,,,390,410,-422.5,,410,410,2,D
