Division,WeightClassKg,Place,Name,Team,BodyweightKg,Best3SquatKg,Best3BenchKg,Best3DeadliftKg,TotalKg,Equipment,Event,Sex
Boys,51.71,1,Nathan Mendiaz,Monahans,47.63,147.42,99.79,140.61,387.82,Single-ply,SBD,M
Boys,51.71,2,Bryan Quinteros,Lamesa,51.26,136.08,86.18,145.15,367.41,Single-ply,SBD,M
Boys,51.71,3,Jared Paredez,Big Spring,51.71,120.2,63.5,165.56,349.27,Single-ply,SBD,M
Boys,51.71,4,Zaniel Florez,Kermit,51.26,97.52,54.43,102.06,254.01,Single-ply,SBD,M
Boys,51.71,5,Andrick Ramirez,Fort Stockton,47.63,97.52,52.16,102.06,251.74,Single-ply,SBD,M
Boys,51.71,6,Mattox Evans,Big Spring,49.9,56.7,45.36,92.99,195.04,Single-ply,SBD,M
Boys,55.79,1,Bryson Ovalle,Big Spring,55.79,127.01,77.11,136.08,340.19,Single-ply,SBD,M
Boys,59.87,1,Justin Ormsby,Big Spring,59.6,181.44,90.72,199.58,471.74,Single-ply,SBD,M
Boys,59.87,2,Ty Diaz,Andrews,58.33,181.44,88.45,183.7,453.59,Single-ply,SBD,M
Boys,59.87,3,Miguel Arroyo,San Angelo Lake View,58.97,149.69,83.91,165.56,399.16,Single-ply,SBD,M
Boys,59.87,4,Tim Aynes,Lamesa,58.97,136.08,83.91,142.88,362.87,Single-ply,SBD,M
Boys,59.87,5,Nathan Olguin,Monahans,57.79,129.27,83.91,136.08,349.27,Single-ply,SBD,M
Boys,59.87,6,Aaron Aguilar,Lamesa,59.42,106.59,83.91,115.67,306.17,Single-ply,SBD,M
Boys,59.87,7,Cruz Martinez,Big Spring,56.02,117.93,65.77,108.86,292.57,Single-ply,SBD,M
Boys,59.87,8,Will Woolverton,Big Spring,59.6,117.93,56.7,106.59,281.23,Single-ply,SBD,M
Boys,59.87,9,Joshua Lopez,Big Spring,59.24,92.99,63.5,117.93,274.42,Single-ply,SBD,M
Boys,59.87,10,Conner Collins,Monahans,58.51,68.04,40.82,88.45,197.31,Single-ply,SBD,M
Boys,67.13,1,Britin Garcia,Andrews,66.77,190.51,111.13,190.51,492.15,Single-ply,SBD,M
Boys,67.13,2,Zach Holmes,Coahoma,64.86,183.7,95.25,188.24,467.2,Single-ply,SBD,M
Boys,67.13,3,Juan Salgado,Fort Stockton,61.87,158.76,104.33,161.03,424.11,Single-ply,SBD,M
Boys,67.13,4,Matteo Nunez,Monahans,66.68,163.29,104.33,147.42,415.04,Single-ply,SBD,M
Boys,67.13,5,Jeremy Mireles,San Angelo Lake View,66.32,138.35,92.99,165.56,396.89,Single-ply,SBD,M
Boys,67.13,6,Javon Mathews,Midland,66.22,151.95,77.11,147.42,376.48,Single-ply,SBD,M
Boys,67.13,7,Jaheam Amos,Monahans,63.96,131.54,83.91,151.95,367.41,Single-ply,SBD,M
Boys,67.13,8,Avery Cruz,Midland Greenwood,61.51,142.88,74.84,147.42,365.14,Single-ply,SBD,M
Boys,67.13,9,Ronnie Romero,Fort Stockton,66.41,127.01,81.65,147.42,356.07,Single-ply,SBD,M
Boys,67.13,10,Cody Moore,Andrews,64.68,140.61,68.04,140.61,349.27,Single-ply,SBD,M
Boys,67.13,11,Avery Keener,Monahans,64.95,127.01,83.91,138.35,349.27,Single-ply,SBD,M
Boys,67.13,12,Benito Hernandez,Odessa,62.96,115.67,83.91,142.88,342.46,Single-ply,SBD,M
Boys,67.13,13,Julian Vizcaino,Odessa,66.32,129.27,77.11,136.08,342.46,Single-ply,SBD,M
Boys,67.13,14,Anthony Martinez,San Angelo Lake View,66.32,113.4,88.45,124.74,326.59,Single-ply,SBD,M
Boys,67.13,15,Adrian Martinez #12,Odessa,59.96,113.4,72.57,113.4,299.37,Single-ply,SBD,M
Boys,67.13,16,Richardo Pacheco,Fort Stockton,65.86,90.72,49.9,81.65,222.26,Single-ply,SBD,M
Boys,67.13,DQ,Rugby Rodman,Crane,63.5,138.35,,,,Single-ply,SBD,M
Boys,67.13,DQ,Zavian Florez,Kermit,66.04,181.44,,,,Single-ply,SBD,M
Boys,74.84,1,Scott Pham,Midland,70.76,185.97,95.25,181.44,462.66,Single-ply,SBD,M
Boys,74.84,2,Aliber Garza,Midland Greenwood,73.48,156.49,104.33,183.7,444.52,Single-ply,SBD,M
Boys,74.84,3,Joshua Grimsley,Coahoma,70.49,154.22,99.79,165.56,419.57,Single-ply,SBD,M
Boys,74.84,4,Chris Rodriquez,Lamesa,73.94,149.69,88.45,163.29,401.43,Single-ply,SBD,M
Boys,74.84,5,Devin Mora,Andrews,72.03,145.15,102.06,149.69,396.89,Single-ply,SBD,M
Boys,74.84,6,Sylvester Galindo,Midland,73.03,142.88,83.91,145.15,371.95,Single-ply,SBD,M
Boys,74.84,7,Jalen Ybarra,Crane,72.3,124.74,81.65,138.35,344.73,Single-ply,SBD,M
Boys,74.84,8,Austin Ramierez,Crane,70.03,122.47,77.11,131.54,331.12,Single-ply,SBD,M
Boys,74.84,9,Isaiah Johnson,Big Spring,72.67,102.06,68.04,136.08,306.17,Single-ply,SBD,M
Boys,74.84,10,Julian Benavides,Odessa,73.48,111.13,72.57,120.2,303.91,Single-ply,SBD,M
Boys,74.84,11,Kevin Rodriguez,Big Spring,69.49,90.72,54.43,99.79,244.94,Single-ply,SBD,M
Boys,82.1,1,Marshall Mayfield,Midland,79.38,176.9,99.79,183.7,460.4,Single-ply,SBD,M
Boys,82.1,2,Bubba Christensen,San Angelo Lake View,78.02,176.9,106.59,172.37,455.86,Single-ply,SBD,M
Boys,82.1,3,Jezreel Sanchez,Odessa,78.74,170.1,92.99,183.7,446.79,Single-ply,SBD,M
Boys,82.1,4,Axel Nuno,Crane,79.11,151.95,99.79,147.42,399.16,Single-ply,SBD,M
Boys,82.1,5,Carter Christensen,San Angelo Lake View,79.74,136.08,106.59,156.49,399.16,Single-ply,SBD,M
Boys,82.1,6,Korbin Scott,Andrews,77.66,133.81,83.91,140.61,358.34,Single-ply,SBD,M
Boys,82.1,7,Justin Goldston,Andrews,75.02,120.2,58.97,136.08,315.25,Single-ply,SBD,M
Boys,82.1,8,Brayton Reinert,Coahoma,81.65,83.91,65.77,115.67,265.35,Single-ply,SBD,M
Boys,82.1,DQ,Mark Turnbow,Midland Greenwood,77.84,161.03,88.45,170.1,,Single-ply,SBD,M
Boys,82.1,DQ,John Paul Estrada,Midland,75.39,190.51,,,,Single-ply,SBD,M
Boys,82.1,DQ,Josue Flores,Andrews,80.56,145.15,,,,Single-ply,SBD,M
Boys,89.81,1,Dalton Richardson,Midland Greenwood,89.63,254.01,127.01,263.08,644.1,Single-ply,SBD,M
Boys,89.81,2,Adrean Perez,Crane,89.81,210.92,111.13,199.58,521.63,Single-ply,SBD,M
Boys,89.81,3,Braden Latham,Midland Greenwood,84.82,199.58,120.2,188.24,508.02,Single-ply,SBD,M
Boys,89.81,4,Keegan Dobbs,Coahoma,85,170.1,102.06,183.7,455.86,Single-ply,SBD,M
Boys,89.81,5,Justin Gonzales,Andrews,86.55,181.44,115.67,151.95,449.06,Single-ply,SBD,M
Boys,89.81,6,Nick Flores,Lamesa,88.45,136.08,81.65,149.69,367.41,Single-ply,SBD,M
Boys,89.81,7,Ryan Honeycutt,Monahans,84.55,115.67,54.43,115.67,285.76,Single-ply,SBD,M
Boys,89.81,8,Drew Clendenen,Crane,84.46,97.52,47.63,122.47,267.62,Single-ply,SBD,M
Boys,89.81,DQ,Clayton Culp,Lamesa,83.91,145.15,,,,Single-ply,SBD,M
Boys,89.81,DQ,Mikial Burrola,Kermit,84.46,142.88,,,,Single-ply,SBD,M
Boys,99.79,1,Ian Alvidrez,Seminole,89.9,208.65,136.08,219.99,564.72,Single-ply,SBD,M
Boys,99.79,2,Jerry Vasquez,Midland Greenwood,99.16,192.78,111.13,215.46,519.36,Single-ply,SBD,M
Boys,99.79,3,Ariel Delgado,Seminole,94.8,190.51,99.79,195.04,485.34,Single-ply,SBD,M
Boys,99.79,4,Christian Bell,Midland Greenwood,99.7,176.9,117.93,181.44,476.27,Single-ply,SBD,M
Boys,99.79,5,Francisco Nave,Odessa,96.8,165.56,111.13,174.63,451.32,Single-ply,SBD,M
Boys,99.79,6,Donatello Tovar,San Angelo Lake View,94.62,161.03,111.13,174.63,446.79,Single-ply,SBD,M
Boys,99.79,7,Gary Brooks,Odessa,89.9,167.83,104.33,154.22,426.38,Single-ply,SBD,M
Boys,99.79,8,Donnie De La Cruz,Fort Stockton,97.98,163.29,99.79,163.29,426.38,Single-ply,SBD,M
Boys,99.79,9,Samuel Ramirez,Lamesa,95.25,142.88,92.99,174.63,410.5,Single-ply,SBD,M
Boys,99.79,10,Angelo Lopez,Kermit,98.66,147.42,88.45,142.88,378.75,Single-ply,SBD,M
Boys,99.79,11,Mathew Chapman,Andrews,90.26,133.81,99.79,122.47,356.07,Single-ply,SBD,M
Boys,99.79,12,Grayson Glidewell,Coahoma,94.08,122.47,72.57,145.15,340.19,Single-ply,SBD,M
Boys,99.79,13,Harvey Balvantin,Fort Stockton,95.25,122.47,81.65,136.08,340.19,Single-ply,SBD,M
Boys,99.79,DQ,Sam Clendenen,Crane,90.54,140.61,,,,Single-ply,SBD,M
Boys,99.79,DQ,Toby Lambert,San Angelo Lake View,95.98,154.22,106.59,,,Single-ply,SBD,M
Boys,109.77,1,Josh Ramos,Midland,102.51,219.99,142.88,206.38,569.26,Single-ply,SBD,M
Boys,109.77,2,Ethan Martinez,Lamesa,107.95,229.06,129.27,210.92,569.26,Single-ply,SBD,M
Boys,109.77,3,Isaiah Vargas,Midland,101.6,219.99,142.88,183.7,546.58,Single-ply,SBD,M
Boys,109.77,4,Ivan Delgado,Big Spring,106.87,204.12,122.47,204.12,530.7,Single-ply,SBD,M
Boys,109.77,5,Marcos Marmolejo,Monahans,106.68,172.37,113.4,172.37,458.13,Single-ply,SBD,M
Boys,109.77,6,Cameron Burger,Midland Greenwood,102.24,174.63,106.59,167.83,449.06,Single-ply,SBD,M
Boys,109.77,7,Logan Sanders,San Angelo Lake View,101.51,154.22,95.25,183.7,433.18,Single-ply,SBD,M
Boys,109.77,8,Cody High,San Angelo Lake View,105.32,120.2,52.16,133.81,306.17,Single-ply,SBD,M
Boys,109.77,DQ,Kevin Townsend,San Angelo Lake View,107.5,124.74,,,,Single-ply,SBD,M
Boys,109.77,DQ,Isaiah Hernandez,Midland,101.6,190.51,,,,Single-ply,SBD,M
Boys,109.77,DQ,Brandon Conteras,Andrews,105.87,231.33,,,,Single-ply,SBD,M
Boys,124.74,1,Jarod Rose,Midland Greenwood,122.2,226.8,136.08,215.46,578.33,Single-ply,SBD,M
Boys,124.74,2,Moses Rodriquez,Lamesa,112.94,226.8,124.74,204.12,555.65,Single-ply,SBD,M
Boys,124.74,3,Noah Barriga,Fort Stockton,119.48,226.8,127.01,199.58,553.38,Single-ply,SBD,M
Boys,124.74,4,Alexis Rosas,Crane,124.47,213.19,129.27,154.22,496.68,Single-ply,SBD,M
Boys,124.74,5,Darius Pando,Kermit,113.76,188.24,97.52,192.78,478.54,Single-ply,SBD,M
Boys,124.74,6,Raziel Burrola,Kermit,110.68,165.56,111.13,195.04,471.74,Single-ply,SBD,M
Boys,124.74,7,Spencer Blue,Midland,115.21,174.63,111.13,181.44,467.2,Single-ply,SBD,M
Boys,124.74,8,Braden Hunt,Midland,112.04,174.63,99.79,154.22,428.64,Single-ply,SBD,M
Boys,124.74,9,Nathan Palos,Crane,111.95,163.29,104.33,151.95,419.57,Single-ply,SBD,M
Boys,124.74,10,Isaiah Rodriguez,Big Spring,117.3,181.44,86.18,145.15,412.77,Single-ply,SBD,M
Boys,124.74,11,Juan DeLuna,Garden City,122.47,151.95,83.91,147.42,383.29,Single-ply,SBD,M
Boys,124.74,12,Josh Jimenez,Monahans,122.83,145.15,81.65,124.74,351.53,Single-ply,SBD,M
Boys,124.74,13,Devin Boisvert,Big Spring,120.2,127.01,56.7,129.27,312.98,Single-ply,SBD,M
Boys,124.74,14,Justin Marsh,Coahoma,113.76,97.52,79.38,127.01,303.91,Single-ply,SBD,M
Boys,124.74,DQ,Daniel Roberts,Big Spring,113.85,113.4,95.25,,,Single-ply,SBD,M
Boys,124.74+,1,Zathan McIntosh,Kermit,167.83,263.08,129.27,215.46,607.81,Single-ply,SBD,M
Boys,124.74+,2,Jordan Dunn,Big Spring,124.87,238.14,151.95,201.85,591.94,Single-ply,SBD,M
Boys,124.74+,3,Ivien Gonzales,Lamesa,124.92,229.06,145.15,192.78,566.99,Single-ply,SBD,M
Boys,124.74+,4,Luis Jauregui,Monahans,130.09,195.04,122.47,188.24,505.76,Single-ply,SBD,M
Boys,124.74+,5,Ralph Navarette,Crane,154.22,167.83,124.74,174.63,467.2,Single-ply,SBD,M
Boys,124.74+,6,Gabriel Perez,Midland Greenwood,126.64,149.69,104.33,151.95,405.97,Single-ply,SBD,M
Boys,124.74+,7,John Gomez,Fort Stockton,127.64,174.63,63.5,149.69,387.82,Single-ply,SBD,M
Boys,124.74+,8,Shane Deel,Coahoma,131.63,104.33,74.84,108.86,288.03,Single-ply,SBD,M
Boys,124.74+,DQ,Alejandro Gonzales,Coahoma,149.69,,,,,Single-ply,SBD,M
Boys,124.74+,DQ,Anthony Cuellar,Andrews,128.46,231.33,,,,Single-ply,SBD,M
