Division,WeightClassKg,Place,Name,Team,BodyweightKg,Best3SquatKg,Best3BenchKg,Best3DeadliftKg,TotalKg,Equipment,Event,Sex,BirthDate
Girls,44.23,1,Chloie Devillier,Jacksonville,44,120.2,56.7,111.13,288.03,Single-ply,SBD,F,
Girls,44.23,2,Litzy Martinez,Jacksonville,44.18,90.72,43.09,92.99,226.8,Single-ply,SBD,F,
Girls,44.23,3,Arianna Richardson,Mexia,43.54,88.45,43.09,92.99,224.53,Single-ply,SBD,F,
Girls,44.23,4,Jolea Crow,Caddo Mills,43.27,86.18,40.82,92.99,219.99,Single-ply,SBD,F,
Girls,44.23,5,Kacey Blair,Jacksonville,44,72.57,45.36,79.38,197.31,Single-ply,SBD,F,
Girls,44.23,6,Katie Silva,Corsicana Mildred,42,54.43,34.02,72.57,161.03,Single-ply,SBD,F,
Girls,44.23,7,Alexis Vasquez,Mexia,42,54.43,36.29,68.04,158.76,Single-ply,SBD,F,
Girls,44.23,8,Lazet Soto,Carrollton Creekview,42.91,68.04,20.41,70.31,158.76,Single-ply,SBD,F,
Girls,44.23,DQ,Lizzie Ayala,Wylie East,44,,,,,Single-ply,SBD,F,
Girls,47.85,1,Miya Simmons,Royse City,47.36,90.72,38.56,108.86,238.14,Single-ply,SBD,F,
Girls,47.85,2,Jasmine Flores,Carrollton Creekview,47.36,92.99,40.82,97.52,231.33,Single-ply,SBD,F,
Girls,47.85,3,Reyna Munoz,Jacksonville,47.26,79.38,47.63,95.25,222.26,Single-ply,SBD,F,
Girls,47.85,4,Hailey Reagan,Overton,46.81,81.65,47.63,86.18,215.46,Single-ply,SBD,F,
Girls,47.85,5,Nayeli Delgado,Carrollton Turner,47.72,86.18,38.56,88.45,213.19,Single-ply,SBD,F,
Girls,47.85,6,Danielle Calderon,Forney,47.54,81.65,31.75,97.52,210.92,Single-ply,SBD,F,
Girls,47.85,7,Sofia Underwood,Forney,47.08,70.31,31.75,77.11,179.17,Single-ply,SBD,F,
Girls,47.85,8,Y Mora,Mexia,45.54,34.02,31.75,52.16,117.93,Single-ply,SBD,F,
Girls,47.85,9,Demara Williams,Harleton,47.08,92.99,,,92.99,Single-ply,S,F,
Girls,47.85,DQ,Abbye Canida,Crandall,47.63,,,,,Single-ply,SBD,F,
Girls,51.94,1,Natalie Walker,Princeton,51.07,145.15,83.91,136.08,365.14,Single-ply,SBD,F,
Girls,51.94,2,Brittany Westbrook,Jacksonville,51.89,108.86,68.04,113.4,290.3,Single-ply,SBD,F,
Girls,51.94,3,Lizbeth Banda,Carrollton Turner,51.62,95.25,52.16,104.33,251.74,Single-ply,SBD,F,
Girls,51.94,4,Caison Nachtigall,Crandall,50.62,97.52,52.16,95.25,244.94,Single-ply,SBD,F,
Girls,51.94,5,Alondra Campa,Kaufman,51.62,99.79,36.29,104.33,240.4,Single-ply,SBD,F,
Girls,51.94,6,Makayla Truitt,Harleton,48.53,95.25,43.09,90.72,229.06,Single-ply,SBD,F,
Girls,51.94,7,Brenna Merillat,Royse City,50.17,90.72,49.9,88.45,229.06,Single-ply,SBD,F,
Girls,51.94,8,Dailey Smith,Kaufman,48.08,68.04,27.22,86.18,181.44,Single-ply,SBD,F,
Girls,51.94,9,Audrey Williams,Carrollton Turner,51.71,63.5,27.22,90.72,181.44,Single-ply,SBD,F,
Girls,51.94,10,Jaqueline Hobbs,Sunnyvale,51.71,70.31,36.29,72.57,179.17,Single-ply,SBD,F,
Girls,51.94,11,Illiana Valenzuela,Carrollton Turner,48.17,65.77,36.29,70.31,172.37,Single-ply,SBD,F,
Girls,51.94,12,Kaylee Medina,Mexia,51.71,61.23,38.56,65.77,165.56,Single-ply,SBD,F,
Girls,51.94,DQ,Kaylee Hickey,Rockwall-Heath,50.08,81.65,52.16,,,Single-ply,SBD,F,
Girls,51.94,DQ,Sam Goodwin,Canton,49.08,,,,,Single-ply,SBD,F,
Girls,56.02,1,Kristyn Hoffard,Wylie East,55.61,131.54,58.97,113.4,303.91,Single-ply,SBD,F,
Girls,56.02,2,Mykl'Mechel Dubose,Carrollton Creekview,52.98,117.93,56.7,120.2,294.84,Single-ply,SBD,F,
Girls,56.02,3,Nikki Turner,Corsicana Mildred,55.43,95.25,61.23,124.74,281.23,Single-ply,SBD,F,
Girls,56.02,4,Karlee Coachran,Harleton,54.98,108.86,56.7,113.4,278.96,Single-ply,SBD,F,
Girls,56.02,5,Sandra Cuadrado,Carrollton Creekview,55.88,117.93,43.09,97.52,258.55,Single-ply,SBD,F,
Girls,56.02,6,MaKayla Stewart,North Forney,52.8,104.33,43.09,108.86,256.28,Single-ply,SBD,F,
Girls,56.02,7,Alexandria Canales,Royse City,55.97,99.79,40.82,115.67,256.28,Single-ply,SBD,F,
Girls,56.02,8,Bessie Elizardo,Caddo Mills,55.97,104.33,38.56,102.06,244.94,Single-ply,SBD,F,
Girls,56.02,9,Jillian Munson,Caddo Mills,53.8,102.06,40.82,95.25,238.14,Single-ply,SBD,F,
Girls,56.02,10,Autumn Brown,Canton,55.43,99.79,43.09,83.91,226.8,Single-ply,SBD,F,
Girls,56.02,11,Susanna Montenegro,Carrollton Turner,53.61,86.18,24.95,92.99,204.12,Single-ply,SBD,F,
Girls,56.02,12,Allison Estrada,Carrollton Turner,55.97,74.84,38.56,79.38,192.78,Single-ply,SBD,F,
Girls,56.02,13,Niya Womack,North Forney,55.79,74.84,38.56,74.84,188.24,Single-ply,SBD,F,
Girls,56.02,14,Jessie Luna,North Forney,52.07,86.18,,,86.18,Single-ply,S,F,
Girls,60.1,1,Mia Rabalais,Argyle,58.24,108.86,58.97,133.81,301.64,Single-ply,SBD,F,
Girls,60.1,2,Ale Guerrero,Longview Spring Hill,56.15,115.67,56.7,108.86,281.23,Single-ply,SBD,F,
Girls,60.1,3,Mary Gradt,Forney,59.01,111.13,52.16,117.93,281.23,Single-ply,SBD,F,
Girls,60.1,4,Trinity Leddy,Forney,59.92,92.99,45.36,106.59,244.94,Single-ply,SBD,F,
Girls,60.1,5,Lexy Garcia,Forney,59.06,90.72,49.9,97.52,238.14,Single-ply,SBD,F,
Girls,60.1,6,Isis Ibarra,Royse City,57.97,86.18,36.29,113.4,235.87,Single-ply,SBD,F,
Girls,60.1,7,Bryce Carlyle,Forney,59.06,86.18,45.36,102.06,233.6,Single-ply,SBD,F,
Girls,60.1,8,Gracie Ivey,Canton,59.42,86.18,52.16,95.25,233.6,Single-ply,SBD,F,
Girls,60.1,9,Aleny Gomez,Carrollton Turner,59.51,97.52,45.36,86.18,229.06,Single-ply,SBD,F,
Girls,60.1,10,Briana Hawley,Dallas Life Oak Cliff,56.25,74.84,38.56,79.38,192.78,Single-ply,SBD,F,
Girls,60.1,11,Jasmine Diaz,Mexia,56.43,72.57,43.09,70.31,185.97,Single-ply,SBD,F,
Girls,60.1,DQ,Margaret Santos,Mesquite Horn,56.7,,,,,Single-ply,SBD,F,
Girls,60.1,DQ,Dayana Munoz,Jacksonville,58.06,,,,,Single-ply,SBD,F,
Girls,60.1,DQ,Mahalia Morrow,Carrollton Ranchview,57.33,,,,,Single-ply,SBD,F,
Girls,60.1,DQ,Bailee Hubbard,Royse City,57.06,,,,,Single-ply,SBD,F,
Girls,67.36,1,Rylie Reed,Crandall,66.04,147.42,68.04,149.69,365.14,Single-ply,SBD,F,
Girls,67.36,2,Kristen Gonzalez,Jacksonville,65.59,133.81,61.23,124.74,319.78,Single-ply,SBD,F,
Girls,67.36,3,Andrea Guerra,Kaufman,66.41,122.47,47.63,147.42,317.51,Single-ply,SBD,F,
Girls,67.36,4,Macie Goode,Harleton,64.32,124.74,58.97,120.2,303.91,Single-ply,SBD,F,
Girls,67.36,5,Nelly Gomez,Carrollton Creekview,65.86,117.93,56.7,124.74,299.37,Single-ply,SBD,F,
Girls,67.36,6,Madison Geller,Wylie East,63.23,117.93,58.97,120.2,297.1,Single-ply,SBD,F,
Girls,67.36,7,Evie Davis,Canton,64.5,120.2,63.5,99.79,283.5,Single-ply,SBD,F,
Girls,67.36,8,Kelly Egan,Canton,60.51,111.13,52.16,99.79,263.08,Single-ply,SBD,F,
Girls,67.36,9,Cheyenne Gamrod,Canton,60.51,97.52,45.36,104.33,247.21,Single-ply,SBD,F,
Girls,67.36,10,Paris Jones,Sunnyvale,62.23,92.99,43.09,97.52,233.6,Single-ply,SBD,F,
Girls,67.36,11,Ellie Carr,Forney,65.91,79.38,52.16,99.79,231.33,Single-ply,SBD,F,
Girls,67.36,12,Kaleigh McCormack,Kaufman,62.23,102.06,38.56,88.45,229.06,Single-ply,SBD,F,
Girls,67.36,13,Jordyn Bell,North Forney,66.13,90.72,38.56,90.72,219.99,Single-ply,SBD,F,
Girls,67.36,14,Rachel Montgomery,Dallas South Oak Cliff,61.69,70.31,36.29,81.65,188.24,Single-ply,SBD,F,
Girls,75.07,1,Ella Moseri,Wylie East,69.94,145.15,74.84,174.63,394.63,Single-ply,SBD,F,
Girls,75.07,2,Nyliah White,Wylie East,73.94,151.95,70.31,165.56,387.82,Single-ply,SBD,F,
Girls,75.07,3,Leah Harris,Ennis,73.75,147.42,90.72,142.88,381.02,Single-ply,SBD,F,
Girls,75.07,4,Kamryn Gardner,Princeton,73.84,154.22,74.84,138.35,367.41,Single-ply,SBD,F,
Girls,75.07,5,Zoe Langford,Sunnyvale,73.07,136.08,83.91,138.35,358.34,Single-ply,SBD,F,
Girls,75.07,6,Eva Scott,Harleton,74.66,149.69,70.31,124.74,344.73,Single-ply,SBD,F,
Girls,75.07,7,Halle Hale,Caddo Mills,73.3,120.2,49.9,149.69,319.78,Single-ply,SBD,F,
Girls,75.07,8,Kirston McMilluen,Canton,67.86,102.06,72.57,117.93,292.57,Single-ply,SBD,F,
Girls,75.07,9,Ryan Barnett,Crandall,67.77,108.86,58.97,122.47,290.3,Single-ply,SBD,F,
Girls,75.07,10,Kaylee Koller,Crandall,71.49,113.4,58.97,106.59,278.96,Single-ply,SBD,F,
Girls,75.07,11,Daniella Victorino,Mesquite Horn,67.77,106.59,49.9,113.4,269.89,Single-ply,SBD,F,
Girls,75.07,12,Simone Rios,Royse City,72.21,113.4,47.63,108.86,269.89,Single-ply,SBD,F,
Girls,75.07,13,Shelby Wycough,Canton,70.13,104.33,54.43,99.79,258.55,Single-ply,SBD,F,
Girls,75.07,14,Mayra Angiano,Terrell,73.39,90.72,47.63,106.59,244.94,Single-ply,SBD,F,
Girls,75.07,15,Tess Corker,North Forney,70.76,74.84,38.56,129.27,242.67,Single-ply,SBD,F,
Girls,75.07,16,Arely Lara,Jacksonville,72.12,90.72,43.09,104.33,238.14,Single-ply,SBD,F,
Girls,75.07,17,Katarina Cunningham,Kaufman,67.77,97.52,43.09,92.99,233.6,Single-ply,SBD,F,
Girls,75.07,18,Alexis Hoverter,Carrollton Turner,72.12,72.57,58.97,90.72,222.26,Single-ply,SBD,F,
Girls,75.07,19,Mallory Huson,Canton,68.76,68.04,40.82,90.72,199.58,Single-ply,SBD,F,
Girls,75.07,20,Marisol Velesquez,Terrell,69.13,61.23,27.22,83.91,172.37,Single-ply,SBD,F,
Girls,75.07,21,Mariana Guerrero,Dallas A+,70.03,52.16,22.68,92.99,167.83,Single-ply,SBD,F,
Girls,75.07,DQ,Kai Phillips,Carrollton Turner,74.3,111.13,,,,Single-ply,SBD,F,
Girls,75.07,DQ,Fara Storey,Detroit,75.02,,,,,Single-ply,SBD,F,
Girls,75.07,DQ,Rebecca Esmeraldo,Mesquite Horn,75.02,,,,,Single-ply,SBD,F,
Girls,82.33,1,Aspen Holm,Royse City,76.57,140.61,83.91,142.88,367.41,Single-ply,SBD,F,
Girls,82.33,2,Sydney Haas,Wylie East,80.2,151.95,74.84,136.08,362.87,Single-ply,SBD,F,
Girls,82.33,3,Sydney Bazan,Princeton,80.01,156.49,72.57,129.27,358.34,Single-ply,SBD,F,
Girls,82.33,4,Carmen Mitchell,Wylie East,81.1,158.76,63.5,127.01,349.27,Single-ply,SBD,F,
Girls,82.33,5,Annslie Woodard,Argyle Liberty Christian School,76.2,138.35,68.04,138.35,344.73,Single-ply,SBD,F,
Girls,82.33,6,Bryanna Perez,Carrollton Turner,75.93,124.74,68.04,136.08,328.85,Single-ply,SBD,F,
Girls,82.33,7,Sara Mefford,Canton,79.38,129.27,68.04,124.74,322.05,Single-ply,SBD,F,
Girls,82.33,8,Emma Roeder,Kaufman,80.2,117.93,56.7,131.54,306.17,Single-ply,SBD,F,
Girls,82.33,9,Patience Crook,Forney,78.97,117.93,58.97,113.4,290.3,Single-ply,SBD,F,
Girls,82.33,10,Savannah Valderas,Kaufman,79.2,124.74,52.16,102.06,278.96,Single-ply,SBD,F,
Girls,82.33,11,Ruthann Daniel,Sunnyvale,81.56,90.72,61.23,122.47,274.42,Single-ply,SBD,F,
Girls,82.33,12,Sheyna Zamarron,Crandall,81.19,99.79,45.36,122.47,267.62,Single-ply,SBD,F,
Girls,82.33,13,Deanna Battson,Caddo Mills,75.11,108.86,38.56,102.06,249.48,Single-ply,SBD,F,
Girls,82.33,DQ,Tia Dodd,Princeton,77.02,138.35,70.31,,,Single-ply,SBD,F,
Girls,82.33,DQ,Vivian Brisbois,Canton,78.11,115.67,,,,Single-ply,SBD,F,
Girls,90.04,1,Ariana Garcia,Mesquite Horn,87.18,181.44,81.65,174.63,437.72,Single-ply,SBD,F,
Girls,90.04,2,Jacqueline Sanchez,Carrollton Creekview,86.09,142.88,68.04,151.95,362.87,Single-ply,SBD,F,
Girls,90.04,3,Lila Holmes,Carrollton Creekview,83.82,136.08,88.45,129.27,353.8,Single-ply,SBD,F,
Girls,90.04,4,Stephanie Cruz,Wylie East,84.82,138.35,77.11,129.27,344.73,Single-ply,SBD,F,
Girls,90.04,5,Violeta Compean,Royse City,85.91,124.74,68.04,138.35,331.12,Single-ply,SBD,F,
Girls,90.04,6,Lindsay McManus,Ennis,88.36,127.01,63.5,120.2,310.71,Single-ply,SBD,F,
Girls,90.04,7,Cristina Sierra,Kaufman,88.36,117.93,63.5,127.01,308.44,Single-ply,SBD,F,
Girls,90.04,8,Maggie Urbanski,Crandall,88.18,120.2,61.23,124.74,306.17,Single-ply,SBD,F,
Girls,90.04,9,Erica Hunt,Princeton,84.46,113.4,58.97,122.47,294.84,Single-ply,SBD,F,
Girls,90.04,10,Natalie Emanuel,Dallas South Oak Cliff,85.73,83.91,43.09,102.06,229.06,Single-ply,SBD,F,
Girls,90.04,DQ,Hanna Lindsey,Caddo Mills,88.54,,,,,Single-ply,SBD,F,
Girls,100.02,1,Sadie Hewitt,Forney,97.11,219.99,95.25,183.7,498.95,Single-ply,SBD,F,
Girls,100.02,2,Maricela Compean,Royse City,99.16,195.04,97.52,190.51,483.08,Single-ply,SBD,F,
Girls,100.02,3,Amarelis Gonzalez,Jacksonville,97.07,183.7,68.04,145.15,396.89,Single-ply,SBD,F,
Girls,100.02,4,Madison Yruegas,Caddo Mills,97.89,161.03,68.04,149.69,378.75,Single-ply,SBD,F,
Girls,100.02,5,Rheagan White,Royse City,94.71,136.08,90.72,136.08,362.87,Single-ply,SBD,F,
Girls,100.02,6,Allison Meredith,Carrollton Turner,95.53,124.74,83.91,129.27,337.93,Single-ply,SBD,F,
Girls,100.02,7,Shyla Walls,Canton,91.26,117.93,79.38,124.74,322.05,Single-ply,SBD,F,
Girls,100.02,8,Peyton Sartor,Overton,99.97,117.93,58.97,140.61,317.51,Single-ply,SBD,F,
Girls,100.02,9,Arianna Perkins,Kaufman,94.44,129.27,54.43,127.01,310.71,Single-ply,SBD,F,
Girls,100.02,10,Faith Besherse,Canton,94.17,115.67,63.5,115.67,294.84,Single-ply,SBD,F,
Girls,100.02,11,Trinity Hicks,Royse City,90.81,90.72,52.16,113.4,256.28,Single-ply,SBD,F,
Girls,100.02,12,Maddie Lazaro,Overton,94.62,86.18,56.7,102.06,244.94,Single-ply,SBD,F,
Girls,100.02,DQ,Nidia Moctezuma,Kaufman,98.07,122.47,,,,Single-ply,SBD,F,
Girls,117.71,1,Javin Crawford,Crandall,116.66,145.15,90.72,156.49,392.36,Single-ply,SBD,F,
Girls,117.71,2,Frances Frank-Nwafor,Wylie East,102.6,145.15,65.77,176.9,387.82,Single-ply,SBD,F,
Girls,117.71,3,Abby Larry,Crandall,102.97,142.88,83.91,145.15,371.95,Single-ply,SBD,F,
Girls,117.71,4,India Banks-Bray,Royse City,114.58,136.08,72.57,158.76,367.41,Single-ply,SBD,F,
Girls,117.71,5,Destiny Valdez,Wylie East,109.86,136.08,79.38,142.88,358.34,Single-ply,SBD,F,
Girls,117.71,6,Kiriyana Roland,Overton,112.04,131.54,65.77,140.61,337.93,Single-ply,SBD,F,
Girls,117.71,7,Olivia Massey,Terrell,106.14,136.08,52.16,136.08,324.32,Single-ply,SBD,F,
Girls,117.71,8,Kensey Garrett,Canton,104.33,133.81,70.31,117.93,322.05,Single-ply,SBD,F,
Girls,117.71,9,Brooklyn Irby,Crandall,104.6,117.93,63.5,117.93,299.37,Single-ply,SBD,F,
Girls,117.71,10,Cristal Ponce,Jacksonville,117.66,117.93,54.43,117.93,290.3,Single-ply,SBD,F,
Girls,117.71,DQ,Carolyn Stepherson,Carrollton Creekview,109.41,149.69,65.77,,,Single-ply,SBD,F,
Girls,117.71+,1,Balie Tingle,Harleton,122.47,181.44,90.72,136.08,408.23,Single-ply,SBD,F,
Girls,117.71+,2,McKenzie Commander,Mexia,118.39,142.88,92.99,147.42,383.29,Single-ply,SBD,F,
Girls,117.71+,3,Peyton Hubbard,Royse City,126.82,149.69,70.31,129.27,349.27,Single-ply,SBD,F,
Girls,117.71+,4,Hannah Manning,Royse City,124.1,129.27,68.04,136.08,333.39,Single-ply,SBD,F,
Girls,117.71+,5,Dalilah Canida,North Forney,132.81,136.08,63.5,124.74,324.32,Single-ply,SBD,F,
